Division,WeightClassKg,Place,Name,Team,BodyweightKg,Best3SquatKg,Best3BenchKg,Best3DeadliftKg,TotalKg,Equipment,Event,Sex,BirthDate
Boys,51.71,1,Noah Estrada,Agua Dulce,51.71,142.88,88.45,154.22,385.55,Single-ply,SBD,M,
Boys,51.71,2,Jose Chapa,Ben Bolt-Palito Blanco,50.3,97.52,49.9,106.59,254.01,Single-ply,SBD,M,
Boys,51.71,DQ,Daniel Montoya,Gregory-Portland,51.71,136.08,,142.88,,Single-ply,SBD,M,
Boys,55.79,1,David Perez,Ben Bolt-Palito Blanco,55.61,165.56,102.06,163.29,430.91,Single-ply,SBD,M,
Boys,55.79,2,Randy Velasquez,Robstown,54.79,111.13,88.45,113.4,312.98,Single-ply,SBD,M,
Boys,55.79,3,Carson Bhakta,Rockport-Fulton,55.79,111.13,52.16,120.2,283.5,Single-ply,SBD,M,
Boys,59.87,1,John Contreras,Beeville Jones,57.52,183.7,81.65,197.31,462.66,Single-ply,SBD,M,
Boys,59.87,2,Taylor Swinnea,Skidmore-Tynan,59.65,138.35,70.31,151.95,360.61,Single-ply,SBD,M,
Boys,59.87,3,Daniel Cantu,Corpus Christi West Oso,57.38,111.13,83.91,142.88,337.93,Single-ply,SBD,M,
Boys,67.13,1,Josh Trevino,Corpus Christi West Oso,65.91,240.4,142.88,210.92,594.21,Single-ply,SBD,M,
Boys,67.13,2,Jace Ruiz,Three Rivers,62.01,117.93,102.06,142.88,362.87,Single-ply,SBD,M,
Boys,67.13,3,Francisco Torres,Taft,66.9,133.81,70.31,147.42,351.53,Single-ply,SBD,M,
Boys,67.13,4,Nathaniel Robles,Robstown,62.69,111.13,86.18,124.74,322.05,Single-ply,SBD,M,
Boys,67.13,5,Giovanni Robles,Robstown,63.5,106.59,90.72,120.2,317.51,Single-ply,SBD,M,
Boys,67.13,6,Landen Longoria,Sinton,64.09,120.2,68.04,129.27,317.51,Single-ply,SBD,M,
Boys,67.13,7,Carson Guidry,Taft,61.28,111.13,77.11,120.2,308.44,Single-ply,SBD,M,
Boys,67.13,8,Dylan Medina,Ben Bolt-Palito Blanco,67.13,108.86,61.23,131.54,301.64,Single-ply,SBD,M,
Boys,67.13,9,Ivan Moreno,Ben Bolt-Palito Blanco,60.96,102.06,86.18,102.06,290.3,Single-ply,SBD,M,
Boys,67.13,10,Royce Hernandez,Sinton,62.78,113.4,47.63,113.4,274.42,Single-ply,SBD,M,
Boys,67.13,DQ,Nicolas Kyle,Skidmore-Tynan,62.37,142.88,,133.81,,Single-ply,SBD,M,
Boys,74.84,1,Jerek Sanchez,Sinton,68.81,256.28,165.56,260.82,682.66,Single-ply,SBD,M,
Boys,74.84,2,Joseph Chavez,Taft,74.3,215.46,113.4,219.99,548.85,Single-ply,SBD,M,
Boys,74.84,3,Jaden Howard,Sinton,74.3,183.7,120.2,206.38,510.29,Single-ply,SBD,M,
Boys,74.84,4,Angel Concepcion,Rockport-Fulton,74.3,158.76,102.06,183.7,444.52,Single-ply,SBD,M,
Boys,74.84,5,Kaden Kennedy,Rockport-Fulton,71.21,147.42,90.72,183.7,421.84,Single-ply,SBD,M,
Boys,74.84,6,Elijah Sustantia,Beeville Jones,72.8,158.76,92.99,158.76,410.5,Single-ply,SBD,M,
Boys,74.84,7,Chris Cantu,Taft,68.81,156.49,83.91,142.88,383.29,Single-ply,SBD,M,
Boys,74.84,8,Mikal Niembro,George West,68.49,149.69,102.06,124.74,376.48,Single-ply,SBD,M,
Boys,74.84,DQ,Joseph Reyes,Corpus Christi West Oso,68.99,127.01,,136.08,,Single-ply,SBD,M,
Boys,74.84,DQ,Dalvin Batts,Gregory-Portland,74.71,192.78,,190.51,,Single-ply,SBD,M,
Boys,74.84,DQ,Rhylan Guajardo,Robstown,74.84,147.42,,142.88,,Single-ply,SBD,M,
Boys,82.1,1,Kristopher Laughlin,Skidmore-Tynan,81.74,226.8,142.88,215.46,585.13,Single-ply,SBD,M,
Boys,82.1,2,Justin Fowler,George West,80.6,204.12,122.47,183.7,510.29,Single-ply,SBD,M,
Boys,82.1,3,Cristian Kane,Rockport-Fulton,80.51,183.7,106.59,206.38,496.68,Single-ply,SBD,M,
Boys,82.1,4,Donald Mann,Agua Dulce,78.02,190.51,120.2,179.17,489.88,Single-ply,SBD,M,
Boys,82.1,5,Juan Garcia,Beeville Jones,79.7,176.9,138.35,172.37,487.61,Single-ply,SBD,M,
Boys,82.1,6,Arve Vasquez,Beeville Jones,81.92,183.7,115.67,188.24,487.61,Single-ply,SBD,M,
Boys,82.1,7,Kalub Schmidt,Rockport-Fulton,78.88,158.76,120.2,199.58,478.54,Single-ply,SBD,M,
Boys,82.1,8,Marcello Nieto,Taft,82.1,165.56,83.91,181.44,430.91,Single-ply,SBD,M,
Boys,82.1,9,David Karl,Gregory-Portland,79.11,149.69,102.06,161.03,412.77,Single-ply,SBD,M,
Boys,82.1,10,Fernando Vega,Corpus Christi West Oso,75.3,142.88,102.06,165.56,410.5,Single-ply,SBD,M,
Boys,82.1,11,Jason Martinez,Taft,76.38,136.08,79.38,165.56,381.02,Single-ply,SBD,M,
Boys,82.1,12,Jacob Martin,Beeville Jones,82.1,136.08,90.72,151.95,378.75,Single-ply,SBD,M,
Boys,82.1,DQ,Jackson Sutton,Gregory-Portland,78.61,165.56,,181.44,,Single-ply,SBD,M,
Boys,89.81,1,Keegan Westmoreland,Skidmore-Tynan,86.91,224.53,113.4,210.92,548.85,Single-ply,SBD,M,
Boys,89.81,2,Sniper Favela,Beeville Jones,85.82,199.58,149.69,183.7,532.97,Single-ply,SBD,M,
Boys,89.81,3,Abel Delarosa,Robstown,88.09,174.63,131.54,199.58,505.76,Single-ply,SBD,M,
Boys,89.81,4,Jason Drummond,Gregory-Portland,89.49,190.51,115.67,183.7,489.88,Single-ply,SBD,M,
Boys,89.81,5,Aydon Sarate,Beeville Jones,85.41,181.44,133.81,163.29,478.54,Single-ply,SBD,M,
Boys,89.81,6,Adrian Estrada,Rockport-Fulton,89.49,201.85,102.06,170.1,474,Single-ply,SBD,M,
Boys,89.81,7,Bryan Perales,Sinton,86.91,124.74,83.91,158.76,367.41,Single-ply,SBD,M,
Boys,89.81,8,Anthony Rivas,Sinton,85.59,115.67,83.91,158.76,358.34,Single-ply,SBD,M,
Boys,89.81,9,James Lobao,Sinton,84.01,147.42,70.31,120.2,337.93,Single-ply,SBD,M,
Boys,89.81,10,Noel Matinez,Beeville Jones,84.28,120.2,72.57,136.08,328.85,Single-ply,SBD,M,
Boys,89.81,11,Jallen Medina,George West,88.09,142.88,68.04,113.4,324.32,Single-ply,SBD,M,
Boys,89.81,12,Mauricio Parra,Ben Bolt-Palito Blanco,85.09,102.06,74.84,124.74,301.64,Single-ply,SBD,M,
Boys,89.81,DQ,Diondray Parker,Gregory-Portland,89.4,,129.27,195.04,,Single-ply,SBD,M,
Boys,99.79,1,Joey Cantu,Rockport-Fulton,98.2,272.16,165.56,238.14,675.85,Single-ply,SBD,M,
Boys,99.79,2,Michael Nesbit,Gregory-Portland,94.12,222.26,127.01,195.04,544.31,Single-ply,SBD,M,
Boys,99.79,3,Phillip Krupa,Rockport-Fulton,97.39,192.78,142.88,206.38,542.04,Single-ply,SBD,M,
Boys,99.79,4,Carlos Reyes #4,Beeville Jones,93.71,188.24,147.42,195.04,530.7,Single-ply,SBD,M,
Boys,99.79,5,Payton McAlister,Rockport-Fulton,96.57,183.7,138.35,206.38,528.44,Single-ply,SBD,M,
Boys,99.79,6,Isaac Reyes,Corpus Christi West Oso,92.58,174.63,138.35,192.78,505.76,Single-ply,SBD,M,
Boys,99.79,7,Matthias Esparza,Rockport-Fulton,94.48,183.7,124.74,195.04,503.49,Single-ply,SBD,M,
Boys,99.79,8,Isreal Espinoza,Robstown,94.39,165.56,129.27,172.37,467.2,Single-ply,SBD,M,
Boys,99.79,9,Jacob Ramos,Corpus Christi West Oso,92.49,142.88,92.99,161.03,396.89,Single-ply,SBD,M,
Boys,109.77,1,Mark Lara,Gregory-Portland,109.77,258.55,156.49,242.67,657.71,Single-ply,SBD,M,
Boys,109.77,2,Nathan Reyes,Corpus Christi West Oso,103.92,188.24,147.42,204.12,539.77,Single-ply,SBD,M,
Boys,109.77,DQ,Devon Ochoa,Three Rivers,101.02,120.2,90.72,129.27,,Single-ply,SBD,M,
Boys,124.74,1,Xavier Aleman,Beeville Jones,116.71,233.6,192.78,206.38,632.76,Single-ply,SBD,M,
Boys,124.74,2,Victor Espinoza,Agua Dulce,120.29,229.06,127.01,219.99,576.06,Single-ply,SBD,M,
Boys,124.74,3,Samual Morales,Sinton,122.33,210.92,122.47,188.24,521.63,Single-ply,SBD,M,
Boys,124.74,4,Edwin Aguilar,Robstown,111.72,192.78,136.08,183.7,512.56,Single-ply,SBD,M,
Boys,124.74,5,Andrew Evans,Gregory-Portland,119.29,142.88,115.67,170.1,428.64,Single-ply,SBD,M,
Boys,124.74,6,Tucker Carpemter,George West,115.8,161.03,102.06,163.29,426.38,Single-ply,SBD,M,
Boys,124.74,7,Arnulfo Puga,Beeville Jones,117.21,174.63,97.52,151.95,424.11,Single-ply,SBD,M,
Boys,124.74,8,Coleman Anderson,Three Rivers,120.61,140.61,117.93,161.03,419.57,Single-ply,SBD,M,
Boys,124.74,9,Daniel Adamez,Beeville Jones,120.79,154.22,92.99,156.49,403.7,Single-ply,SBD,M,
Boys,124.74,10,Anthony Leyba,Corpus Christi West Oso,111.49,136.08,111.13,142.88,390.09,Single-ply,SBD,M,
Boys,124.74,11,Christopher Goodman,Ben Bolt-Palito Blanco,112.49,124.74,97.52,149.69,371.95,Single-ply,SBD,M,
Boys,124.74,12,Christopher Leyba,Corpus Christi West Oso,120.88,122.47,120.2,124.74,367.41,Single-ply,SBD,M,
Boys,139.71,1,Elijah Brown,Sinton,127.6,283.5,161.03,247.21,691.73,Single-ply,SBD,M,
Boys,139.71,2,Jonas Olivarez,Rockport-Fulton,135.99,226.8,154.22,195.04,576.06,Single-ply,SBD,M,
Boys,139.71,3,Benjamin Oyervides,Robstown,134.31,215.46,158.76,199.58,573.79,Single-ply,SBD,M,
Boys,139.71,4,Conrad Padron,Skidmore-Tynan,133.45,192.78,133.81,172.37,498.95,Single-ply,SBD,M,
Boys,139.71,5,Joe Hernandez #2,Corpus Christi West Oso,126.69,181.44,133.81,151.95,467.2,Single-ply,SBD,M,
Boys,139.71,6,Brandon Montez,Taft,126.6,183.7,92.99,183.7,460.4,Single-ply,SBD,M,
Boys,139.71,7,Jacob Ramos,Agua Dulce,127.69,172.37,102.06,165.56,439.98,Single-ply,SBD,M,
Boys,139.71,8,Noah Horton,Beeville Jones,127.1,151.95,86.18,133.81,371.95,Single-ply,SBD,M,
Boys,139.71+,1,Mark Pena,Robstown,146.78,260.82,192.78,219.99,673.58,Single-ply,SBD,M,
Boys,139.71+,2,Dalton Romo,Three Rivers,176.49,81.65,65.77,108.86,256.28,Single-ply,SBD,M,
Boys,139.71+,DQ,Eduardo Lino,Corpus Christi West Oso,186.52,,77.11,142.88,,Single-ply,SBD,M,
