Division,WeightClassKg,Place,Name,Team,BodyweightKg,Best3SquatKg,Best3BenchKg,Best3DeadliftKg,TotalKg,Equipment,Event,Sex,BirthDate
Boys,51.71,1,Isaiah Ureste,Fort Stockton,49.94,90.72,43.09,83.91,217.72,Single-ply,SBD,M,
Boys,55.79,1,Jesse Rodriguez,Monahans,55.79,111.13,58.97,131.54,301.64,Single-ply,SBD,M,
Boys,59.87,1,Daniel Renteria,Fort Stockton,59.15,136.08,70.31,151.95,358.34,Single-ply,SBD,M,
Boys,59.87,2,Darian Renteria,Fort Stockton,59.24,136.08,68.04,115.67,319.78,Single-ply,SBD,M,
Boys,67.13,1,Caleb Lee,Monahans,62.32,147.42,88.45,158.76,394.63,Single-ply,SBD,M,
Boys,67.13,2,Leeland Ibarra,Fort Stockton,67.13,120.2,97.52,142.88,360.61,Single-ply,SBD,M,
Boys,67.13,3,Jesse Portillo,Alpine,64.18,129.27,74.84,147.42,351.53,Single-ply,SBD,M,
Boys,67.13,4,Kniht Hogan,Monahans,64.5,108.86,72.57,142.88,324.32,Single-ply,SBD,M,
Boys,67.13,5,Nathan Wessels,Monahans,62.19,117.93,58.97,136.08,312.98,Single-ply,SBD,M,
Boys,74.84,1,Gaviel Burrola,Kermit,71.99,185.97,99.79,188.24,474,Single-ply,SBD,M,
Boys,74.84,2,Adan Saucedo,Monahans,71.08,154.22,79.38,192.78,426.38,Single-ply,SBD,M,
Boys,74.84,3,Bryan Bejarano,Monahans,74.71,140.61,92.99,192.78,426.38,Single-ply,SBD,M,
Boys,74.84,4,Tanner Jones,Monahans,73.16,163.29,102.06,158.76,424.11,Single-ply,SBD,M,
Boys,74.84,5,Oscar Vasquez,Alpine,70.4,151.95,90.72,167.83,410.5,Single-ply,SBD,M,
Boys,74.84,6,Dylan Soltero,Wink,67.9,136.08,79.38,151.95,367.41,Single-ply,SBD,M,
Boys,74.84,7,Mauricio Perez,Kermit,73.48,127.01,70.31,158.76,356.07,Single-ply,SBD,M,
Boys,74.84,8,Omar Benavides,Fort Stockton,69.72,108.86,83.91,104.33,297.1,Single-ply,SBD,M,
Boys,82.1,1,Jovany Hernandez,Fort Stockton,79.92,165.56,102.06,185.97,453.59,Single-ply,SBD,M,
Boys,82.1,2,Adiel Rodriguez,Kermit,79.92,183.7,113.4,149.69,446.79,Single-ply,SBD,M,
Boys,82.1,4,Cole Purcell,Wink,81.96,149.69,92.99,158.76,401.43,Single-ply,SBD,M,
Boys,82.1,5,Domingo Reyes,Kermit,81.65,136.08,99.79,138.35,374.21,Single-ply,SBD,M,
Boys,82.1,6,Reese Ahrens,Alpine,80.51,102.06,86.18,167.83,356.07,Single-ply,SBD,M,
Boys,82.1,9,Brayden Valenzuela,Fort Stockton,80.51,115.67,81.65,133.81,331.12,Single-ply,SBD,M,
Boys,82.1,10,Marco Martínez,Alpine,76.43,92.99,52.16,129.27,274.42,Single-ply,SBD,M,
Boys,89.81,1,Lash Caldwell,Monahans,87.77,145.15,83.91,179.17,408.23,Single-ply,SBD,M,
Boys,89.81,2,Jose Sarabia,Fort Stockton,86.77,108.86,65.77,111.13,285.76,Single-ply,SBD,M,
Boys,89.81,3,Jose Hernandez,Fort Stockton,82.33,163.29,108.86,156.49,428.64,Single-ply,SBD,M,
Boys,89.81,7,Zach Wash,Alpine,82.24,115.67,81.65,158.76,356.07,Single-ply,SBD,M,
Boys,89.81,8,Ryan Ortega,Fort Stockton,82.19,106.59,81.65,149.69,337.93,Single-ply,SBD,M,
Boys,99.79,1,Brandon Tovar,Monahans,94.71,183.7,108.86,195.04,487.61,Single-ply,SBD,M,
Boys,99.79,2,Kendell Dunnam,Kermit,97.61,181.44,102.06,195.04,478.54,Single-ply,SBD,M,
Boys,99.79,4,Ryan Gooch,Alpine,99.79,179.17,90.72,167.83,437.72,Single-ply,SBD,M,
Boys,99.79,5,Alonzo Uranga,Monahans,93.94,156.49,95.25,151.95,403.7,Single-ply,SBD,M,
Boys,99.79,6,Gabriel Murphy,Fort Stockton,90.4,142.88,83.91,136.08,362.87,Single-ply,SBD,M,
Boys,99.79,7,Grayson Ellis,Wink,92.03,136.08,95.25,131.54,362.87,Single-ply,SBD,M,
Boys,99.79,8,Ayden Fox,Fort Stockton,90.17,127.01,77.11,151.95,356.07,Single-ply,SBD,M,
Boys,99.79,9,Kadin Galvan,Fort Stockton,91.04,129.27,79.38,142.88,351.53,Single-ply,SBD,M,
Boys,109.77,1,Jesse Putnam,Wink,103.92,215.46,147.42,222.26,585.13,Single-ply,SBD,M,
Boys,109.77,2,Eliseo Bonilla,Kermit,107.09,201.85,124.74,206.38,532.97,Single-ply,SBD,M,
Boys,109.77,3,Tristan Smith,Alpine,99.97,154.22,106.59,192.78,453.59,Single-ply,SBD,M,
Boys,109.77,3,Jesus Carrillo,Wink,102.29,188.24,127.01,161.03,476.27,Single-ply,SBD,M,
Boys,109.77,5,David Dobson,Kermit,102.29,183.7,108.86,165.56,458.13,Single-ply,SBD,M,
Boys,109.77,6,Cash Flores,Monahans,107.82,161.03,113.4,170.1,444.52,Single-ply,SBD,M,
Boys,109.77,7,Luis Solis,Marfa,109.77,115.67,65.77,136.08,317.51,Single-ply,SBD,M,
Boys,124.74,1,Ethan Turegano,Wink,110.72,181.44,120.2,170.1,471.74,Single-ply,SBD,M,
Boys,124.74,2,Raymond Epley,Wink,115.85,136.08,83.91,124.74,344.73,Single-ply,SBD,M,
Boys,124.74,4,Nathan Pena,Marfa,109.81,149.69,129.27,181.44,460.4,Single-ply,SBD,M,
Boys,124.74,DQ,Sebastian De La Rosa,Kermit,117.25,192.78,,,,Single-ply,SBD,M,
Boys,139.71,1,Skylen Copeland,Wink,128.82,199.58,117.93,165.56,483.08,Single-ply,SBD,M,
Boys,139.71,DQ,Aj Martinez,Kermit,131.36,,,,,Single-ply,SBD,M,
Boys,139.71+,1,Jalen Ramirez,Wink,152.32,251.74,145.15,238.14,635.03,Single-ply,SBD,M,
Boys,139.71+,2,Jerry Perez,Kermit,147.24,231.33,122.47,226.8,580.6,Single-ply,SBD,M,
