Place,Name,Sex,BirthDate,Age,Country,State,Equipment,Division,BodyweightKg,WeightClassKg,Squat1Kg,Squat2Kg,Squat3Kg,Best3SquatKg,Bench1Kg,Bench2Kg,Bench3Kg,Best3BenchKg,Deadlift1Kg,Deadlift2Kg,Deadlift3Kg,Best3DeadliftKg,TotalKg,Event
1,Jasmine Mercado,F,1995-09-02,23,USA,CA,Raw,FR-Jr,51.6,52,112.5,117.5,120,120,47.5,52.5,-60,52.5,112.5,117.5,122.5,122.5,295,SBD
2,Anne Peralta,F,1996-06-11,22,USA,CA,Raw,FR-Jr,51.6,52,82.5,90,92.5,92.5,37.5,42.5,-47.5,42.5,112.5,117.5,122.5,122.5,257.5,SBD
1,Kris Leatherberry,F,1970-06-19,48,USA,CA,Raw,FR-M1b,50.8,52,102.5,110,117.5,117.5,55,60,-65,60,120,127.5,140,140,317.5,SBD
1,Marlo Sandler,F,1969-05-02,50,USA,CA,Raw,FR-M2a,51,52,82.5,-87.5,-87.5,82.5,55,57.5,60,60,110,117.5,122.5,122.5,265,SBD
1,Avilia Lieu,F,1998-09-19,20,USA,CA,Raw,FR-Jr,55.6,57,112.5,120,127.5,127.5,62.5,65,-70,65,-150,150,157.5,157.5,350,SBD
1,Crystal Bungori,F,1990-11-11,28,USA,CA,Raw,FR-O,56.6,57,92.5,100,102.5,102.5,60,62.5,-65,62.5,125,135,140,140,305,SBD
2,Hiu Wong,F,1994-01-20,25,USA,CA,Raw,FR-O,55.1,57,92.5,102.5,107.5,107.5,35,42.5,45,45,110,122.5,-125,122.5,275,SBD
3,Jessica Kuang,F,1995-12-11,23,USA,CA,Raw,FR-O,56,57,57.5,65,-67.5,65,37.5,42.5,-45,42.5,70,75,85,85,192.5,SBD
NS,Daria Khoyi,F,1995-08-06,,USA,CA,Raw,FR-O,,,,,,,,,,,,,,,,SBD
NS,Katlin Meyer,F,1995-01-26,,USA,CA,Raw,FR-O,,,,,,,,,,,,,,,,SBD
NS,Sasha Connor,F,1998-02-05,,USA,CA,Raw,FR-O,,,,,,,,,,,,,,,,SBD
NS,Isabel Agustin,F,2002-09-27,,USA,CA,Raw,FR-T2,,,,,,,,,,,,,,,,SBD
1,MaryAnn Dominguez,F,1995-05-01,24,USA,CA,Raw,FR-O,61,63,87.5,97.5,-105,97.5,35,40,-42.5,40,115,120,122.5,122.5,260,SBD
1,Lauren Min,F,1998-05-25,21,USA,CA,Raw,FR-Jr,66.4,72,105,110,120,120,40,-45,-45,40,117.5,125,130,130,290,SBD
2,Amanda Gall,F,1997-01-16,22,USA,CA,Raw,FR-Jr,70.8,72,100,107.5,115,115,57.5,-62.5,62.5,62.5,92.5,100,105,105,282.5,SBD
1,Deana Huddleston,F,1968-07-08,50,USA,CA,Raw,FR-M2a,71.4,72,92.5,100,107.5,107.5,-57.5,60,62.5,62.5,122.5,130,135,135,305,SBD
1,Kim Hubbard,F,1962-01-09,57,USA,CA,Raw,FR-M2b,70.4,72,62.5,72.5,82.5,82.5,45,52.5,57.5,57.5,102.5,112.5,127.5,127.5,267.5,SBD
1,Sarah Wellberg,F,1988-02-16,31,USA,CA,Raw,FR-O,67,72,122.5,132.5,137.5,137.5,67.5,72.5,75,75,142.5,152.5,-155,152.5,365,SBD
2,Vanessa Trujillo,F,1994-02-08,25,USA,CA,Raw,FR-O,70.3,72,125,137.5,-145,137.5,57.5,65,67.5,67.5,140,152.5,160,160,365,SBD
3,Kristen Kurland,F,1981-03-16,38,USA,CA,Raw,FR-O,70.7,72,127.5,132.5,137.5,137.5,62.5,67.5,70,70,135,142.5,152.5,152.5,360,SBD
1,Yvonne Lingley,F,1969-06-04,49,USA,CA,Raw,FR-M2a,82.4,84,120,127.5,135,135,62.5,-67.5,-67.5,62.5,145,155,-160,155,352.5,SBD
1,Jessica Adams,F,1991-03-06,28,USA,CA,Raw,FR-O,90.1,84+,130,-135,135,135,55,60,62.5,62.5,130,137.5,-142.5,137.5,335,SBD
2,Jennalyn Fernando,F,1986-08-09,32,USA,CA,Raw,FR-O,84.2,84+,100,-105,112.5,112.5,-55,57.5,-60,57.5,110,117.5,130,130,300,SBD
3,Carmela San Juan,F,1992-05-22,27,USA,CA,Raw,FR-O,90.4,84+,60,65,75,75,40,45,47.5,47.5,80,90,95,95,217.5,SBD
NS,Sasha Connor,F,1998-02-05,,USA,CA,Raw,FR-Jr,,,,,,,,,,,,,,,,SBD
1,Veronika Sinelnikova,F,1994-04-19,25,USA,CA,Raw,FR-O,78,84,92.5,102.5,112.5,112.5,-52.5,57.5,62.5,62.5,100,112.5,-125,112.5,287.5,SBD
1,Romy Jay Gallanosa,M,1997-04-04,22,USA,CA,Raw,MR-Jr,65.5,66,160,165,172.5,172.5,115,125,-130,125,-185,185,-197.5,185,482.5,SBD
2,Howard Lin,M,1998-07-01,20,USA,CA,Raw,MR-Jr,65.8,66,150,165,-172.5,165,102.5,107.5,112.5,112.5,-182.5,182.5,-202.5,182.5,460,SBD
1,Phamdickey Ut,M,1976-02-29,43,USA,CA,Raw,MR-M1a,63.8,66,130,135,137.5,137.5,105,107.5,112.5,112.5,130,135,137.5,137.5,387.5,SBD
1,Benton Luu,M,1994-05-09,25,USA,CA,Raw,MR-O,64.8,66,167.5,175,-182.5,175,105,112.5,-117.5,112.5,212.5,-222.5,-222.5,212.5,500,SBD
2,Raymond Quintela,M,1996-11-14,22,USA,CA,Raw,MR-O,65.1,66,-155,-165,165,165,105,115,-125,115,185,192.5,205,205,485,SBD
3,Tomas Misa,M,1992-06-07,26,USA,CA,Raw,MR-O,65.4,66,120,130,-140,130,80,90,95,95,170,182.5,190,190,415,SBD
4,Phamdickey Ut,M,1976-02-29,43,USA,CA,Raw,MR-O,63.8,66,130,135,137.5,137.5,105,107.5,112.5,112.5,130,135,137.5,137.5,387.5,SBD
DQ,Christopher Nguyen #4,M,1994-06-02,24,USA,CA,Raw,MR-O,64.8,66,150,-165,165,165,-112.5,-122.5,-122.5,,197.5,202.5,207.5,207.5,,SBD
1,Sean Melan,M,2003-11-17,15,USA,CA,Raw,MR-T1,65.5,66,-112.5,120,-125,120,-65,70,-75,70,107.5,122.5,135,135,325,SBD
1,Jonah Steuer,M,2002-10-21,16,USA,CA,Raw,MR-T2,65.3,66,160,172.5,177.5,177.5,97.5,105,112.5,112.5,167.5,182.5,190,190,480,SBD
1,David Alfaro,M,1995-07-18,23,USA,CA,Raw,MR-Jr,73.4,74,172.5,187.5,197.5,197.5,112.5,117.5,125,125,210,222.5,227.5,227.5,550,SBD
2,Charles Vatanatham,M,1997-09-20,21,USA,CA,Raw,MR-Jr,71.9,74,175,185,192.5,192.5,95,100,107.5,107.5,207.5,217.5,227.5,227.5,527.5,SBD
3,Justin Jang,M,1996-10-15,22,USA,CA,Raw,MR-Jr,73.5,74,-150,162.5,175,175,127.5,135,140,140,175,187.5,192.5,192.5,507.5,SBD
4,Albert Hong,M,1997-10-12,21,USA,CA,Raw,MR-Jr,72.5,74,-170,177.5,-185,177.5,95,100,-102.5,100,212.5,-222.5,-222.5,212.5,490,SBD
1,Edward Suriaga,M,1993-09-14,25,USA,CA,Raw,MR-O,73.8,74,180,192.5,207.5,207.5,97.5,102.5,110,110,225,240,-257.5,240,557.5,SBD
2,Mostafa Mostafa,M,1990-10-02,28,USA,CA,Raw,MR-O,72.7,74,-167.5,177.5,187.5,187.5,105,115,-125,115,217.5,227.5,237.5,237.5,540,SBD
3,Kevin Woo,M,1991-05-30,27,USA,CA,Raw,MR-O,73,74,162.5,175,182.5,182.5,120,125,-130,125,212.5,222.5,232.5,232.5,540,SBD
4,Vincent Ramirez,M,1993-11-26,25,USA,CA,Raw,MR-O,73.7,74,147.5,-165,165,165,125,140,-150,140,195,215,217.5,217.5,522.5,SBD
5,Henrik Edström,M,1978-02-03,41,USA,CA,Raw,MR-O,73.7,74,-175,175,-180,175,110,-112.5,-112.5,110,145,160,170,170,455,SBD
6,Lorenzo Abella,M,1995-08-10,23,USA,CA,Raw,MR-O,71.2,74,150,160,165,165,95,97.5,102.5,102.5,172.5,182.5,185,185,452.5,SBD
7,Matthew Lim,M,1991-06-14,27,USA,CA,Raw,MR-O,72.3,74,92.5,115,120,120,70,90,-95,90,120,150,162.5,162.5,372.5,SBD
NS,Eric Bui,M,1987-07-02,,USA,CA,Raw,MR-O,,,,,,,,,,,,,,,,SBD
NS,Eric Tanedo,M,1985-11-04,,USA,CA,Raw,MR-O,,,,,,,,,,,,,,,,SBD
NS,Jordan Feigenbaum,M,1985-06-17,,USA,CA,Raw,MR-O,,,,,,,,,,,,,,,,SBD
NS,Patrick Belisle,M,1994-09-08,,USA,CA,Raw,MR-O,,,,,,,,,,,,,,,,SBD
NS,Ryan DeVita,M,1976-12-03,,USA,CA,Raw,MR-O,,,,,,,,,,,,,,,,SBD
1,Ha Pham #1,M,1991-11-22,27,USA,CA,Raw,MR-O,57.9,59,132.5,140,147.5,147.5,-97.5,97.5,107.5,107.5,150,165,175,175,430,SBD
2,Juan Aguilera,M,1998-08-28,20,USA,CA,Raw,MR-Jr,51.9,53,65,82.5,-95,82.5,45,55,65,65,105,122.5,135,135,282.5,SBD
1,Henrik Edström,M,1978-02-03,41,USA,CA,Raw,MR-M1a,73.7,74,-175,175,-180,175,110,-112.5,-112.5,110,145,160,170,170,455,SBD
1,Mark DeMeo Jr,M,1959-07-27,59,USA,CA,Raw,MR-M2b,68.5,74,150,157.5,-167.5,157.5,100,105,112.5,112.5,155,167.5,175,175,445,SBD
1,Jiayan Luo,M,2002-04-10,17,USA,CA,Raw,MR-T2,72.9,74,155,165,172.5,172.5,80,-87.5,87.5,87.5,165,175,182.5,182.5,442.5,SBD
2,Gil Brantley,M,2002-10-11,16,USA,CA,Raw,MR-T2,72.1,74,-117.5,-130,130,130,-97.5,102.5,-107.5,102.5,155,-167.5,-167.5,155,387.5,SBD
1,David Chan,M,1996-10-01,22,USA,CA,Raw,MR-Jr,82.9,83,210,220,227.5,227.5,132.5,135,140,140,235,250,257.5,257.5,625,SBD
2,Jeremy Haynes,M,1996-12-19,,USA,CA,Raw,MR-Jr,79.9,83,175,185,195,195,110,115,120,120,185,192.5,205,205,520,SBD
3,Alejandro Maldonado-Rojas,M,1995-11-16,23,USA,CA,Raw,MR-Jr,81.7,83,180,185,192.5,192.5,120,-130,-130,120,180,187.5,197.5,197.5,510,SBD
1,Toney Lum,M,1988-12-13,30,USA,CA,Raw,MR-O,77.7,83,165,-175,-177.5,165,115,122.5,-132.5,122.5,250,272.5,-285,272.5,560,SBD
2,Peter Stamos,M,1987-07-01,31,USA,CA,Raw,MR-O,81.3,83,167.5,182.5,192.5,192.5,-112.5,112.5,-125,112.5,-250,250,-257.5,250,555,SBD
3,Cameron Farrens,M,1994-07-27,24,USA,CA,Raw,MR-O,81.6,83,190,200,-205,200,125,130,-137.5,130,220,225,-227.5,225,555,SBD
4,Erik Franks,M,1983-08-26,35,USA,CA,Raw,MR-O,80.8,83,185,-200,200,200,110,117.5,-120,117.5,210,227.5,235,235,552.5,SBD
5,Jesus Gonzales,M,1987-04-04,32,USA,CA,Raw,MR-O,81.5,83,192.5,200,-205,200,122.5,-127.5,-127.5,122.5,215,222.5,227.5,227.5,550,SBD
6,Mike Conley #1,M,1987-01-09,32,USA,CA,Raw,MR-O,78.8,83,162.5,170,177.5,177.5,125,130,-132.5,130,195,205,-212.5,205,512.5,SBD
7,Noel Santi Alegado,M,1987-12-22,31,USA,CA,Raw,MR-O,80.6,83,142.5,147.5,150,150,100,105,-110,105,207.5,215,-222.5,215,470,SBD
8,Andy Chow,M,1982-08-18,36,USA,CA,Raw,MR-O,81.6,83,162.5,-175,-175,162.5,115,-125,,115,165,180,190,190,467.5,SBD
9,Christopher Guidry,M,1985-06-22,33,USA,CA,Raw,MR-O,79.9,83,130,142.5,147.5,147.5,-92.5,-97.5,100,100,142.5,150,162.5,162.5,410,SBD
10,Philip Sobolesky,M,1987-07-03,31,USA,CA,Raw,MR-O,79.1,83,110,125,137.5,137.5,80,-87.5,-90,80,170,185,187.5,187.5,405,SBD
DQ,Charlie San Juan Jr,M,1992-05-22,27,USA,CA,Raw,MR-O,82.2,83,160,165,-170,165,-105,-110,-110,,155,160,170,170,,SBD
1,Apollo La Mig,M,1997-10-09,21,USA,CA,Raw,MR-Jr,92.8,93,235,245,250,250,147.5,157.5,165,165,240,257.5,267.5,267.5,682.5,SBD
2,Babneet Dhillon,M,1995-10-19,23,USA,CA,Raw,MR-Jr,92.1,93,215,227.5,237.5,237.5,132.5,-140,-140,132.5,270,287.5,300,300,670,SBD
3,Justin Holcomb,M,1997-05-21,22,USA,CA,Raw,MR-Jr,92.7,93,187.5,192.5,200,200,175,-182.5,-182.5,175,230,-245,245,245,620,SBD
4,Ryan Reyes,M,1995-07-28,23,USA,CA,Raw,MR-Jr,90.4,93,165,175,182.5,182.5,-132.5,145,-147.5,145,182.5,200,220,220,547.5,SBD
1,Sean Stangl,M,1989-01-04,30,USA,CA,Raw,MR-O,91.5,93,265,275,280,280,182.5,190,195,195,280,295,307.5,307.5,782.5,SBD
2,Jimmy Villanueva,M,1995-05-21,24,USA,CA,Raw,MR-O,89.2,93,240,252.5,257.5,257.5,-162.5,162.5,172.5,172.5,290,305,317.5,317.5,747.5,SBD
3,Eril Udarbe,M,1993-12-04,25,USA,CA,Raw,MR-O,92.3,93,242.5,255,-260,255,-130,130,-142.5,130,267.5,282.5,290,290,675,SBD
4,Ra'am Akiba-Hajim,M,1992-12-27,26,USA,CA,Raw,MR-O,87.1,93,210,217.5,225,225,135,142.5,-147.5,142.5,250,-270,-270,250,617.5,SBD
5,Andrew Rich,M,1987-03-12,32,USA,CA,Raw,MR-O,92.9,93,205,220,232.5,232.5,127.5,137.5,140,140,215,232.5,242.5,242.5,615,SBD
6,Dylan Lowe,M,1988-09-28,30,USA,CA,Raw,MR-O,92.5,93,210,225,230,230,135,140,145,145,220,230,237.5,237.5,612.5,SBD
7,Dario Tejo,M,1988-08-14,30,USA,CA,Raw,MR-O,89.8,93,165,172.5,182.5,182.5,115,120,-122.5,120,225,235,245,245,547.5,SBD
8,Johnathan Lonso,M,,24,USA,CA,Raw,MR-O,86.6,93,162.5,175,185,185,127.5,137.5,140,140,170,-177.5,177.5,177.5,502.5,SBD
9,Matthew Yeung #2,M,1984-05-22,35,USA,CA,Raw,MR-O,90.6,93,162.5,170,177.5,177.5,115,122.5,127.5,127.5,177.5,187.5,-192.5,187.5,492.5,SBD
10,Mohammed Alnasser,M,2000-10-08,18,USA,CA,Raw,MR-O,85,93,135,145,152.5,152.5,87.5,-95,95,95,160,175,190,190,437.5,SBD
DQ,Steven Nguyen,M,,27,,,Raw,MR-O,90.7,93,187.5,192.5,205,205,-130,-130,-130,,242.5,252.5,-257.5,252.5,,SBD
NS,Deric Wanland,M,1995-09-10,,USA,CA,Raw,MR-Jr,,,,,,,,,,,,,,,,SBD
1,Mohammed Alnasser,M,2000-10-08,18,USA,CA,Raw,MR-T3,85,93,135,145,152.5,152.5,87.5,-95,95,95,160,175,190,190,437.5,SBD
1,Tom Goodwin,M,1975-12-24,43,USA,CA,Raw,MR-M1a,101.7,105,165,175,185,185,117.5,125,127.5,127.5,205,220,230,230,542.5,SBD
DQ,David Litchfield,M,1975-09-27,43,,,Raw,MR-M1a,100.7,105,120,140,152.5,152.5,-177.5,-177.5,-177.5,,,,,,,SBD
1,Brandon Amis,M,,31,USA,CA,Raw,MR-O,102.2,105,210,215,-230,215,120,-130,-130,120,215,227.5,-235,227.5,562.5,SBD
2,Frederick Gray,M,1990-01-08,29,USA,CA,Raw,MR-O,99.2,105,190,200,207.5,207.5,-127.5,-127.5,127.5,127.5,190,200,-222.5,200,535,SBD
NS,Ryan DeVita,M,1976-12-03,,USA,CA,Raw,MR-M1a,,,,,,,,,,,,,,,,SBD
1,Zachary Taylor,M,1995-03-27,24,USA,CA,Raw,MR-O,118.9,120,-192.5,192.5,-222.5,192.5,-132.5,-145,145,145,220,257.5,272.5,272.5,610,SBD
1,Arash Soofiani,M,1992-08-31,26,USA,CA,Raw,MR-O,149.9,120+,150,160,165,165,160,170,177.5,177.5,210,220,235,235,577.5,SBD
1,Mark DeMeo Jr,M,1959-07-27,59,USA,CA,Raw,MR-M2b,68.5,74,,,,,100,105,112.5,112.5,155,167.5,175,175,287.5,BD
1,Mark DeMeo Jr,M,1959-07-27,59,USA,CA,Raw,MR-M2b,68.5,74,,,,,100,105,112.5,112.5,,,,,112.5,B
1,Charles Tseng,M,1981-09-23,37,USA,CA,Raw,MR-O,93,93,,,,,120,125,-127.5,125,,,,,125,B
1,Daniel Mariusz Green,M,2011-03-14,8,USA,CA,Raw,MR-Y1,24.7,30,,,,,,,,,45,47.5,52.5,52.5,52.5,D
1,Toney Lum,M,1988-12-13,30,USA,CA,Raw,MR-O,77.7,83,,,,,,,,,250,272.5,-285,272.5,272.5,D
