Division,WeightClassKg,Place,Name,Team,BodyweightKg,Best3SquatKg,Best3BenchKg,Best3DeadliftKg,TotalKg,Equipment,Event,Sex
Boys,51.71,1,Ryan Fincher,Queen City,51.53,111.13,113.4,113.4,337.93,Single-ply,SBD,M
Boys,59.87,1,Ryder Brock,Detroit,55.97,136.08,70.31,158.76,365.14,Single-ply,SBD,M
Boys,59.87,1,Tristan Salten,Queen City,58.51,142.88,70.31,145.15,358.34,Single-ply,SBD,M
Boys,59.87,2,Cody Skidmore,Pattonville Prairiland,56.34,117.93,68.04,136.08,322.05,Single-ply,SBD,M
Boys,74.84,1,Taylor Young #4,Ore City,67.22,185.97,88.45,199.58,474,Single-ply,SBD,M
Boys,67.13,2,Kolton Morgan,Queen City,65.41,158.76,81.65,163.29,403.7,Single-ply,SBD,M
Boys,67.13,3,Merari Blanco,Pattonville Prairiland,61.14,138.35,81.65,176.9,396.89,Single-ply,SBD,M
Boys,67.13,4,Keitron Reed,Paris North Lamar,63.96,142.88,83.91,151.95,378.75,Single-ply,SBD,M
Boys,67.13,5,Xavier McDonald,Clarksville,62.14,106.59,88.45,108.86,303.91,Single-ply,SBD,M
Boys,74.84,DQ,Mikel Tharp,Detroit,67.31,154.22,,,,Single-ply,SBD,M
Boys,67.13,DQ,Cody Davis,New Boston,65.86,117.93,,,,Single-ply,SBD,M
Boys,74.84,1,Ali Bernard,Pattonville Prairiland,71.58,188.24,129.27,213.19,530.7,Single-ply,SBD,M
Boys,74.84,2,Daniel Craddock,Mount Pleasant,71.67,188.24,106.59,183.7,478.54,Single-ply,SBD,M
Boys,74.84,3,Brian Hendrix,Queen City,73.12,176.9,102.06,163.29,442.25,Single-ply,SBD,M
Boys,74.84,4,Cody Ball,Queen City,69.22,158.76,79.38,158.76,396.89,Single-ply,SBD,M
Boys,74.84,5,Logan Elmore,Ore City,67.95,113.4,86.18,142.88,342.46,Single-ply,SBD,M
Boys,74.84,DQ,Brandon Crawford,Detroit,74.03,136.08,,,,Single-ply,SBD,M
Boys,82.1,1,Andrew Johnson #6,Paris North Lamar,81.47,176.9,106.59,210.92,494.42,Single-ply,SBD,M
Boys,82.1,2,Travis Bryant,Detroit,80.47,199.58,97.52,192.78,489.88,Single-ply,SBD,M
Boys,82.1,3,Dakota Moore,Paris North Lamar,78.65,163.29,108.86,174.63,446.79,Single-ply,SBD,M
Boys,82.1,4,Zach Graham,Pattonville Prairiland,79.92,142.88,97.52,188.24,428.64,Single-ply,SBD,M
Boys,82.1,5,Parker Hailey,Queen City,81.28,138.35,97.52,172.37,408.23,Single-ply,SBD,M
Boys,82.1,6,Tom Daniels,New Boston,76.66,147.42,99.79,158.76,405.97,Single-ply,SBD,M
Boys,82.1,7,Alan Dudley,Pattonville Prairiland,79.47,149.69,83.91,161.03,394.63,Single-ply,SBD,M
Boys,82.1,8,Easton Droddy,Queen City,80.01,145.15,83.91,156.49,385.55,Single-ply,SBD,M
Boys,82.1,9,Chase Perry,Paris North Lamar,75.57,136.08,83.91,154.22,374.21,Single-ply,SBD,M
Boys,82.1,10,Keith Henderson,Detroit,81.56,138.35,77.11,156.49,371.95,Single-ply,SBD,M
Boys,82.1,11,Ryan Bradley,New Boston,77.38,113.4,45.36,120.2,278.96,Single-ply,SBD,M
Boys,82.1,DQ,Samuel Flores,Paris North Lamar,78.56,136.08,,,,Single-ply,SBD,M
Boys,82.1,DQ,LaDarius Craddock,Mount Pleasant,78.56,,,,,Single-ply,SBD,M
Boys,89.81,1,Cody Brantley,Mount Pleasant,83.19,206.38,140.61,183.7,530.7,Single-ply,SBD,M
Boys,89.81,2,Blake Westbrook,Detroit,87.36,190.51,111.13,195.04,496.68,Single-ply,SBD,M
Boys,89.81,3,Jacob Akard,Paris North Lamar,82.64,147.42,83.91,158.76,390.09,Single-ply,SBD,M
Boys,89.81,DQ,Joseph Gutierrez,Mount Pleasant,87,204.12,,,,Single-ply,SBD,M
Boys,99.79,1,Zach McGuire,Ore City,97.16,185.97,120.2,183.7,489.88,Single-ply,SBD,M
Boys,99.79,2,Will Jamar,Paris North Lamar,92.53,174.63,136.08,176.9,487.61,Single-ply,SBD,M
Boys,109.77,3,Niko Olvera,Mount Pleasant,99.88,172.37,113.4,165.56,451.32,Single-ply,SBD,M
Boys,99.79,4,Keith Baldwin,New Boston,93.71,172.37,102.06,158.76,433.18,Single-ply,SBD,M
Boys,99.79,5,Darrion Dockins,Clarksville,99.61,165.56,106.59,154.22,426.38,Single-ply,SBD,M
Boys,99.79,6,Brandon Erickson #2,Detroit,91.99,181.44,113.4,,294.84,Single-ply,SB,M
Boys,109.77,1,Reggie Scales,New Boston,109.59,319.78,208.65,256.28,784.71,Single-ply,SBD,M
Boys,109.77,2,Tyler Trammel,Paris North Lamar,109.77,222.26,147.42,192.78,562.45,Single-ply,SBD,M
Boys,109.77,3,Bryce Stephens,Ore City,100.88,192.78,136.08,181.44,510.29,Single-ply,SBD,M
Boys,109.77,4,Tyler Carter,Paris North Lamar,103.69,176.9,124.74,176.9,478.54,Single-ply,SBD,M
Boys,109.77,5,Tyler Collier,Pattonville Prairiland,101.6,172.37,99.79,192.78,464.93,Single-ply,SBD,M
Boys,109.77,6,Will Anderson,Mount Pleasant,100.7,174.63,111.13,172.37,458.13,Single-ply,SBD,M
Boys,109.77,7,Geremy Williams,Clarksville,107.59,154.22,111.13,190.51,455.86,Single-ply,SBD,M
Boys,109.77,8,Cody Berry,Paris North Lamar,100.24,170.1,102.06,174.63,446.79,Single-ply,SBD,M
Boys,109.77,9,Trevor Zaunbrecker,New Boston,105.6,172.37,90.72,181.44,444.52,Single-ply,SBD,M
Boys,109.77,10,Walker Haskell,Pattonville Prairiland,106.23,161.03,97.52,170.1,428.64,Single-ply,SBD,M
Boys,109.77,11,Aaron Bartes,Mount Pleasant,106.32,185.97,90.72,147.42,424.11,Single-ply,SBD,M
Boys,109.77,12,Mack Boyd,New Boston,101.88,129.27,58.97,136.08,324.32,Single-ply,SBD,M
Boys,124.74,1,Jermaine Emmers,Clarksville,122.74,226.8,136.08,210.92,573.79,Single-ply,SBD,M
Boys,124.74,2,Joel Bautista,Mount Pleasant,118.48,238.14,142.88,185.97,566.99,Single-ply,SBD,M
Boys,124.74,3,James Hanson,Mount Pleasant,112.94,217.72,104.33,217.72,539.77,Single-ply,SBD,M
Boys,124.74,4,Brandon Clements,New Boston,124.56,199.58,111.13,183.7,494.42,Single-ply,SBD,M
Boys,124.74,DQ,Tim Rovell,Mount Pleasant,121.56,,,,,Single-ply,SBD,M
Boys,124.74,DQ,Dakota Taylor,Pattonville Prairiland,114.31,215.46,,,,Single-ply,SBD,M
Boys,124.74+,1,Shakeim Woodberry,Clarksville,133.45,288.03,151.95,272.16,712.14,Single-ply,SBD,M
Boys,124.74+,2,Lane Allen,Detroit,128.64,244.94,117.93,208.65,571.53,Single-ply,SBD,M
Boys,124.74+,3,Jackie Berry,Paris North Lamar,128.82,226.8,122.47,219.99,569.26,Single-ply,SBD,M
Boys,124.74+,4,Wesley Holmes,New Boston,141.52,226.8,124.74,199.58,551.11,Single-ply,SBD,M
Boys,124.74+,5,Francisco Morales,Mount Pleasant,125.46,217.72,104.33,199.58,521.63,Single-ply,SBD,M
Boys,124.74+,DQ,Jamie Humphries,Pattonville Prairiland,125.19,249.48,115.67,,,Single-ply,SBD,M
