Division,WeightClassKg,Place,Name,Team,BodyweightKg,Best3SquatKg,Best3BenchKg,Best3DeadliftKg,TotalKg,Equipment,Event,Sex,BirthDate
Boys,51.71,1,Hayden Sechelski,Anderson-Shiro,50.8,92.99,,,92.99,Single-ply,S,M,
Boys,55.79,1,Rudy Morales,Shepherd,55.34,190.51,102.06,215.46,508.02,Single-ply,SBD,M,
Boys,55.79,2,Karter McCurley,Grapeland,55.79,106.59,47.63,111.13,265.35,Single-ply,SBD,M,
Boys,55.79,NS,Jared Gray,Grapeland,,,,,,Single-ply,SBD,M,
Boys,55.79,NS,Taylor Mars,Grapeland,,,,,,Single-ply,SBD,M,
Boys,55.79,NS,Aj Walker,Pollok Central,,,,,,Single-ply,SBD,M,
Boys,59.87,1,Lain Baker,Shepherd,59.87,224.53,120.2,215.46,560.19,Single-ply,SBD,M,
Boys,59.87,2,Reagan Brown,College Station A&M Cons,58.97,127.01,77.11,117.93,322.05,Single-ply,SBD,M,
Boys,59.87,3,Wyatt Alexander,Pollok Central,59.42,113.4,65.77,138.35,317.51,Single-ply,SBD,M,
Boys,59.87,4,Devin Davilla,Corrigan-Camden,59.42,113.4,74.84,111.13,299.37,Single-ply,SBD,M,
Boys,59.87,NS,Kyler Snell,Grapeland,,,,,,Single-ply,SBD,M,
Boys,67.13,1,Sergio Sandoval,Shepherd,67.13,195.04,117.93,206.38,519.36,Single-ply,SBD,M,
Boys,67.13,2,Carlos Guevara,Shepherd,66.68,197.31,99.79,190.51,487.61,Single-ply,SBD,M,
Boys,67.13,3,Gage Murphy,Shepherd,66.68,183.7,115.67,188.24,487.61,Single-ply,SBD,M,
Boys,67.13,4,Cyrus Martinez,Shepherd,62.6,149.69,83.91,165.56,399.16,Single-ply,SBD,M,
Boys,67.13,5,Nathan Mathews,Pollok Central,65.32,115.67,86.18,154.22,356.07,Single-ply,SBD,M,
Boys,67.13,6,Zach Baker #4,Anderson-Shiro,63.96,124.74,61.23,151.95,337.93,Single-ply,SBD,M,
Boys,67.13,NS,Gerardo Olguin,Anderson-Shiro,,,,,,Single-ply,SBD,M,
Boys,74.84,1,Joel Weekes,Shepherd,73.03,235.87,140.61,229.06,605.55,Single-ply,SBD,M,
Boys,74.84,2,Caleb Bumstead,Pollok Central,72.57,161.03,92.99,154.22,408.23,Single-ply,SBD,M,
Boys,74.84,3,Traye Babb,Grapeland,74.84,113.4,70.31,136.08,319.78,Single-ply,SBD,M,
Boys,74.84,DQ,Dauson Venable,Kountze,72.57,158.76,,,,Single-ply,SBD,M,
Boys,74.84,NS,Trinity Miller,Grapeland,,,,,,Single-ply,SBD,M,
Boys,74.84,NS,Zak Martin,Pollok Central,,,,,,Single-ply,SBD,M,
Boys,82.1,1,Jarvis Haynes,Anderson-Shiro,82.1,242.67,136.08,235.87,614.62,Single-ply,SBD,M,
Boys,82.1,2,Matthew Martin,College Station A&M Cons,77.56,222.26,149.69,206.38,578.33,Single-ply,SBD,M,
Boys,82.1,3,Tanner Lacey,Shepherd,80.74,183.7,106.59,204.12,494.42,Single-ply,SBD,M,
Boys,82.1,4,Travis Anderson,Anderson-Shiro,80.74,192.78,95.25,199.58,487.61,Single-ply,SBD,M,
Boys,82.1,5,Andre Nguyen,Anderson-Shiro,78.02,192.78,97.52,181.44,471.74,Single-ply,SBD,M,
Boys,82.1,6,Caleb James,Kountze,78.47,170.1,90.72,183.7,444.52,Single-ply,SBD,M,
Boys,82.1,7,Emmanuel Carter,College Station A&M Cons,79.83,142.88,104.33,192.78,439.98,Single-ply,SBD,M,
Boys,82.1,8,Noah Daniel,Anderson-Shiro,78.93,156.49,97.52,174.63,428.64,Single-ply,SBD,M,
Boys,82.1,9,Nick Rea,Grapeland,81.65,181.44,83.91,142.88,408.23,Single-ply,SBD,M,
Boys,82.1,10,Trenton Bruno,Kountze,79.38,129.27,81.65,183.7,394.63,Single-ply,SBD,M,
Boys,82.1,11,Trent Aills,Shepherd,80.29,136.08,74.84,124.74,335.66,Single-ply,SBD,M,
Boys,82.1,12,Quinton Carson,College Station A&M Cons,79.38,,108.86,176.9,285.76,Single-ply,BD,M,
Boys,82.1,NS,Ashton Jasperson,College Station A&M Cons,,,,,,Single-ply,SBD,M,
Boys,89.81,1,David May #4,College Station A&M Cons,89.36,272.16,142.88,254.01,669.05,Single-ply,SBD,M,
Boys,89.81,2,Brock Slaydon,College Station A&M Cons,84.82,272.16,158.76,235.87,666.78,Single-ply,SBD,M,
Boys,89.81,3,Duncan Benton,Anderson-Shiro,86.18,226.8,131.54,197.31,555.65,Single-ply,SBD,M,
Boys,89.81,4,Matthew Bolden,College Station A&M Cons,87.09,226.8,127.01,190.51,544.31,Single-ply,SBD,M,
Boys,89.81,5,Robert Perez,Kountze,89.81,204.12,113.4,195.04,512.56,Single-ply,SBD,M,
Boys,89.81,6,Jarius Hood,Corrigan-Camden,86.18,170.1,88.45,179.17,437.72,Single-ply,SBD,M,
Boys,89.81,7,Lewis Wyatt,Grapeland,82.55,142.88,83.91,172.37,399.16,Single-ply,SBD,M,
Boys,89.81,8,Conner Seigle,Anderson-Shiro,86.64,161.03,74.84,158.76,394.63,Single-ply,SBD,M,
Boys,89.81,9,Aden Standley,Corrigan-Camden,86.64,145.15,61.23,161.03,367.41,Single-ply,SBD,M,
Boys,89.81,10,Damion Kitsmiller,Kountze,82.55,142.88,77.11,124.74,344.73,Single-ply,SBD,M,
Boys,89.81,11,Paxson Berkey,College Station A&M Cons,88.9,188.24,,,188.24,Single-ply,S,M,
Boys,89.81,NS,Angel Raya,Kountze,,,,,,Single-ply,SBD,M,
Boys,99.79,1,Landen Robbins,Shepherd,92.99,235.87,115.67,235.87,587.4,Single-ply,SBD,M,
Boys,99.79,2,Michael Taylor,Pollok Central,99.34,188.24,129.27,215.46,532.97,Single-ply,SBD,M,
Boys,99.79,3,Darius Turner,College Station A&M Cons,90.26,213.19,117.93,163.29,494.42,Single-ply,SBD,M,
Boys,99.79,4,Ricky Inguanzo,Corrigan-Camden,98.88,179.17,102.06,201.85,483.08,Single-ply,SBD,M,
Boys,99.79,5,Philip Boykin,Kountze,94.35,165.56,106.59,183.7,455.86,Single-ply,SBD,M,
Boys,99.79,6,Gabe Martinez,Grapeland,95.25,165.56,86.18,113.4,365.14,Single-ply,SBD,M,
Boys,99.79,7,Alford Dagan,Anderson-Shiro,95.71,133.81,65.77,147.42,347,Single-ply,SBD,M,
Boys,99.79,NS,Levi Jones,Anderson-Shiro,,,,,,Single-ply,SBD,M,
Boys,99.79,NS,Dawson Williford,Kountze,,,,,,Single-ply,SBD,M,
Boys,109.77,1,Klayton Sheffield,College Station A&M Cons,101.6,240.4,151.95,206.38,598.74,Single-ply,SBD,M,
Boys,109.77,2,Jess Shows,Corrigan-Camden,108.86,219.99,124.74,210.92,555.65,Single-ply,SBD,M,
Boys,109.77,3,Toby Beard,Pollok Central,109.77,213.19,102.06,181.44,496.68,Single-ply,SBD,M,
Boys,109.77,4,James Morgan #2,College Station A&M Cons,104.78,195.04,122.47,172.37,489.88,Single-ply,SBD,M,
Boys,109.77,5,Nathan Villegas,Anderson-Shiro,101.6,170.1,90.72,167.83,428.64,Single-ply,SBD,M,
Boys,124.74,1,Leihten Beck,Shepherd,124.74,226.8,138.35,226.8,591.94,Single-ply,SBD,M,
Boys,124.74,2,Kaizhe Qiu,College Station A&M Cons,111.58,217.72,138.35,204.12,560.19,Single-ply,SBD,M,
Boys,124.74,3,Hudson House,College Station A&M Cons,111.13,190.51,117.93,217.72,526.17,Single-ply,SBD,M,
Boys,124.74,4,Jordan Lynch,College Station A&M Cons,113.85,185.97,117.93,181.44,485.34,Single-ply,SBD,M,
Boys,124.74,NS,Johnny Cowart,Kountze,,,,,,Single-ply,SBD,M,
Boys,139.71,1,Joseph Lightfoot,College Station A&M Cons,127.01,272.16,158.76,235.87,666.78,Single-ply,SBD,M,
Boys,139.71,2,Jayden Cortez,College Station A&M Cons,126.1,226.8,133.81,204.12,564.72,Single-ply,SBD,M,
Boys,139.71,3,Luke Ener,Kountze,,183.7,108.86,183.7,476.27,Single-ply,SBD,M,
Boys,139.71,NS,Hunter Vasquez,Pollok Central,,,,,,Single-ply,SBD,M,
Boys,139.71,DQ,Sheldon Rayford,College Station A&M Cons,125.19,208.65,108.86,,,Single-ply,SBD,M,
Boys,139.71,NS,Jason DeCluette,Grapeland,,,,,,Single-ply,SBD,M,
Boys,139.71,NS,David Cowart,Kountze,,,,,,Single-ply,SBD,M,
Boys,139.71+,1,Cody Pierson,College Station A&M Cons,144.24,195.04,113.4,204.12,512.56,Single-ply,SBD,M,
Boys,139.71+,2,Kelvin Hernandez,Shepherd,142.43,149.69,83.91,154.22,387.82,Single-ply,SBD,M,
Boys,139.71+,DQ,Christian Smith,Grapeland,142.43,183.7,,158.76,,Single-ply,SBD,M,
Boys,139.71+,NS,Webb Chandon,College Station A&M Cons,,,,,,Single-ply,SBD,M,
