Overview,,,,,,,,,,,,,,,,,,,,
,,,,,,,,,,,,,,,,,,,,
1 ΠΑΝΕΛΗΝΙΟ ΠΡΩΤ. 24-5-2009,,,,,,,,,,,,,,,,,,,,
2 ΠΑΝΕΛΛΗΝΙΟ ΠΡΩΤ. 12-10-10,,,,,,,,,,,,,,,,,,,,
3 ΠΑΝΕΛΛΗΝΙΟ ΠΡΩΤ. 6-11-11,,,,,,,,,,,,,,,,,,,,
4 ΠΑΝΕΛΛΗΝΙΟ ΠΡΩΤΑΘΛΗΜΑ 9-12-12,,,,,,,,,,,,,,,,,,,,
5 ΠΑΝΕΛ. ΠΡΩΤΑΘΛΗΜΑ 24-11-13,,,,,,,,,,,,,,,,,,,,
6 ΠΑΝΕΛ.ΠΡΩΤΑΘΛΗΜΑ 2014,,,,,,,,,,,,,,,,,,,,
7 ΠΑΝΕΛ.ΠΡΩΤΑΘΛΗΜΑ 2015,,,,,,,,,,,,,,,,,,,,
ΚΑΛΥΤΕΡΕΣ ΕΠΙΔΟΣΕΙΣ ΑΝΔΡΩΝ,,,,,,,,,,,,,,,,,,,,
8 ΠΑΝΕΛ.ΠΡΩΤΑΘΛΗΜΑ 2016,,,,,,,,,,,,,,,,,,,,
9o ΠΑΝΕΛ.ΠΡΩΤΑΘΛΗΜΑ 2017,,,,,,,,,,,,,,,,,,,,
10ο ΠΑΝΕΛ.ΠΡΩΤΑΘΛΗΜΑ 2018,,,,,,,,,,,,,,,,,,,,
11ο ΠΑΝΕΛ.ΠΡΩΤΑΘΛΗΜΑ 2019,,,,,,,,,,,,,,,,,,,,
Κύπελλο Πάτρας 2019,,,,,,,,,,,,,,,,,,,,
1ο Ποντιακό Κύπελλο,,,,,,,,,,,,,,,,,,,,
3ο Ποντιακό Κύπελλο,,,,,,,,,,,,,,,,,,,,
1ο Παγκρήτιο Χανιά 2019,,,,,,,,,,,,,,,,,,,,
,,,,,,,,,,,,,,,,,,,,
,,,,,,,,,,,,,,,,,,,,
Sheet 1: 1 ΠΑΝΕΛΗΝΙΟ ΠΡΩΤ. 24-5-2009,,,,,,,,,,,,,,,,,,,,
,,,,,,,,,,,,,,,,,,,,
Α/Α,ΟΝΟΜΑΤΕΠΩΝΥΜΟ,ΣΥΛΛΟΓΟΣ,ΣΩΜ. ΒΑΡ.,1,2,3,1,2,3,1,2,3,ΣΥΝΟΛΟ,ΘΕΣΗ,,,,,,
1,ΑΡΧΟΝΤΙΔΟΥ ΕΙΡΗΝΗ,ΥΠΕΡΙΩΝ,46.5,75,77.5,-80,30,-32.5,,75,80,85,192.5,1,,,,,,
2,ΤΟΠΟΥΖΙΔΗ ΕΛΕΝΗ,ΥΠΕΡΙΩΝ,100,80,95,105,40,42.5,45,80,95,115,265,1,,,,,,
1,ΦΩΤΟΣ ΑΛΕΞΑΝΔΡΟΣ,ΛΑΡΙΣΑ,68.1,170,180,190,80,90,-92.5,150,160,170,450,1,,,,,,
2,ΜΟΥΡΑΤΙΑΝ ΒΑΓΡΑΜ,ΥΠΕΡΙΩΝ,67.84,125,130,-132.50,-60,-65,65,145,150,,345,2,,,,,,
1,ΓΕΩΡΓΟΥΔΗΣ ΓΕΩΡΓΙΟΣ,Α.Ο.Ν. ΠΕΤΡΙΤΣΙΟΥ,73.25,40,,,55,-60,,90,105,,-200,,,,,,,
2,ΛΟΥΚΑΝΟΦ ΑΤΑΝΑΣ,ΥΠΕΡΙΩΝ,72.57,220,250,260,120,130,135,220,250,270,645,1,,,,,,
3,ΧΑΤΖΗΜΑΡΚΟΣ ΛΕΩΝΙΔΑΣ,ΑΤΛΑΝΤΕΣ,73.77,,,,100,110,-122.5,,,,110,,,,,,,
4,ΣΤΑΜΑΤΙΑΔΗΣ ΣΠΥΡΟΣ,ΥΠΕΡΙΩΝ,74.6,210,220,230,80,100,,190,200,220,550,2,,,,,,
5,ΣΕΡΜΠΛΑΚΟΦ ΑΛΕΞΑΝΔΡΟΣ,ΥΠΕΡΙΩΝ,70.6,115,120,-125,45,50,-52.5,115,,,285,3,,,,,,
1,ΕΥΘΥΜΙΟΥ ΕΥΑΓΓΕΛΟΣ,ΛΑΡΙΣΑ,81.9,150,165,-170,80,-90,-90,,170,180,425,3,,,,,,
2,ΚΗΡΚΟΠΟΥΛΟΣ ΔΗΜΗΤΡΗΣ,ΑΤΛΑΝΤΕΣ,81.82,130,140,-150,80,95,-102.5,180,205,215,450,2,,,,,,
3,ΒΟΥΛΓΑΡΑΚΗΣ ΑΠΟΣΤΟΛΗΣ,ΑΤΛΑΝΤΕΣ,80.35,,,,82.50,95,102.5,,,,102.5,,,,,,,
4,ΚΥΡΙΑΚΟΠΟΥΛΟΣ ΘΕΟΔΩΡΟΣ,ΑΤΛΑΝΤΕΣ,78.36,,,,140,150,155,,,,155,,,,,,,
5,ΓΡΑΜΜΟΣ ΓΙΩΡΓΟΣ ΑΓΚΑΡΑΙ,ΥΠΕΡΙΩΝ,81.5,230,240,-245,120,130,137.5,210,220,230,607.5,1,,,,,,
1,ΠΑΠΑΣΑΡΗΣ ΑΛΕΞΑΝΔΡΟΣ,ΥΠΕΡΙΩΝ,89.12,90,100,110,55,-60,,90,,,255,2,,,,,,
2,ΚΑΙΣΙΔΗΣ ΜΑΝΩΛΗΣ,ΑΤΛΑΝΤΕΣ,87.67,115,125,142.5,85,95,-100,170,185,200,437.5,1,,,,,,
1,ΑΡΑΠΙΔΗΣ ΟΔΥΣΣΕΑΣ,ΑΤΛΑΝΤΕΣ,94.25,,,,130,135,140,,,,135,3,,,,,,
2,ΣΕΙΦΟΥΛΑΟΓΛΟΥ ΣΟΥΚΡΗ,ΑΤΛΑΝΤΕΣ,96.82,160,185,195,130,140,152.5,-220,240,255,587.5,1,,,,,,
3,ΤΕΡΣΕΝΙΔΗΣ ΓΡΗΓΟΡΗΣ,ΑΤΛΑΝΤΕΣ,96.46,150,170,185,150,160,165,170,,215,,2,,,,,,
1,ΠΑΠΑΔΟΠΟΥΛΟΣ ΒΑΛΣΑΜΗΣ,ΥΠΕΡΙΩΝ,110,120,130,,100,110,115,130,140,150,390,3,,,,,,
2,ΚΑΡΥΠΙΔΗΣ ΜΙΧΑΛΗΣ,ΑΤΛΑΝΤΕΣ,108.33,170,180,195,130,140,150,,192.5,207.5,542.5,2,,,,,,
3,ΠΑΒΛΟΦ ΙΒAN,ΑΤΛΑΝΤΕΣ,102.61,,,,130,145,155,,,,145,,,,,,,
4,ΤΕΡΣΕΝΙΔΗΣ ΑΝΑΣΤΑΣΙΟΣ,ΑΤΛΑΝΤΕΣ,107.84,170,185,200,140,150,160,210,230,250,610,1,,,,,,
1,ΤΕΡΖΙΔΗΣ ΒΑΓΓΕΛΗΣ,ΥΠΕΡΙΩΝ,117.7,170,190,210,90,110,,170,190,,490,3,,,,,,
2,ΤΣΟΝΓΚΑΣ ΑΠΟΣΤΟΛΟΣ,ΥΠΕΡΙΩΝ,116.2,180,185,190,105,110,,175,185,200,495,2,,,,,,
3,ΛΟΥΤΣΗΣ ΜΙΧΑΛΗΣ,ΑΤΛΑΝΤΕΣ,116.75,200,225,255,160,175,195,200,220,240,690,1,,,,,,
4,ΘΕΟΔΩΡΙΔΗΣ ΝΙΚΟΣ,ΥΠΕΡΙΩΝ,117,100,120,130,100,110,120,110,130,145,385,,,,,,,
1,ΓΡΗΓΟΡΙΟΥ ΓΕΩΡΓΙΟΣ,ΑΤΛΑΝΤΕΣ,128.37,170,180,192.5,125,135,140,190,210,230,562.5,1,,,,,,
2,ΤΣΕΚΟΥΛΗΣ ΤΟΛΗΣ,ΑΤΛΑΝΤΕΣ,126,,,,140,150,155,,,,155,2,,,,,,
,,,,,,,,,,,,,,,,,,,,
,,,,,,,,,,,,,,,,,,,,
,,,,,,,,,,,,,,,,,,,,
Sheet 2: 2 ΠΑΝΕΛΛΗΝΙΟ ΠΡΩΤ. 12-10-10,,,,,,,,,,,,,,,,,,,,
,,,,,,,,,,,,,,,,,,,,
ΟΝΟΜΑ,ΚΑΤΗΓΟΡΙΑ,ΒΑΡΟΣ,ΣΥΛΛΟΓΟΣ,ΒΑΘΥ ΚΑΘΙΣΜΑ,,,ΠΙΕΣΕΙΣ ΠΑΓΚΟΥ,,,ΑΡΣΕΙΣ ΘΑΝΑΤΟΥ,,,ΣΥΝΟΛΟ,WILKS POINTS,ΘΕΣΗ,,,,,
ΠΑΠΑΚΩΝΣΤΑΝΤΙΝΟΥ ΠΑΓΩΝΑ,59,58,ΑΤΛΑΝΤΕΣ,70,75,-80,42.5,47.5,50,80,95,105,230,,,,,,,
ΣΟΥΡΛΟΥΚΑ ΣΠΥΡΙΔΟΥΛΑ,66,66,ΥΠΕΡΙΩΝ,65,75,85,35,40,-42.5,75,85,90,215,,,,,,,
ΑΡΧΟΝΤΙΔΟΥ ΕΙΡΗΝΗ,48,46,ΥΠΕΡΙΩΝ,85,87.5,90,35,40,45,82,90,92.5,227.5,,,,,,,
ΤΟΥΛΟΥΖΙΔΟΥ ΕΛΕΝΗ,90,89,ΥΠΕΡΙΩΝ,120,130,140,80,92.5,102.5,150,160,165,407.5,,,,,,,
ΒΑΣΙΛΕΙΑΔΟΥ ΣΩΤΗΡΙΑ,66,63,ΥΠΕΡΙΩΝ,60,62.5,70,35,40,42.5,70,80,90,202.5,,,,,,,
ΤΖΑΜΤΖΙΔΟΥ ΕΥΑΓΓΕΛΙΑ,74,70,ΥΠΕΡΙΩΝ ΚΑΒΑΛΑΡΙΟΥ,90,100,110,45,65,-75,105,115,125,300,,,,,,,
ΑΠΟΣΤΟΛΙΔΟΥ ΜΑΡΙΑ,59,55,ΥΠΕΡΙΩΝ ΚΑΒΑΛΑΡΙΟΥ,60,70,80,30,35,37.5,75,80,85,202.5,,,,,,,
,,,,,,,,,,,,,,,,,,,,
ΧΟΨΩΝΙΔΗΣ ΣΠΑΡΤΑΚΟΣ,52,50,ΗΦΑΙΣΤΟΣ,90,97.5,102.5,35,40,-42.5,100,-110,,242.5,,,,,,,
ΑΤΑΝΑΣ ΛΟΥΚΑΝΩΦ,67.5,67,ΥΠΕΡΙΩΝ,230,250,265,130,140,150,250,270,-285,685,,,,,,,
ΧΑΤΖΗΜΑΡΚΟΣ ΛΕΩΝΙΔΑΣ,75,74.4,ΑΤΛΑΝΤΕΣ,140,150,160,115,122.5,125,155,170,177.5,462.5,,,,,,,
ΚΥΡΙΑΚΟΠΟΥΛΟΣ ΘΟΔΩΡΟΣ,82.5,77,ΑΤΛΑΝΤΕΣ,140,155,160,140,150,-160,190,210,220,530,,,,,,,
ΑΧΕΛΩΝΟΥΔΗΣ ΔΗΜΗΤΡΗΣ,60,59,ΥΠΕΡΙΩΝ,90,95,100,45,50,-55,100,107.5,112.5,262.5,,,,,,,
ΚΥΡΚΟΠΟΥΛΟΣ ΔΗΜΗΤΡΗΣ,82.5,82,ΔΙΟΝΥΣΟΣ,120,140,150,90,95,100,160,185,200,450,,,,,,,
ΓΙΑΓΜΟΥΡΗΣ ΚΩΣΤΑΣ,90,87,ΠΗΓΑΣΟΣ,115,125,135,95,100,105,160,172.5,180,420,,,,,,,
ΙΣΛΑΜΙΔΗΣ ΝΙΚΟΣ,90,89.7,ΑΤΛΑΝΤΕΣ,145,155,170,120,130,140,160,180,200,510,,,,,,,
ΣΟΥΛΙΑΝΑΚΗΣ ΔΗΜΗΤΡΗΣ,90,89.3,ΙΑΣΩΝ,150,160,170,130,140,-150,160,172.5,182.5,492.5,,,,,,,
ΑΡΑΠΙΔΗΣ ΟΔΥΣΣΕΑΣ,90,86.3,ΑΤΛΑΝΤΕΣ,130,142.5,-150,115,125,-130,140,155,165,432.5,,,,,,,
ΜΑΝΑΒΙΔΗΣ ΜΕΤΑΞΑΣ,100,99.8,ΥΠΕΡΙΩΝ,190,200,-205,120,130,-135,172.5,180,190,520,,,,,,,
ΤΣΙΠΙΔΗΣ ΑΝΑΣΤΑΣΙΟΣ,100,90.84,ΥΠΕΡΙΩΝ,140,150,160,80,90,-95,170,180,187.5,437.5,,,,,,,
ΣΕΙΦΟΥΛΑΟΓΛΟΥ ΣΟΚΟΥΡ,100,99.1,ΑΤΛΑΝΤΕΣ,185,200,207.5,145,155,-170,210,235,260,622.5,,,,,,,
ΚΑΒΕΛΑΣΒΙΛΙ ΔΑΥΙΔ,100,97,ΥΠΕΡΙΩΝ,210,,,,,,,,,,,,,,,,
ΧΑΛΚΙΑΣ ΒΑΓΓΕΛΗΣ,100,99.1,ΥΠΕΡΙΩΝ ΚΑΒΑΛΑΡΙΟΥ,150,162.5,170,125,135,-145,160,175,190,495,,,,,,,
ΚΑΙΣΙΔΗΣ ΜΑΝΩΛΗΣ,100,98.1,ΥΠΕΡΙΩΝ ΚΑΒΑΛΑΡΙΟΥ,160,180,-200,115,125,132.5,200,210,222.5,535,,,,,,,
ΣΙΔΗΡΟΠΟΥΛΟΣ ΔΑΜΙΑΝΟΣ,110,104,ΔΙΟΝΥΣΟΣ,190,200,210,90,95,100,195,210,215,525,,,,,,,
ΠΑΠΑΣΑΡΗΣ ΑΛΕΞΑΝΔΡΟΣ,110,104.7,ΠΗΓΑΣΟΣ,155,160,-165,60,65,70,140,150,160,390,,,,,,,
ΤΣΟΓΚΑΣ ΑΠΟΣΤΟΛΟΣ,110,109.8,ΤΑΛΩΣ,180,190,200,110,120,-125,190,-200,205,525,,,,,,,
ΤΕΡΣΕΝΙΔΗΣ ΓΡΗΓΟΡΗΣ,110,109.2,ΑΤΛΑΝΤΕΣ,210,225,252.5,160,172.5,180,220,240,260,692.5,,,,,,,
ΤΡΙΑΝΤΑΦΥΛΛΙΔΗΣ ΠΕΤΡΟΣ,110,108.2,ΥΠΕΡΙΩΝ,170,185,200,125,135,142.5,160,185,205,547.5,,,,,,,
ΓΙΑΝΝΑΚΙΔΗΣ ΣΑΒΒΑΣ,110,107.36,ΤΑΛΩΣ,170,180,200,100,110,115,190,205,215,525,,,,,,,
ΠΑΝΑΓΙΩΤΙΔΗΣ ΚΩΣΤΑΣ,125,110.64,ΥΠΕΡΙΩΝ,125,135,140,-60,-60,-60,110,130,140,-280,,,,,,,
ΤΕΡΣΕΝΙΔΗΣ ΑΝΑΣΤΑΣΙΟΣ,125,114.2,ΑΤΛΑΝΤΕΣ,210,230,255,155,167.5,182.5,230,260,-290,697.5,,,,,,,
ΚΑΡΥΠΙΔΗΣ ΜΙΧΑΛΗΣ,125,115.2,ΑΤΛΑΝΤΕΣ,200,230,-260,130,160,167.5,220,242.5,262.5,620,,,,,,,
ΤΣΕΚΟΥΛΗΣ ΑΠΟΣΤΟΛΟΣ,125+,123.2,ΤΑΛΩΣ,,,,145,152.5,-155,,,,,,,,,,,
ΣΑΛΙΜΚΑΣ ΘΟΔΩΡΟΣ,125+,152.1,ΑΤΛΑΝΤΕΣ,227.5,250,-270,172.5,-180,-180,220,235,245,667.5,,,,,,,
ΓΡΗΓΟΡΙΟΥ ΓΙΩΡΓΟΣ,125+,129.1,ΑΤΛΑΝΤΕΣ,210,230,252.5,130,150,162.5,200,225,255,670,,,,,,,
ΛΟΥΤΣΗΣ ΜΙΧΑΛΗΣ,125+,126.3,ΑΤΛΑΝΤΕΣ,230,260,280,185,202.5,210,220,240,260,750,,,,,,,
,,,,,,,,,,,,,,,,,,,,
,,,,,,,,,,,,,,,,,,,,
Sheet 3: 3 ΠΑΝΕΛΛΗΝΙΟ ΠΡΩΤ. 6-11-11,,,,,,,,,,,,,,,,,,,,
,,,,,,,,,,,,,,,,,,,,
ΟΝΟΜΑ,ΚΑΤΗΓΟΡΙΑ,ΒΑΡΟΣ,ΣΥΛΛΟΓΟΣ,ΒΑΘΥ ΚΑΘΙΣΜΑ,,,ΠΙΕΣΕΙΣ ΠΑΓΚΟΥ,,,ΑΡΣΕΙΣ ΘΑΝΑΤΟΥ,,,ΣΥΝΟΛΟ,WILKS POINTS,ΘΕΣΗ,,,,,
ΣΠΑΡΤΑΚΟΣ ΧΟΨΩΝΙΔΗΣ,59,58.7,ΥΠΕΡΙΩΝ,140,147.5,,50,,,135,142.5,-150,340,,,,,,,
ΔΗΜΗΤΡΗΣ ΑΧΕΛΩΝΟΥΔΗΣ,66,65.7,ΠΗΓΑΣΟΣ,-125,,,-50,,,-110,,,,,,,,,,
ΑΤΑΝΑΣ ΛΟΥΚΑΝΩΦ,66,65.2,ΥΠΕΡΙΩΝ,200,230,240,100,,,230,250,-265,590,,,,,,,
ΛΕΩΝΙΔΑΣ ΧΑΤΖΗΜΑΡΚΟΣ,74,73.2,ΑΤΛΑΝΤΕΣ,140,155,160,120,122.5,125,150,165,175,460,,,,,,,
ΠΑΓΩΝΑ ΠΑΠΑΚΩΝΣΤΑΝΤΙΝΟΥ,74,70.2,ΑΤΛΑΝΤΕΣ,75,80,,50,52.5,55,95,105,110,245,,,,,,,
ΚΥΡΙΑΚΟΠΟΥΛΟΣ ΘΟΔΩΡΟΣ,83,77.7,ΑΤΛΑΝΤΕΣ,145,160,,140,150,160,200,-220,220,540,,,,,,,
ΑΘΑΝΑΣΙΟΣ ΣΕΡΔΕΝΗΣ,83,82.2,ΥΠΕΡΙΩΝ,105,110,-120,70,75,,140,150,160,340,,,,,,,
ΔΗΜΗΤΡΗΣ ΚΥΡΚΟΠΟΥΛΟΣ,83,81.25,ΥΠΕΡΙΩΝ,135,145,150,90,100,-102.5,170,190,200,450,,,,,,,
ΑΝΤΩΝΙΟΣ ΤΣΙΩΝΗΣ,83,81.3,ΑΤΛΑΝΤΕΣ,140,150,170,105,107.5,110,160,175,185,465,,,,,,,
ΚΥΡΙΑΚΟΣ ΚΑΤΣΑΝΗΣ,83,81,ΤΑΛΩΣ ΣΤ.,110,120,125,105,107.5,110,170,190,200,435,,,,,,,
ΚΩΣΤΑΣ ΓΙΑΓΜΟΥΡΗΣ,83,82.9,ΤΑΛΩΣ ΣΤ.,115,130,140,75,82.5,95,150,160,170,405,,,,,,,
ΝΙΚΟΛΑΟΣ ΙΣΛΑΜΙΔΗΣ,93,92.8,ΑΤΛΑΝΤΕΣ,150,165,-180,130,137.5,145,170,190,205,515,,,,,,,
ΒΑΓΓΕΛΗΣ ΚΑΤΣΑΡΑΣ,93,92,ΥΠΕΡΙΩΝ,110,122.5,132.5,70,-80,,140,150,160,362.5,,,,,,,
ΝΙΚΟΣ ΣΤΕΦΑΝΙΔΗΣ,93,91.2,ΗΦΑΙΣΤΟΣ,130,135,145,100,102.5,105,160,175,190,440,,,,,,,
ΟΔΥΣΣΕΑΣ ΑΡΑΠΙΔΗΣ,93,90,ΑΤΛΑΝΤΕΣ,135,145,160,120,125,127.5,150,165,180,467.5,,,,,,,
ΜΑΤΣΟΥΚΗΣ ΣΠΥΡΟΣ,93,92.2,ΚΑΒΑΛΑΡΙΟΥ ΥΠΕΡΙΩΝ,140,155,165,120,-125,-125,200,210,-220,495,,,,,,,
ΣΕΙΦΟΥΛΑΟΓΛΟΥ ΣΟΚΟΥΡ,105,101,ΑΤΛΑΝΤΕΣ,195,210,220,140,150,160,220,245,260,640,,,,,,,
ΚΑΙΣΙΔΗΣ ΜΑΝΩΛΗΣ,105,102,ΑΤΛΑΝΤΕΣ,170,190,210,130,135,137.5,200,215,230,577.5,,,,,,,
ΧΑΛΚΙΑΣ ΒΑΓΓΕΛΗΣ,105,97,ΑΤΛΑΝΤΕΣ,150,165,-170,130,135,-140,180,190,200,500,,,,,,,
ΦΙΛΛΙΠΟΥΔΗΣ ΠΑΡΗΣ,105,104,ΥΠΕΡΙΩΝ,180,190,200,180,185,-190,200,215,230,615,,,,,,,
ΤΣΟΓΚΑΣ ΑΠΟΣΤΟΛΟΣ,105,104,ΙΑΣΩΝ Ν.Α.,200,210,-225,115,,,200,210,220,545,,,,,,,
ΑΤΖΑΡΗΣ ΧΑΡΑΛΑΜΠΟΣ,105,104.1,ΥΠΕΡΙΩΝ,220,230,240,120,,,255,265,-275,625,,,,,,,
ΣΙΔΗΡΟΠΟΥΛΟΣ ΔΑΜΙΑΝΟΣ,105,104.5,ΥΠΕΡΙΩΝ,200,,,100,,,200,220,,520,,,,,,,
ΛΕΤΣΕΣΙΚΙΔΗΣ ΣΤΑΥΡΟΣ,105,100,ΗΦΑΙΣΤΟΣ,120,130,140,110,120,130,185,200,205,475,,,,,,,
ΤΕΡΣΕΝΙΔΗΣ ΓΡΗΓΟΡΙΟΣ,120,11,ΑΤΛΑΝΤΕΣ,225,240,260,170,180,190,225,245,260,710,,,,,,,
ΤΡΙΑΝΤΑΦΥΛΙΔΗΣ ΠΕΤΡΟΣ,120,113,ΑΤΛΑΝΤΕΣ,210,230,250,140,147.5,155,200,220,240,645,,,,,,,
ΣΑΤΣΙΑΝ ΓΡΗΓΟΡΗΣ,120,117,ΥΠΕΡΙΩΝ,220,230,-240,-150,-160,,240,255,267.5,497.5,,,,,,,
ΠΑΠΑΣΑΡΗΣ ΑΛΕΞΑΝΔΡΟΣ,120,114,ΠΗΓΑΣΟΣ,160,170,,70,,,170,180,-190,420,,,,,,,
ΑΡΚΟΥΔΕΑΣ ΠΕΤΡΟΣ,120,118,ΔΙΟΝΥΣΟΣ,235,240,-245,155,160,162.5,200,210,220,622.5,,,,,,,
ΠΑΝΑΓΙΩΤΙΔΗΣ ΚΩΣΤΑΣ,120,113,ΚΑΒΑΛΑΡΙΟΥ ΥΠΕΡΙΩΝ,165,172.5,,65,70,,167.5,175,187.5,430,,,,,,,
ΤΣΕΚΟΥΛΗΣ ΑΠΟΣΤΟΛΟΣ,120+,123,ΠΗΓΑΣΟΣ,-180,,,-140,,,-180,,,,,,,,,,
ΛΟΥΤΣΗΣ ΜΙΧΑΛΗΣ,120+,128.2,ΑΤΛΑΝΤΕΣ,270,310,,210,220,,260,-280,,790,,,,,,,
ΤΕΡΣΕΝΙΔΗΣ ΑΝΑΣΤΑΣΙΟΣ,120+,121.3,ΑΤΛΑΝΤΕΣ,200,220,230,150,160,170,240,260,270,670,,,,,,,
,,,,,,,,,,,,,,,,,,,,
,,,,,,,,,,,,,,,,,,,,
ΚΡΙΤΕΣ,,,,,,,,,,,,,,,,,,,,
ΜΗΤΣΙΚΟΥΔΗΣ ΔΗΜΗΤΡΗΣ,,,,,,,,,,,,,,,,,,,,
ΚΑΜΑΡΓΙΑΝΑΚΗΣ ΚΩΣΤΑΣ,,,,,,,,,,,,,,,,,,,,
ΛΟΓΟΘΕΤΙΔΗΣ ΘΟΔΩΡΟΣ,,,,,,,,,,,,,,,,,,,,
,,,,,,,,,,,,,,,,,,,,
,,,,,,,,,,,,,,,,,,,,
Sheet 4: 4 ΠΑΝΕΛΛΗΝΙΟ ΠΡΩΤΑΘΛΗΜΑ 9-12-12,,,,,,,,,,,,,,,,,,,,
,,,,,,,,,,,,,,,,,,,,
ΟΝΟΜΑ,ΚΑΤΗΓΟΡΙΑ,ΒΑΡΟΣ,ΣΥΛΛΟΓΟΣ,ΒΑΘΥ ΚΑΘΙΣΜΑ,,,ΠΙΕΣΕΙΣ ΠΑΓΚΟΥ,,,ΑΡΣΕΙΣ ΘΑΝΑΤΟΥ,,,ΣΥΝΟΛΟ,WILKS POINTS,ΘΕΣΗ,,,,,
ΚΑΡΑΤΣΑ ΒΑΙΤΣΑ,59,58.4,ΗΦΑΙΣΤΟΣ,60,80,90,55,65,-75,80,100,115,270,,,,,,,
ΧΟΨΩΝΙΔΗΣ ΣΠΑΡΤΑΚΟΣ,66,65.2,ΥΠΕΡΙΩΝ,160,170,175,55,60,,,157.5,172.5,407.5,,,,,,,
ΧΑΣΑΝ ΑΛΕΞΗ ΤΖΕΛΟ,74,73.9,ΔΙΟΝΥΣΟΣ,-125,140,150,110,120,-125,180,195,-205,465,,,,,,,
ΚΑΝΑΒΑΣ ΑΓΓΕΛΟΣ,74,73.1,ΥΠΕΡΙΩΝ,200,-215,,,70,,,195,205,475,,,,,,,
ΚΥΡΙΑΚΟΠΟΥΛΟΣ ΘΟΔΩΡΟΣ,74,72.3,ΑΤΛΑΝΤΕΣ,150,160,-170,140,150,-160,200,220,,530,,,,,,,
ΓΕΡΕΜΠΑΚΑΝΗΣ ΔΗΜΗΤΡΙΟΣ,74,73.8,ΥΠΕΡΙΩΝ,120,125,-157.5,95,100,-105,155,160,162.5,387.5,,,,,,,
ΤΣΙΩΝΗΣ ΑΝΤΩΝΗΣ,83,82.9,ΑΤΛΑΝΤΕΣ,160,170,-185,110,120,125,200,210,222.5,517.5,,,,,,,
ΑΛΕΥΡΑΣ ΓΙΑΝΝΗΣ,83,82.1,ΑΤΛΑΝΤΕΣ,130,140,150,90,100,107.5,170,182.5,-195,440,,,,,,,
ΓΙΑΝΝΟΣ ΑΡΙΣΤΟΤΕΛΗΣ,83,82.8,ΥΠΕΡΙΩΝ,140,150,160,110,117.5,122.5,195,202.5,,485,,,,,,,
ΜΑΜΑΛΑΚΗΣ ΜΙΧΑΛΗΣ,83,82.5,ΚΑΒΑΛΑΣ ΥΠΕΡΙΩΝ,190,200,-215,130,140,-145,220,230,240,580,,,,,,,
ΓΙΑΓΜΟΥΡΗΣ ΚΩΝ/ΝΟΣ,83,82.3,ΠΗΓΑΣΟΣ,120,130,135,92.5,100,-102.5,160,170,180,415,,,,,,,
ΚΑΙΣΙΔΗΣ ΜΑΝΩΛΗΣ,93,92.8,ΑΤΛΑΝΤΕΣ,150,165,185,130,137.5,142.5,210,220,230,557.5,,,,,,,
ΑΡΑΠΙΔΗΣ ΟΔΥΣΣΕΑΣ,93,90.5,ΠΗΓΑΣΟΣ,120,130,140,110,120,-127.5,150,160,175,435,,,,,,,
ΑΤΖΑΡΗΣ ΧΑΡΑΛΑΜΠΟΣ,93,92.8,ΥΠΕΡΙΩΝ,-220,-220,,100,,,230,250,-260,-350,,,,,,,
ΚΑΒΕΛΑΣΒΙΛΙ ΔΑΥΙΔ,93,92.1,ΥΠΕΡΙΩΝ,250,270,,95,,,230,250,270,635,,,,,,,
ΣΕΙΦΟΥΛΑΟΥΓΛΟΥ ΣΟΥΚΡΙ,105,103,ΑΤΛΑΝΤΕΣ,190,202.5,210,150,160,170,230,250,262.5,642.5,,,,,,,
ΣΟΛΑΝΑΚΗΣ ΔΗΜΗΤΡΗΣ,105,99.8,ΑΤΛΑΝΤΕΣ,180,190,195,135,145,155,200,210,220,570,,,,,,,
ΣΤΕΦΑΝΙΔΗΣ ΝΙΚΟΣ,105,101.2,ΚΑΒΑΛΑΣ ΥΠΕΡΙΩΝ,150,162.5,175,105,115,117.5,170,190,-200,482.5,,,,,,,
ΚΑΡΑΤΖΑΣ ΚΩΝ/ΝΟΣ,105,100.48,ΗΦΑΙΣΤΟΣ,190,200,-210,110,-130,-130,190,205,215,525,,,,,,,
ΦΙΛΙΠΠΟΥΔΗΣ ΠΑΡΗΣ,105,102.3,ΥΠΕΡΙΩΝ,200,210,220,180,185,-190,260,270,-275,675,,,,,,,
ΜΟΦΡΙΔΗΣ ΙΩΑΝΝΗΣ,105,97.4,ΥΠΕΡΙΩΝ,130,135,-140,90,-95,,170,180,190,415,,,,,,,
ΚΑΝΕΣ ΦΩΤΗΣ,120,113.8,ΑΤΛΑΝΤΕΣ,140,150,155,130,140,150,190,-200,,495,,,,,,,
ΠΑΠΑΘΕΟΔΩΡΟΥ ΝΙΚΟΣ,120,111.09,ΥΠΕΡΙΩΝ,190,200,210,145,160,180,190,210,245,635,,,,,,,
ΤΕΡΣΕΝΙΔΗΣ ΤΑΣΟΣ,120+,127.1,ΑΤΛΑΝΤΕΣ,210,230,250,160,175,185,240,260,280,715,,,,,,,
ΤΡΙΑΝΤΑΦΥΛΛΙΔΗΣ ΠΕΤΡΟΣ,120+,129.7,ΑΤΛΑΝΤΕΣ,220,235,255,150,160,170,220,240,-250,665,,,,,,,
,,,,,,,,,,,,,,,,,,,,
,,,,,,,,,,,,,,,,,,,,
,,,,,,,,,,,,,,,,,,,,
,,,,,,,,,,,,,,,,,,,,
,,,,,,,,,,,,,,,,,,,,
ΚΡΙΤΕΣ,,,,,,,,,,,,,,,,,,,,
ΛΟΓΟΘΕΤΙΔΗΣ ΘΟΔΩΡΟΣ,,,,,,,,,,,,,,,,,,,,
ΜΗΤΣΙΚΟΥΔΗΣ ΔΗΜΗΤΡΗΣ,,,,,,,,,,,,,,,,,,,,
ΚΑΜΑΡΓΙΑΝΑΚΗΣ ΚΩΝ/ΝΟΣ,,,,,,,,,,,,,,,,,,,,
,,,,,,,,,,,,,,,,,,,,
,,,,,,,,,,,,,,,,,,,,
Sheet 5: 5 ΠΑΝΕΛ. ΠΡΩΤΑΘΛΗΜΑ 24-11-13,,,,,,,,,,,,,,,,,,,,
,,,,,,,,,,,,,,,,,,,,
ΟΝΟΜΑ,ΚΑΤΗΓΟΡΙΑ,ΒΑΡΟΣ,ΣΥΛΛΟΓΟΣ,ΒΑΘΥ ΚΑΘΙΣΜΑ,,,ΠΙΕΣΕΙΣ ΠΑΓΚΟΥ,,,ΑΡΣΕΙΣ ΘΑΝΑΤΟΥ,,,ΣΥΝΟΛΟ,WILKS POINTS,ΘΕΣΗ,,,,,
ΑΡΧΟΝΤΙΔΟΥ ΕΙΡΗΝΗ,52,52,ΥΠΕΡΙΩΝ ΤΟΥΜΠΑΣ,70,75,,30,,,80,85,-90,190,,1,,,,,
ΜΠΕΝΤΕΛΗ ΚΩΝΣΤΑΝΤΙΝΑ,57,56.9,ΥΠΕΡΙΩΝ ΤΟΥΜΠΑΣ,100,105,110,45,50,,100,110,115,275,,1,,,,,
ΑΝΑΝΙΑΔΟΥ ΕΥΤΥΧΙΑ,84,84,ΥΠΕΡΙΩΝ ΤΟΥΜΠΑΣ,190,-200,200,80,90,-100,180,190,200,490,,1,,,,,
,,,,,,,,,,,,,,,,,,,,
ΡΟΥΣΟΠΟΥΛΟΣ ΑΝΑΣΤΑΣΙΟΣ,66,62.45,ΑΤΛΑΝΤΕΣ,70,75,80,70,80,,110,120,,270,,1,,,,,
ΠΕΤΡΟΠΟΥΛΟΣ ΧΑΡΙΛΑΟΣ,74,69.53,ΑΤΛΑΝΤΕΣ,120,135,145,90,100,105,140,155,165,415,,3,,,,,
ΜΟΣΧΟΣ ΡΑΦΑΗΛ,74,73.1,ΗΦΑΙΣΤΟΣ ΠΕΡΑΙΑΣ,60,70,90,70,-80,-80,140,-150,160,320,,,,,,,
ΚΥΡΙΑΚΟΠΟΥΛΟΣ ΘΕΟΔΩΡΟΣ,74,72.3,ΑΤΛΑΝΤΕΣ,150,-160,160,140,150,155,200,220,-227.5,535,,1,,,,,
ΧΟΨΩΝΙΔΗΣ ΣΠΑΡΤΑΚΟΣ,74,73.9,ΥΠΕΡΙΩΝ ΤΟΥΜΠΑΣ,190,-200,,70,,,160,180,,440,,2,,,,,
ΓΕΡΕΜΠΑΚΑΝΗΣ ΔΗΜΗΤΡΙΟΣ,74,73.9,ΔΙΟΝ.ΜΑΛΑΚΟΠΗΣ,120,125,,90,95,,160,,,380,,,,,,,
,,,,,,,,,,,,,,,,,,,,
ΤΣΙΩΝΗΣ ΑΝΤΩΝΙΟΣ,83,82.44,ΑΤΛΑΝΤΕΣ,170,195,-205,-120,130,-140,200,215,-230,540,,1,,,,,
ΤΣΕΛΟ ΧΑΣΑΝ,83,76.18,ΑΤΛΑΝΤΕΣ,150,160,,120,125,,200,210,220,505,,2,,,,,
ΓΩΓΟΥ ΚΥΡΙΑΚΟΣ,83,75.1,ΙΑΣΩΝ Ν.ΑΠΟΛ.,120,130,,100,-105,,160,180,,410,,3,,,,,
,,,,,,,,,,,,,,,,,,,,
ΒΑΡΒΕΡΗΣ ΕΜΜΑΝΟΥΗΛ,93,91,ΠΗΓΑΣΟΣ ΤΡΙΑΝΔΙΑΣ,220,230,-235,-140,140,145,245,-255,255,630,,1,,,,,
ΜΑΜΑΛΑΚΗΣ ΜΙΧΑΗΛ,93,87.85,ΥΠΕΡΙΩΝ ΤΟΥΜΠΑΣ,200,-215,215,140,-150,-150,240,255,-265,610,,2,,,,,
ΓΙΑΝΝΟΣ ΑΡΙΣΤΟΤΕΛΗΣ,93,86.7,ΥΠΕΡΙΩΝ ΚΑΒΑΛΑΣ,160,170,,115,-120,125,185,200,,495,,3,,,,,
ΛΑΜΠΑΔΑΡΙΔΗΣ ΣΩΚΡΑΤΗΣ,93,86,ΥΠΕΡΙΩΝ ΚΑΒΑΛΑΣ,125,,,100,-105,,175,185,,415,,,,,,,
,,,,,,,,,,,,,,,,,,,,
ΣΤΕΦΑΝΙΔΗΣ ΝΙΚΟΛΑΟΣ,105,104.45,ΑΤΛΑΝΤΕΣ,-180,185,202.5,125,-130,-137.5,200,-215,-215,532.5,,,,,,,
ΘΕΟΔΩΡΙΔΗΣ ΠΑΝΑΓΙΩΤΗΣ,105,97.9,ΑΤΛΑΝΤΕΣ,170,185,-200,120,125,-132.5,190,-200,-210,500,,,,,,,
ΦΙΛΛΙΠΟΥΔΗΣ ΠΑΡΗΣ,105,102.51,ΥΠΕΡΙΩΝ ΤΟΥΜΠΑΣ,210,-220,220,190,-200,-200,260,270,280,690,,1,,,,,
ΑΤΖΑΡΗΣ ΧΑΡΑΛΑΜΠΟΣ,105,96.4,ΥΠΕΡΙΩΝ ΚΑΒΑΛΑΣ,210,,,100,120,-135,240,260,-275,590,,3,,,,,
ΣΩΛΑΝΑΚΗΣ ΔΗΜΗΤΡΙΟΣ,105,102.9,ΑΤΛΑΝΤΕΣ,170,180,190,130,140,-150,200,220,230,560,,,,,,,
ΑΛΥΜΠΑΚΗΣ ΑΘΑΝΑΣΙΟΣ,105,98.7,ΔΙΟΝΥΣ.ΜΑΛΑΚΟΠΗΣ,-170,-200,200,-120,-140,145,-150,-200,200,545,,,,,,,
ΣΕΙΦΟΥΛΑΟΛΓΟΥ ΣΟΥΚΡΙ,105,103.4,ΑΤΛΑΝΤΕΣ,180,190,205,150,160,-165,240,-260,,605,,2,,,,,
,,,,,,,,,,,,,,,,,,,,
ΜΟΥΡΛΑΣ ΣΤΥΛΙΑΝΟΣ,120,114.7,ΙΑΣΩΝ Ν.ΑΠΟΛ,160,180,-200,-170,180,-190,160,190,230,590,,3,,,,,
ΤΡΙΑΝΤΑΦΥΛΛΟΥ ΑΝΑΣΤΑΣΙΟΣ,120,111.95,ΥΠΕΡΙΩΝ ΤΟΥΜΠΑΣ,325,-340,,-150,150,,260,275,-285,750,,1,,,,,
ΜΑΝΑΒΙΔΗΣ ΜΕΤΑΞΑΣ,120,117.8,ΥΠΕΡΙΩΝ ΤΟΥΜΠΑΣ,240,-250,250,140,150,-155,242.5,260,,660,,2,,,,,
ΜΟΦΡΙΔΗΣ ΙΩΑΝΝΗΣ,120,106.5,ΔΙΟΝ.ΜΑΛΑΚΟΠΗΣ,140,150,-165,90,100,-107.5,190,200,210,460,,,,,,,
,,,,,,,,,,,,,,,,,,,,
ΤΡΙΦΙΝΟΠΟΥΛΟΣ ΚΩΝΣΤΑΝΤΙΝΟΣ,120+,133.9,ΗΦΑΙΣΤΟΣ ΠΕΡΑΙΑΣ,-220,220,245,-115,115,-130,230,250,260,620,,3,,,,,
ΤΡΑΝΤΑΦΥΛΛΙΔΗΣ ΠΕΤΡΟΣ,120+,126.7,ΑΤΛΑΝΤΕΣ,230,255,275,150,160,-175,230,240,-250,675,,2,,,,,
ΛΟΥΤΣΗΣ ΜΙΧΑΗΛ,120+,129,ΑΤΛΑΝΤΕΣ,250,,,190,,,250,,,690,,1,,,,,
ΚΑΡΑΜΠΑΣΗΣ ΑΝΑΣΤΑΣΙΟΣ,120+,190,ΥΠΕΡΙΟΝ ΚΑΒΑΛΑΣ,180,190,,100,105,-110,190,-210,,485,,,,,,,
,,,,,,,,,,,,,,,,,,,,
,,,,,,,,,,,,,,,,,,,,
ΚΡΙΤΕΣ,,,,,,,,,,,,,,,,,,,,
ΜΗΤΣΙΚΟΥΔΗΣ ΔΗΜΗΤΡΗΣ,,,,,,,,,,,,,,,,,,,,
ΚΑΜΑΡΓΙΑΝΑΚΗΣ ΚΩΣΤΑΣ,,,,,,,,,,,,,,,,,,,,
ΛΟΓΟΘΕΤΙΔΗΣ ΘΟΔΩΡΟΣ,,,,,,,,,,,,,,,,,,,,
,,,,,,,,,,,,,,,,,,,,
,,,,,,,,,,,,,,,,,,,,
Sheet 6: 6 ΠΑΝΕΛ.ΠΡΩΤΑΘΛΗΜΑ 2014,,,,,,,,,,,,,,,,,,,,
,,,,,,,,,,,,,,,,,,,,
ΟΝΟΜΑ,ΚΑΤΗΓΟΡΙΑ,ΒΑΡΟΣ,ΣΥΛΛΟΓΟΣ,ΒΑΘΥ ΚΑΘΙΣΜΑ,,,ΠΙΕΣΕΙΣ ΠΑΓΚΟΥ,,,ΑΡΣΕΙΣ ΘΑΝΑΤΟΥ,,,ΣΥΝΟΛΟ,WILKS POINTS,ΘΕΣΗ,,,,,
ΠΑΟΛΑ ΤΖΕΝΚΟ,63,62.98,,80,90,92.5,50,-55,-55,90,95,100,242.5,,2,,,,,
ΠΑΠΑΘΕΟΔΩΡΟΥ ΒΑΙΤΣΑ,63,62.65,,80,85,92.5,62.5,67.5,-77.5,110,120,125,285,,1,,,,,
,,,,,,,,,,,,,,,,,,,,
ΕΡΙΖΑΜΠΕΛΑ ΤΖΕΝΚΟ,72,69.2,,100,105,110,-80,80,-90,105,120,-127.5,310,,1,,,,,
,,,,,,,,,,,,,,,,,,,,
ΧΑΜΠΟΥΝΤΑΝΙΔΟΥ ΜΑΡΙΑ,84,76.64,,110,-115,115,70,75,-77.5,105,117.5,-127.5,307.5,,1,,,,,
,,,,,,,,,,,,,,,,,,,,
ΑΝΑΝΙΑΔΟΥ ΕΥΤΥΧΙΑ,84+,93.3,,170,185,200,-90,90,100,190,205,-220,505,,1,,,,,
,,,,,,,,,,,,,,,,,,,,
ΒΟΥΡΑΖΑΝΗΣ ΔΗΜΗΤΡΙΟΣ,66,65.77,,130,135,140,80,-82.5,-82.5,152.5,157.5,-162.5,377.5,,2,,,,,
ΤΟΥΜΑΣΗΣ ΔΗΜΗΤΡΙΟΣ,66,63.75,,120,130,-135,90,100,107.5,170,180,-190,417.5,,1,,,,,
,,,,,,,,,,,,,,,,,,,,
ΚΥΡΙΑΚΟΠΟΥΛΟΣ ΘΟΔΩΡΟΣ,74,71.8,,150,160,165,145,152.5,-157.5,200,210,220,537.5,,1,,,,,
ΡΟΥΣΟΠΟΥΛΟΣ ΑΝΑΣΤΑΣΙΟΣ,74,71.27,,75,85,-95,70,80,-90,125,135,145,310,,7,,,,,
ΣΟΥΜΠΟΥΛΗΣ ΔΗΜΗΤΡΙΟΣ,74,73.9,,120,140,-150,90,95,-97.5,130,145,155,390,,5,,,,,
ΛΑΖΑΡΗΣ ΚΩΝΣΤΑΝΤΙΝΟΣ,74,73.93,,180,190,-195,120,-130,-130,195,205,215,525,,3,,,,,
ΠΕΤΡΟΠΟΥΛΟΣ ΧΑΡΙΛΑΟΣ,74,71.05,,130,140,150,100,105,110,157.5,167.5,-175,427.5,,4,,,,,
ΜΑΥΡΟΜΑΤΗΣ ΓΕΩΡΓΙΟΣ,74,72.24,,195,202.5,-207.5,-90,90,95,210,217.5,227.5,525,,2,,,,,
ΑΧΕΛΩΝΟΥΔΗΣ ΔΗΜΗΤΡΙΟΣ,74,73.4,,120,135,142.5,80,-90,-90,130,145,155,377.5,,6,,,,,
,,,,,,,,,,,,,,,,,,,,
ΜΗΤΣΙΑΔΗΣ ΓΙΑΝΝΗΣ,83,82.55,,180,190,-195,140,145,150,190,200,207.5,547.5,,1,,,,,
ΣΤΡΑΤΑΚΗΣ ΓΙΑΝΝΗΣ,83,82.67,,170,-180,180,-140,-140,-140,210,220,-230,,,,,,,,
ΣΚΟΥΡΛΑΣ ΑΘΑΝΑΣΙΟΣ,83,82.2,,110,-125,-150,130,-140,-155,110,120,140,380,,4,,,,,
ΓΕΩΡΓΑΚΟΥΔΗΣ ΙΩΑΝΝΗΣ,83,82.75,,105,110,-120,110,120,130,160,175,190,430,,3,,,,,
ΠΕΡΕΝΤΗΣ ΠΑΝΑΓΙΩΤΗΣ,83,79.04,,185,195,-202.5,102.5,110,-117.5,207.5,227.5,-245,532.5,,2,,,,,
,,,,,,,,,,,,,,,,,,,,
ΧΑΤΖΗΓΙΑΝΝΑΚΗΣ ΑΡΗΣ,93,91.75,,200,210,-215,142.5,145,-150,220,230,245,600,,3,,,,,
ΒΑΡΒΕΡΗΣ ΕΜΜΑΝΟΥΗΛ,93,92.06,,240,250,-255,140,150,155,262.5,277.5,285,690,,1,,,,,
ΜΑΜΑΛΑΚΗΣ ΜΙΧΑΗΛ,93,91.27,,215,230,237.5,150,157.5,162.5,260,280,-287.5,680,,2,,,,,
ΡΑΠΤΗΣ ΓΕΩΡΓΙΟΣ,93,91.32,,180,190,-200,120,130,-140,205,225,-230,545,,5,,,,,
ΚΑΝΑΒΑΣ ΑΓΓΕΛΟΣ,93,89.55,,250,-260,,105,115,,215,230,,595,,4,,,,,
ΘΕΟΔΩΡΙΔΗΣ ΠΑΝΑΓΙΩΤΗΣ,93,91.35,,170,-185,-185,-115,-115,-115,170,180,192.5,-,,,,,,,
ΠΑΠΑΓΙΑΝΝΗΣ ΡΑΦΑΗΛ,93,85.96,,127.5,-130,-130,120,-122.5,-122.5,170,175,-180,422.5,,9,,,,,
ΜΩΛΟΣ ΑΡΙΣΤΟΤΕΛΗΣ,93,91.5,,102.5,-130,142.5,117.5,130,-135,132.5,160,190,462.5,,8,,,,,
ΠΕΛΙΔΗΣ ΑΛΕΞΑΝΔΡΟΣ,93,86.04,,130,145,-160,95,100,-102.5,130,145,-170,390,,10,,,,,
ΜΟΥΖΕΝΙΔΗΣ ΚΩΝΣΤΑΝΤΙΝΟΣ,93,91.53,,170,175,182.5,115,120,122.5,170,180,195,500,,7,,,,,
ΧΑΛΚΙΑΣ ΕΥΑΓΓΕΛΟΣ,93,92.91,,150,160,-170,130,145,-160,180,195,210,515,,6,,,,,
,,,,,,,,,,,,,,,,,,,,
ΣΑΜΑΡΑΣ ΝΙΚΟΛΑΟΣ,105,103.87,,240,-255,,140,147.5,-155,275,-295,-295,662.5,,1,,,,,
ΜΟΥΖΕΝΙΔΗΣ ΟΔΥΣΣΕΑΣ,105,95.05,,150,160,167.5,85,90,-92.5,160,175,190,447.5,,3,,,,,
ΣΑΡΙΕΒ ΙΩΑΝΝΗΣ,105,103.03,,150,160,-170,110,117.5,-120,165,175,192.5,470,,2,,,,,
ΧΑΛΚΙΑΣ ΣΤΕΛΙΟΣ,105,104.98,,130,140,150,80,95,-105,160,175,190,435,,5,,,,,
ΚΕΛΕΜΟΥΡΙΔΗΣ ΑΡΙΣΤΟΤΕΛΗΣ,105,104.5,,145,-165,-165,80,95,105,160,175,190,440,,4,,,,,
,,,,,,,,,,,,,,,,,,,,
ΤΡΙΑΝΤΑΦΥΛΛΟΥ ΑΝΑΣΤΑΣΙΟΣ,120,115.02,,325,,,155,-165,,275,,,755,,1,,,,,
ΠΑΠΑΘΕΟΔΩΡΟΥ ΝΙΚΟΣ,120,109.6,,200,215,220,150,170,-180,220,235,250,640,,2,,,,,
ΔΗΜΙΔΗΣ ΓΙΑΝΝΗΣ,120,111.32,,170,190,-205,130,-145,145,200,230,250,585,,3,,,,,
ΥΦΑΝΤΙΔΗΣ ΧΡΗΣΤΟΣ,120,113.45,,-190,-190,-190,85,-95,-100,205,215,-230,,,,,,,,
,,,,,,,,,,,,,,,,,,,,
ΚΟΗΣ ΕΥΑΓΓΕΛΟΣ,120+,129.1,,220,-237.5,-237.5,190,200,-210,230,240,250,670,,1,,,,,
ΛΑΤΙΦΑΡΗΣ ΑΝΑΣΤΑΣΙΟΣ,120+,126.39,,190,210,237.5,150,157.5,-162.5,190,210,230,625,,3,,,,,
ΤΣΑΟΥΣΟΓΛΟΥ ΓΕΩΡΓΙΟΣ,120+,125.06,,80,140,,-130,-130,135,100,130,,405,,4,,,,,
ΤΡΙΑΝΤΑΦΥΛΛΙΔΗΣ ΠΕΤΡΟΣ,120+,129.46,,250,265,-280,140,150,-160,210,230,245,660,,2,,,,,
,,,,,,,,,,,,,,,,,,,,
,,,,,,,,,,,,,,,,,,,,
,,,,,,,,,,,,,,,,,,,,
ΚΡΙΤΕΣ,,,,,,,,,,,,,,,,,,,,
ΜΗΤΣΙΚΟΥΔΗΣ ΔΗΜΗΤΡΙΟΣ,,,,,,,,,,,,,,,,,,,,
ΤΕΡΣΕΝΙΔΗΣ ΑΝΑΣΤΑΣΙΟΣ,,,,,,,,,,,,,,,,,,,,
ΛΟΓΟΘΕΤΙΔΗΣ ΘΟΡΔΩΡΟΣ,,,,,,,,,,,,,,,,,,,,
,,,,,,,,,,,,,,,,,,,,
,,,,,,,,,,,,,,,,,,,,
Sheet 7: 7 ΠΑΝΕΛ.ΠΡΩΤΑΘΛΗΜΑ 2015,,,,,,,,,,,,,,,,,,,,
,,,,,,,,,,,,,,,,,,,,
ΟΝΟΜΑ,ΚΑΤΗΓΟΡΙΑ,ΒΑΡΟΣ,ΣΥΛΛΟΓΟΣ,ΒΑΘΥ ΚΑΘΙΣΜΑ,,,ΠΙΕΣΕΙΣ ΠΑΓΚΟΥ,,,ΑΡΣΕΙΣ ΘΑΝΑΤΟΥ,,,ΣΥΝΟΛΟ,WILKS POINTS,ΘΕΣΗ,,,,,
ΜΙΧΑΛΟΠΟΥΛΟΥ ΦΩΤΕΙΝΗ,53,51.8,,85,90,92.5,42.5,47.5,-50,92.5,95,100,240,,1,,,,,
,,,,,,,,,,,,,,,,,,,,
ΞΑΝΘΟΥΔΑΚΗ ΦΙΛΑΡΕΤΗ,57,55.2,,90,95,-105,-45,-50,-50,110,115,120,215,,ΑΚΡ,,,,,
ΜΠΕΝΤΕΛΗ ΚΩΝΣΤΑΝΤΙΝΑ,57,57,,120,130,-150,50,55,-62.5,110,130,-140,315,,1,,,,,
,,,,,,,,,,,,,,,,,,,,
ΓΙΑΝΖΙΝΑ ΕΛΙΝΑ,63,61.6,,90,95,-97.5,50,-52.5,-52.5,115,120,125,270,,1,,,,,
ΠΕΖΟΥΛΑ ΚΩΝ/ΝΑ,63,59.3,,75,80,85,47.5,55,55,95,100,-105,240,,2,,,,,
ΚΑΤΣΙΝΗ ΧΡΙΣΤΙΝΑ,63,59.6,,85,85,-90,37.5,40,42.5,90,100,105,232.5,,3,,,,,
,,,,,,,,,,,,,,,,,,,,
ΣΙΔΗΡΟΠΟΥΛΟΥ ΕΛΕΝΗ,84+,136.5,,100,120,135,60,-70,-70,110,-130,145,340,,1,,,,,
,,,,,,,,,,,,,,,,,,,,
,,,,,,,,,,,,,,,,,,,,
,,,,,,,,,,,,,,,,,,,,
ΚΥΡΙΑΚΟΠΟΥΛΟΣ ΘΟΔΩΡΟΣ,66,65.1,,135,145,152.5,130,140,,190,200,-207.5,492.5,,1,,,,,
ΜΠΕΚΑΣ ΗΛΙΑΣ,66,62.8,,117.5,130,140,67.5,75,-80,150,-165,165,380,,2,,,,,
,,,,,,,,,,,,,,,,,,,,
ΠΕΡΠΕΡΙΔΗΣ ΑΝΔΡΕΑΣ,74,73.8,,195,205,210,120,127.5,132.5,197.5,205,-210,547.5,,1,,,,,
ΓΟΛΣΟΥΖΙΔΗΣ ΕΜΜΑΝΟΥΗΛ,74,74,,220,-235,-235,100,107.5,112.5,170,185,200,532.5,,2,,,,,
ΜΙΧΑΛΟΠΟΥΛΟΣ ΝΙΚΟΣ,74,74,,150,162.5,172.5,117.5,-127.5,127.5,170,182.5,195,495,,3,,,,,
,,,,,,,,,,,,,,,,,,,,
ΣΤΑΜΑΤΙΑΔΗΣ ΣΠΥΡΟΣ,83,82.9,,210,230,232.5,100,120,-127.5,180,222.5,240,592.5,,1,,,,,
ΜΑΥΡΟΜΑΤΗΣ ΓΙΩΡΓΟΣ,83,80.2,,230,-240,-240,110,115,120,230,240,-247.5,590,,2,,,,,
ΜΙΤΣΙΑΔΗΣ ΙΩΑΝΝΗΣ,83,82.2,,200,207.5,-212.5,140,150,155,210,220,-230,582.5,,3,,,,,
ΠΑΠΟΥΤΣΗΣ ΧΡΗΣΤΟΣ,83,81.8,,175,185,195,115,127.5,132.5,210,227.5,240,567.5,,4,,,,,
ΛΑΖΑΡΗΣ ΚΩΝ/ΝΟΣ,83,77.2,,182.5,195,200,125,132.5,137.5,215,225,230,562.5,,5,,,,,
ΡΑΠΤΗΣ ΓΙΩΡΓΟΣ,83,81.5,,182.5,190,195,127.5,-135,-135,215,227.5,-230,550,,6,,,,,
ΑΧΕΛΩΝΟΥΔΗΣ ΔΗΜΗΤΡΗΣ,83,80.2,,200,210,,-95,100,105,200,210,-215,525,,7,,,,,
ΚΥΡΙΑΚΟΥΛΑΚΟΣ ΝΙΚΟΣ,83,78.1,,-175,-175,,-130,,,-195,,,,,ΑΚΡ,,,,,
,,,,,,,,,,,,,,,,,,,,
ΒΑΡΒΕΡΗΣ ΕΜΜΑΝΟΥΗΛ,93,93,,245,250,-255,155,162.5,-167.5,280,300,-310,712.5,,1,,,,,
ΝΤΑΓΚΟΥΝΑΚΗΣ ΙΩΑΝΝΗΣ,93,90,,-250,250,260,155,165,-170,260,275,-287.5,700,,2,,,,,
ΜΑΜΑΛΑΚΗΣ ΜΙΧΑΛΗΣ,93,91.9,,242.5,250,255,160,-170,-170,260,-270,,675,,3,,,,,
ΣΕΦΕΡΛΗΣ ΙΩΑΝΝΗΣ,93,89.3,,180,190,200,130,140,145,240,250,-260,595,,4,,,,,
ΣΕΦΕΡΛΗΣ ΔΗΜΗΤΡΙΟΣ,93,85.1,,180,190,200,-130,130,-135,220,230,240,570,,5,,,,,
ΜΠΕΛΗΣ ΑΝΤΩΝΙΟΣ,93,91.3,,-130,130,135,90,-100,-100,155,170,-180,395,,6,,,,,
ΜΠΑΣΜΑΤΖΙΔΗΣ ΧΡΗΣΤΟΣ,93,89.5,,125,130,135,-80,-87.5,87.5,130,-140,140,362.5,,7,,,,,
ΔΕΡΤΟΥΖΟΣ ΑΝΤΩΝΗΣ,93,91.4,,50,,,-165,-165,-165,50,,,,,ΑΚΡ,,,,,
,,,,,,,,,,,,,,,,,,,,
,,,,,,,,,,,,,,,,,,,,
ΑΛΕΞΑΝΔΡΑΚΗΣ ΓΕΩΡΓΙΟΣ,105,100.3,,280,-290,,-190,190,,270,280,285,755,,1,,,,,
ΦΙΛΛΙΠΟΥΔΗΣ ΠΑΡΗΣ,105,104.5,,200,210,220,190,-200,-200,270,280,-290,690,,2,,,,,
ΑΣΛΑΝΙΔΗΣ ΔΗΜΗΤΡΙΟΣ,105,94.1,,240,-260,260,-100,110,-122.5,200,220,-232.5,590,,3,,,,,
,,,,,,,,,,,,,,,,,,,,
,,,,,,,,,,,,,,,,,,,,
ΤΡΙΑΝΤΑΦΥΛΛΟΥ ΑΝΑΣΤΑΣΙΟΣ,120,115.5,,330,340,,175,182.5,-187.5,275,300,310,832.5,,1,,,,,
ΚΟΥΤΡΟΥΜΠΗΣ ΠΕΤΡΟΣ,120,109.3,,-170,170,-175,130,140,-145,240,250,260,570,,2,,,,,
,,,,,,,,,,,,,,,,,,,,
,,,,,,,,,,,,,,,,,,,,
ΚΟΗΣ ΕΥΑΓΓΕΛΟΣ,120+,140,,230,240,-250,200,-210,210,260,270,280,730,,1,,,,,
ΤΡΙΑΝΤΑΦΥΛΙΔΗΣ ΠΕΤΡΟΣ,120+,133,,270,300,,150,160,-165,240,250,-260,710,,2,,,,,
,,,,,,,,,,,,,,,,,,,,
,,,,,,,,,,,,,,,,,,,,
Sheet 8: ΚΑΛΥΤΕΡΕΣ ΕΠΙΔΟΣΕΙΣ ΑΝΔΡΩΝ,,,,,,,,,,,,,,,,,,,,
,,,,,,,,,,,,,,,,,,,,
ΟΝΟΜΑ,ΚΑΤΗΓΟΡΙΑ,ΒΑΡΟΣ,ΒΑΘΥ ΚΑΘΙΣΜΑ,,,ΠΙΕΣΕΙΣ ΠΑΓΚΟΥ,,,ΑΡΣΕΙΣ ΘΑΝΑΤΟΥ,,,ΣΥΝΟΛΟ,WILKS POINTS,ΘΕΣΗ,,,,,,
ΧΟΨΩΝΙΔΗΣ ΣΠΑΡΤΑΚΟΣ,59,,147.5,,,52.5,,,142.5,,,,,,,,,,,
ΧΟΨΩΝΙΔΗΣ ΣΠΑΡΤΑΚΟΣ,66,,175,,,,,,,,,,,,,,,,,
ΚΥΡΙΑΚΟΠΟΥΛΟΣ ΘΟΔΩΡΟΣ,66,,,,,145,,,205,,,,,,,,,,,
ΚΥΡΙΑΚΟΠΟΥΛΟΣ ΘΟΔΩΡΟΣ,74,,,,,155,,,,,,,,,,,,,,
ΜΑΥΡΟΜΑΤΗΣ ΓΕΩΡΓΙΟΣ,74,,,,,,,,227.5,,,,,,,,,,,
ΓΟΛΣΟΥΖΙΔΗΣ ΕΜΜΑΝΟΥΗΛ,74,,220,,,,,,,,,,,,,,,,,
ΓΟΛΣΟΥΖΙΔΗΣ ΕΜΜΑΝΟΥΗΛ,83,,250,,,,,,,,,,,,,,,,,
ΠΕΡΕΝΤΗΣ ΠΑΝΑΓΙΩΤΗΣ,83,,,,,,,,250,,,,,,,,,,,
ΚΥΡΙΑΚΟΠΟΥΛΟΣ ΘΟΔΩΡΟΣ,83,,,,,160,,,,,,,,,,,,,,
ΝΤΑΓΚΟΥΝΑΚΗΣ ΙΩΑΝΝΗΣ,93,,270,,,170,,,,,,,,,,,,,,
ΒΑΡΒΕΡΗΣ ΕΜΜΑΝΟΥΗΛ,93,,,,,,,,300,,,,,,,,,,,
ΣΠΑΝΟΣ ΝΙΚΟΛΑΟΣ,105,,,,,,,,320,,,,,,,,,,,
ΑΛΕΞΑΝΔΡΑΚΗΣ ΓΕΩΡΓΙΟΣ,105,,,,,190,,,,,,,,,,,,,,
ΓΚΑΡΙΠΗΣ ΚΩΝ/ΝΟΣ,105,,310,,,,,,,,,,,,,,,,,
ΤΡΙΑΝΤΑΦΥΛΛΟΥ ΑΝΑΣΤΑΣΙΟΣ,120,,340,,,,,,310,,,,,,,,,,,
ΑΓΓΕΛΑΚΗΣ ΘΩΜΑΣ,120,,,,,200,,,,,,,,,,,,,,
ΤΕΡΣΕΝΙΔΗΣ ΑΝΑΣΤΑΣΙΟΣ,120+,,,,,,,,280,,,,,,,,,,,
ΛΟΥΤΣΗΣ ΜΙΧΑΛΗΣ,120+,,310,,,,,,,,,,,,,,,,,
ΠΑΠΟΥΤΣΟΓΛΟΥ ΜΙΧΑΛΗΣ,120+,,,,,270,,,,,,,,,,,,,,
,,,,,,,,,,,,,,,,,,,,
,,,,,,,,,,,,,,,,,,,,
Sheet 9: 8 ΠΑΝΕΛ.ΠΡΩΤΑΘΛΗΜΑ 2016,,,,,,,,,,,,,,,,,,,,
,,,,,,,,,,,,,,,,,,,,
ΟΝΟΜΑ,ΣΩΜ.ΒΑΡ.,ΚΑΤΗΓΟΡΙΑ,ΣΥΛΛΟΓΟΣ,ΧΡ.ΓΕΝ.,ΒΑΘΥ ΚΑΘΙΣΜΑ,,,,ΠΙΕΣΕΙΣ ΠΑΓΚΟΥ,,,,ΑΡΣΕΙΣ ΘΑΝΑΤΟΥ,,,,ΣΥΝΟΛΟ,ΘΕΣΗ,ΗΛ.ΚΑΤΗΓΟΡΙΑ,ΠΟΝΤΟΙ
,,,,,,,,,,,,,,,,,,,,
ΤΣΕΒΡΕΝΤΖΗ ΕΥΘΑΛΙΑ,53.23,57,ΥΠΕΡΙΩΝ ΤΟΥΜΠΑ,1994,80,85,90,,40,45,50,,80,90,97.5,,232.5,1/1,ΓΥΝ/ΝΕΑΝ,12-12
,,,,,,,,,,,,,,,-,,,,,
ΣΦΥΡΑΚΗ ΛΥΔΙΑ,63,63,ΑΤΛΑΣ ΧΑΝΙΩΝ,1994,100,-110,-110,,50,60,-62.5,,120,125,130,,290,1/1,ΓΥΝ/ΝΕΑΝ,12-12
ΣΙΔΗΡΟΠΟΥΛΟΥ ΕΛΕΝΗ,61.2,63,ΣΠΑΡΤΑΚΟΣ,1974,70,75,-77.5,,50,52.5,-57.5,,90,95,100,,227.5,2/1,ΓΥΝ/ΜΑΣΤ,9-12
ΧΑΜΠΙΔΟΥ ΚΙΚΗ,59.01,63,ΣΠΑΡΤΑΚΟΣ,1990,70,75,80,,30,-35,-35,,80,85,90,,200,3,,8
ΛΑΚΑΤΟΥΣ ΜΠΙΑΝΚΑ,58.01,63,ΣΠΑΡΤΑΚΟΣ,1988,47.5,50,-55,,35,37.5,40,,70,75,-80,,165,4,,7
ΓΕΩΡΓΟΥΔΗ ΒΑΣΙΛΕΙΑ,62.83,63,Α.Ο.Ν.ΠΕΤΡΙΤΣΙΟΥ,2002,25,30,,,20,25,,,50,55,60,,115,5/2,ΓΥΝ/ΚΟΡ,6-9
,,,,,,,,,,,,,,,,,,,,
ΚΕΣΣΙΔΗ ΣΟΦΙΑ,65.22,72,ΔΙΑΣ,2002,107.5,112.5,122.5,,70,72.5,-77.5,,120,130,135,,330,1/1,ΓΥΝ/ΚΟΡ,12
ΕΛΙΝΑ ΤΖΕΝΓΚΟ,70.86,72,ΔΙΑΣ,2002,107.5,112.5,122.5,,60,62.5,-65,,120,-125,125,,310,2/2,ΓΥΝ/ΚΟΡ,9
ΤΕΡΖΗ ΧΡΙΣΤΙΝΑ,67.39,72,ΚΡΟΝΟΣ ΣΕΡΡΩΝ,1991,85,90,95,,40,-50,-50,,95,105,,,240,3,,8
,,,,,,,,,,,,,,,,,,,,
ΑΔΑΜΟΥ ΑΓΓΕΛΙΚΗ,78.44,84,ΥΠΕΡΙΩΝ ΤΟΥΜΠΑΣ,1982,125,130,,,60,-65,,,-135,140,,,330,1,,12
,,,,,,,,,,-,,,-,,,,,,,
ΚΑΡΑΔΗΜΗΤΡΙΟΥ ΝΙΚΟΛΑΟΣ,55.25,59,ΚΡΟΝΟΣ ΣΕΡΡΩΝ,2002,70,75,80,,40,-50,-50,,80,90,100,,220,1/1,ΑΝΔΡ/ΠΑΙΔ,12-12
ΠΑΠΑΔΟΠΟΥΛΟΣ ΧΑΡΑΛΑΜΠΟΣ,56.65,59,ΣΠΑΡΤΑΚΟΣ,2005,60,65,67.5,,35,37.5,40,,70,75,80,,187.5,2/2/1,ΑΝΔ/ΠΑΙΔ,9-9
,,,,,,,,,,,,,,,,,,,,
ΚΥΡΙΑΚΟΠΟΥΛΟΣ ΘΕΟΔΩΡΟΣ,65.85,66,ΑΤΛΑΝΤΕΣ Θ.,1978,145,155,-165,,135,140,145,,185,200,205,,505,1,,12
ΜΠΕΚΑΣ ΗΛΙΑΣ,65.03,66,ΠΗΓΑΣΟΣ ΤΡ.,1995,145,-155,-155,,75,80,82.5,,150,155,,,382.5,2/1,ΑΝΔ/ΕΦΗΒ,9-12
ΓΩΓΗΣ ΣΤΕΦΑΝΟΣ,64.25,66,ΑΕΚ,1994,85,95,107.5,,65,80,-85,,95,107.5,-120,,295,3/2,ΑΝΔ/ΕΦΗΒ,8-9
,,,,,,,,,,,,,,,,,,,,
ΠΕΡΠΕΡΙΔΗΣ ΑΝΔΡΕΑΣ,72.4,74,ΠΗΓΑΣΟΣ ΤΡ,1984,207.5,212.5,217.5,,130,135,140,,195,202.5,-207.5,,560,1,,12
ΜΑΥΡΟΜΑΤΗΣ ΓΕΩΡΓΙΟΣ,74,74,ΥΠΕΡΙΩΝ ΤΟΥΜΠΑΣ,1990,200,207.5,215,,100,107.5,-110,,215,-227.5,,,537.5,2,,9
ΚΑΧΙΛΕΛΗΣ ΠΑΝΑΓΙΩΤΗΣ,73.39,74,ΠΑΝΕΥΒΟΙΚΟΣ,1984,150,160,165,,135,140,-145,,190,200,210,,515,3,,8
ΠΑΡΘΕΝΟΠΟΥΛΟΣ ΦΩΤΙΟΣ,71.27,74,ΣΠΑΡΤΑΚΟΣ,1993,120,130,-137.5,,107.5,-112.5,112.5,,165,175,185,,427.5,4/1,ΑΝΔ/ΕΦΗΒ,7-12
ΒΑΣΙΛΕΙΟΥ ΠΕΤΡΟΣ,73.58,74,ΣΠΑΡΤΑΚΟΣ,1993,130,140,145,,87.5,92.5,-97.5,,170,180,190,,427.5,5/2,ΑΝΔ/ΕΦΗΒ,6-9
ΣΙΤΣΕΦ ΑΝΔΡΕΑΣ,72.82,74,ΔΙΑΣ,1995,140,150,-150,,110,-115,-115,,145,-152.5,155,,415,6/3,ΑΝΔ/ΕΦΗΒ,5-8
ΚΟΛΟΦΩΤΙΑΣ ΓΕΩΡΓΙΟΣ,72.67,74,ΥΠΕΡΙΩΝ ΚΑΒΑΛ.,1989,110,120,122.5,,110,117.5,122.5,,130,140,150,,395,7,,4
ΣΑΚΑΛΙΔΗΣ ΑΡΤΕΜΙΟΣ,73.02,74,ΔΙΑΣ,2000,132.5,140,-150,,82.5,87.5,-95,,142.5,-157.5,160,,387.5,8/1,ΑΝΔ/ΠΑΙΔ,3-12
ΑΧΤΣΗΣ ΙΩΑΝΝΗΣ,73.24,74,ΥΠΕΡΙΩΝ ΑΛΜΩΠ.,1996,130,135,-145,,85,90,95,,120,130,140,,370,9/4,ΑΝΔ/ΕΦΗΒ,2-7
ΜΙΛΕΒ ΓΕΩΡΓΚΙ,70.5,74,ΔΙΑΣ,2001,97.5,105,115,,77.5,82.5,-87.5,,110,137.5,142.5,,340,10/2,ΑΝΔ/ΠΑΙΔ,1-9
ΧΑΛΚΙΑΣ ΓΕΩΡΓΙΟΣ,72.66,74,ΣΠΑΡΤΑΚΟΣ,1977,85,90,95,,80,85,-90,,130,135,140,,320,11,,1
ΓΕΩΡΓΟΥΔΗΣ ΓΕΩΡΓΙΟΣ,69.89,74,Α.Ο.Ν.ΠΕΤΡΙΤΣΙΟΥ,1964,40,-45,-45,,-50,50,-60,,90,95,,,185,12/1,ΑΝΔ/ΜΑΣΤ2,1-12
ΓΟΛΣΟΥΖΙΔΗΣ ΕΜΜΑΝΟΥΗΛ,73.8,74,ΥΠΕΡΙΩΝ ΑΛΜΩΠ.,1993,200,215,220,,100,110,-112.5,,-190,,,,330,13,,
,,,,,,,,,,,,,,,,,,,,
ΠΕΡΕΝΤΗΣ ΠΑΝΑΓΙΩΤΗΣ,82.1,83,ΑΕΚ,1993,230,240,-247.5,,125,130,,,-250,-250,250,,620,1/1,ΑΝΔ/ΕΦΗΒ,12-12
ΣΑΚΑΡΙΚΑΣ ΑΛΕΞΑΝΔΡΟΣ,80.13,83,ΑΕΚ,1987,190,200,210,,127.5,135,-140,,220,235,-240,,580,2,,9
ΤΕΡΣΕΝΙΔΗΣ ΓΡΗΓΟΡΙΟΣ,82.9,83,ΑΤΛΑΝΤΕΣ Θ.,1986,170,190,,,130,145,-150,,180,200,220,,555,3,,8
ΛΑΖΑΡΗΣ ΚΩΝ/ΝΟΣ,77.68,83,ΠΗΓΑΣΟΣ ΤΡ.,1969,190,190,-202.5,,125,135,-140,,215,-230,-230,,540,4/1,ΑΝΔ/ΜΑΣΤ,7-12
ΔΕΛΙΑΛΗΣ ΔΗΜΗΤΡΙΟΣ,78.8,83,ΑΕΚ,1994,165,175,182.5,,120,127.5,132.5,,200,215,220,,535,5/2,ΑΝΔ/ΕΦΗΒ,6-9
ΜΟΥΖΟΥΡΑΣ ΑΝΔΡΕΑΣ,82.71,83,ΑΕΚ,1973,175,185,192.5,,120,130,-137.5,,175,180,195,,517.5,6/2,ΑΝΔ/ΜΑΣΤ,5-9
ΤΑΟΥΣΙΑΝΗΣ ΔΗΜΗΤΡΙΟΣ,81.4,83,ΥΠΕΡΙΩΝ ΚΑΒΑΛ.,1988,190,190,-200,,110,120,-125,,190,200,205,,515,7,,4
ΚΑΙΣΙΔΗΣ ΜΑΝΩΛΗΣ,80.77,83,ΑΤΛΑΝΤΕΣ Θ.,1987,150,160,-167.5,,110,120,-130,,200,215,225,,505,8,,3
ΦΙΡΑΝΙ ΟΝΕΛΝΤ,81.9,83,ΥΠΕΡΙΩΝ ΚΑΒΑΛ.,1987,170,,,,140,150,155,,170,180,,,505,9,,2
ΓΙΑΝΝΟΠΟΥΛΟΣ ΝΙΚΟΛΑΟΣ,82.93,83,ΥΠΕΡΙΩΝ ΤΟΥΜΠΑΣ,1993,170,180,190,,100,110,-120,,190,195,205,,505,10/3,ΑΝΔ/ΕΦΗΒ,1-8
ΧΡΙΣΤΟΦΟΡΙΔΗΣ ΙΩΑΝΝΗΣ,81.55,83,ΑΤΛΑΝΤΕΣ Θ.,1996,110,-120,130,,90,95,100,,180,195,202.5,,432.5,11/4,ΑΝΔ/ΕΦΗΒ,1-7
ΝΙΚΟΛΟΠΟΥΛΟΣ ΕΥΑΓΓΕΛΟΣ,80.63,83,ΑΕΚ,1997,145,155,165,,92.5,100,-107.5,,155,165,-167.5,,430,12/5,ΑΝΔ/ΕΦΗΒ,1-6
ΛΕΥΚΑΡΙΤΗΣ ΒΑΣΙΛΕΙΟΣ,82.08,83,ΥΠΕΡΙΩΝ ΚΑΒΑΛ.,1989,135,145,155,,95,105,-110,,140,150,155,,415,13,,1
ΣΚΑΡΜΗΤΣΟΣ ΑΛΕΞΑΝΔΡΟΣ,77.72,83,ΥΠΕΡΙΩΝ ΑΛΜΩΠ.,1992,130,,,,110,115,,,160,,,,405,14,,1
ΟΒΑΝΕΣΙΑΝ ΣΑΒΒΑΣ,79.97,83,ΥΠΕΡΙΩΝ ΤΟΥΜΠΑΣ,1995,105,110,-125,,75,80,90,,120,135,145,,345,15/6,ΑΝΔ/ΕΦΗΒ,1-5
ΠΑΠΑΔΟΠΟΥΛΟΣ ΔΗΜΗΤΡΙΟΣ,82.6,83,ΥΠΕΡΙΩΝ ΑΛΜΩΠ.,2000,140,150,155,,50,-60,,,130,140,,,345,16/1,ΑΝΔ/ΠΑΙΔ,1-12
ΒΕΖΥΡΙΔΗΣ ΘΕΟΔΩΡΟΣ,78.54,83,ΚΡΟΝΟΣ ΣΕΡΡΩΝ,1996,135,-140,-140,,-95,-95,-95,,175,180,-185,,315,17/7,ΑΝΔ/ΕΦΗΒ,
ΣΤΑΜΑΤΙΑΔΗΣ ΣΠΥΡΙΔΩΝ,81.51,83,ΥΠΕΡΙΩΝ ΑΛΜΩΠ.,1981,200,-210,,,-100,,,,-200,,,,200,18,,
ΚΑΛΟΥΔΗΣ ΓΕΩΡΓΙΟΣ,82.7,83,ΥΠΕΡΙΩΝ ΚΑΒΑΛ.,1984,-160,-160,160,,-110,,,,-220,,,,160,19,,
,,,,,,,,,,,,,,,,,,,,
ΝΤΑΓΚΟΥΝΑΚΗΣ ΙΩΑΝΝΗΣ,91.57,93,ΑΤΛΑΣ ΧΑΝΙΩΝ,1986,270,-280,,,170,-175,-175,,260,,,,700,1,,12
ΑΣΛΑΝΙΔΗΣ ΔΗΜΗΤΡΙΟΣ,91.5,93,ΥΠΕΡΙΩΝ ΤΟΥΜΠΑΣ,1992,270,300,307.5,,120,130,,,230,245,,,682.5,2,,9
ΜΑΜΑΛΑΚΗΣ ΜΙΧΑΗΛ,92,93,ΠΗΓΑΣΗΣ ΤΡ.,1990,245,255,260,,152.5,162.5,167.5,,235,250,-257.5,,677.5,3,,8
ΕΥΑΓΓΕΛΟΥ ΘΩΜΑΣ,89.1,93,ΥΠΕΡΙΩΝ ΤΟΥΜΠΑΣ,1984,240,250,257.5,,120,130,-137.5,,240,-250,,,627.5,4,,7
ΜΑΡΙΝΟΣ ΕΥΑΓΓΕΛΟΣ,89.4,93,ΑΕΚ,1995,195,205,-210,,112.5,117.5,-122.5,,230,240,247.5,,570,5/1,ΑΝΔ/ΕΦΗΒ,6-12
ΣΑΜΠΑΝΗΣ ΓΕΩΡΓΙΟΣ,91.17,93,ΠΑΝΕΥΒΟΙΚΟΣ,1996,190,200,210,,135,142.5,150,,210,-220,-220,,570,6/2,ΑΝΔ/ΕΦΗΒ,5-9
ΠΑΠΑΝΙΚΟΛΑΟΥ ΑΝΑΣΤΑΣΙΟΣ,89.6,93,Μ.ΑΛΕΞ.ΣΕΡΡΩΝ,1991,170,-180,180,,130,-140,-140,,180,200,210,,520,7,,4
ΤΟΣΚΑΣ ΣΩΤΗΡΙΟΣ,93,93,ΑΤΛΑΝΤΕΣ Θ.,1989,150,-160,165,,120,130,135,,170,180,190,,490,8,,3
ΠΑΝΕΤΣΙΔΗΣ ΑΝΔΡΕΑΣ,88.8,93,ΥΠΕΡΙΩΝ ΑΛΜΩΠ.,1985,-130,130,140,,110,120,125,,170,185,200,,465,9,,2
ΠΑΠΟΥΛΗΣ ΠΕΤΡΟΣ,92.1,93,ΠΛΑΤΩΝΑΣ ΣΕΡΡΩΝ,1987,130,-140,140,,85,95,-100,,175,185,195,,430,10,,1
ΤΣΙΩΝΗΣ ΓΡΗΓΟΡΙΟΣ,85.81,93,ΑΤΛΑΝΤΕΣ Θ.,1998,120,125,-135,,100,-105,-105,,180,190,-200,,415,11/1,ΑΝΔ/ΠΑΙΔ,1-12
ΚΑΔΕΜΛΙΑΔΗΣ ΓΕΩΡΓΙΟΣ,92.8,93,ΥΠΕΡΙΩΝ ΑΛΜΩΠ.,1998,140,150,-160,,50,65,75,,160,180,190,,415,12/2,ΑΝΔ/ΠΑΙΔ,1-9
ΓΚΙΤΚΟΣ ΓΕΩΡΓΙΟΣ,91.1,93,ΣΠΑΡΤΑΚΟΣ,1976,120,125,-130,,85,87.5,90,,155,-170,170,,385,13/1,ΑΝΔ/ΜΑΣΤ,1-12
ΑΧΕΛΩΝΟΥΔΗΣ ΑΝΑΣΤΑΣΙΟΣ,84.49,93,ΥΠΕΡΙΩΝ ΤΟΥΜΠΑΣ,1997,150,-155,,,-105,-110,-110,,155,160,165,,315,14/3,ΑΝΔ/ΕΦΗΒ,
,,,,,,,,,,,,,,,,,,,,
ΓΚΑΡΙΠΗΣ ΚΩΝ/ΝΟΣ,104.8,105,ΚΡΟΝΟΣ ΣΕΡΡΩΝ,1981,290,310,,,170,180,185,,280,290,,,785,1,,12
ΒΑΡΒΕΡΗΣ ΕΜΜΑΝΟΥΗΛ,100.1,105,ΠΗΓΑΣΟΣ ΤΡ.,1990,265,275,280,,170,177.5,-182.5,,290,-300,,,747.5,2,,9
ΣΠΑΝΟΣ ΝΙΚΟΛΑΟΣ,99.5,105,ΠΥΡΡΟΣ ΔΗΜΑΣ,1991,240,250,255,,145,-155,,,310,320,,,720,3,,8
ΜΕΛΙΑΔΗΣ ΑΝΑΣΤΑΣΙΟΣ,99.3,105,ΠΥΡΡΟΣ ΔΗΜΑΣ,1992,225,230,235,,-130,135,,,245,250,260,,630,4,,7
ΝΙΖΑΜΗΣ ΓΕΩΡΓΙΟΣ,104.1,105,ΚΡΟΝΟΣ ΣΕΡΡΩΝ,1997,-190,195,205,,140,-150,-150,,240,260,-270,,605,5/1,ΑΝΔ/ΕΦΗΒ,6-12
ΚΟΚΚΙΝΑΚΗΣ ΝΙΚΟΛΑΟΣ,102.2,105,ΠΗΓΑΣΟΣ ΤΡ.,1982,190,200,207.5,,150,-157.5,-157.5,,210,217.5,222.5,,580,6,,5
ΜΟΥΖΕΝΙΔΗΣ ΟΔΥΣΣΕΑΣ,97.6,105,ΔΙΑΣ,1999,180,195,210,,110,-115,115,,225,235,-255,,560,7/1,ΑΝΔ/ΠΑΙΔ,4-12
ΚΩΝΣΤΑΝΤΟΥΛΑΚΗΣ ΑΘΑΝΑΣΙΟΣ,100.1,105,ΑΕΚ,1999,-160,160,180,,-125,125,-132.5,,215,230,-252.5,,535,8/2,ΑΝΔ/ΠΑΙΔ,3-9
ΑΝΑΣΤΑΣΙΟΥ ΔΙΟΝΥΣΟΣ,103.3,105,ΑΤΛΑΝΤΕΣ ΑΓ.ΒΑΡ.,1982,140,-150,160,,152.5,-157.5,160,,200,-210,-212.5,,520,9,,2
ΓΚΡΟΥΓΙΕΒΣΚΙ ΧΑΡΙΛΑΟΣ,100.9,105,ΑΤΛΑΝΤΕΣ Θ.,1991,150,160,167.5,,110,120,-125,,200,-210,220,,507.5,10,,1
ΣΕΡΑΦΕΙΜΙΔΗΣ ΝΙΚΟΛΑΟΣ,94.3,105,ΚΡΟΝΟΣ ΣΕΡΡΩΝ,1998,170,190,200,,80,-90,-90,,180,190,200,,480,11/3,ΑΝΔ/ΠΑΙΔ,1-8
ΧΑΛΚΙΑΣ ΣΤΕΡΓΙΟΣ,100.2,105,ΣΠΑΡΤΑΚΟΣ,1980,145,155,165,,112.5,115,120,,170,180,190,,475,12,,1
ΠΑΝΤΕΛΑΙΟΣ ΙΩΑΝΝΗΣ,99.35,105,ΑΤΛΑΝΤΕΣ ΑΓ.ΒΑΡ.,1981,,,,,150,155,157.5,,,,,,157.5,13,,
ΚΟΥΝΗΣ ΝΙΚΟΛΑΟΣ,97.1,105,ΥΠΕΡΙΩΝ ΤΟΥΜΠΑΣ,1987,-170,,,,-120,,,,-200,,,,0,14,,
ΜΠΑΔΕΚΑΣ ΑΛΕΞΑΝΔΡΟΣ,98.1,105,Μ.ΑΛΕΞΑΝΔΡΟΣ ΣΕΡΡΩΝ,1988,-150,,,,-95,,,,-150,,,,0,15,,
,,,,,,,,,,,,,,,,,,,,
ΑΓΓΕΛΑΚΗΣ ΘΩΜΑΣ,113.7,120,ΠΛΑΤΩΝΑΣ ΣΕΡΡΩΝ,1992,-280,280,-290,,180,190,200,,290,300,-305,,780,1,,12
ΛΟΥΤΣΗΣ ΜΙΧΑΗΛ,118.2,120,ΑΤΛΑΝΤΕΣ Θ.,1986,250,260,-270,,170,180,-190,,240,250,-260,,690,2,,9
ΛΑΤΙΦΑΡΙ ΑΝΑΣΤΑΣΙΟΣ,114.55,120,ΔΙΑΣ,1996,220,237.5,245,,165,170,-175,,220,240,250,,665,3/1,ΑΝΔ/ΕΦΗΒ,8-12
ΠΑΠΑΔΟΠΟΥΛΟΣ ΘΕΟΧΑΡΗΣ,118.1,120,ΑΤΛΑΝΤΕΣ Θ.,1994,140,150,160,,100,110,-115,,180,-190,190,,460,4/2,ΑΝΔ/ΕΦΗΒ,7-9
ΜΠΙΝΟΣ ΧΡΥΣΟΒΑΛΑΝΤΗΣ,115.6,120,ΣΠΑΡΤΑΚΟΣ,2000,,,,,100,107.5,110,,160,180,-192.5,,290,5/1,ΑΝΔ/ΠΑΙΔ,6-12
ΤΡΙΑΝΤΑΦΥΛΛΟ ΑΝΑΣΤΑΣΙΟΣ,110.55,120,ΥΠΕΡΙΩΝ ΤΟΥΜΠΑΣ,1987,310,-325,,,-185,,,,-270,,,,310,6,,
ΤΕΡΣΕΝΙΔΗΣ ΑΝΑΣΤΑΣΙΟΣ,119.1,120,ΑΤΛΑΝΤΕΣ Θ.,1989,-200,,,,-160,,,,-260,,,,0,7,,
,,,,,,,,,,,,,,,,,,,,
ΤΡΙΑΝΤΑΦΥΛΛΙΔΗΣ ΠΕΤΡΟΣ,131.9,120+,ΑΤΛΑΝΤΕΣ Θ.,1987,270,300,305,,150,160,-170,,240,255,,,720,1,,12
ΚΟΗΣ ΕΥΑΓΓΕΛΟΣ,140.6,120+,ΠΑΝΕΥΒΟΙΚΟΣ,1978,220,-240,-240,,200,-210,210,,260,-285,,,690,2,,9
ΔΗΜΙΔΗΣ ΙΩΑΝΝΗΣ,126.05,120+,ΔΙΑΣ,1982,190,205,230,,130,140,-145,,240,260,270,,640,3,,8
ΤΣΑΟΥΣΟΓΛΟΥ ΓΕΩΡΓΙΟΣ,125.7,120+,ΔΙΑΣ,1992,205,215,230,,120,-150,155,,210,-225,-225,,595,4,,7
ΣΑΛΙΜΚΑΣ ΘΕΟΔΩΡΟΣ,161.7,120+,ΑΤΛΑΝΤΕΣ Θ.,1971,-175,180,190,,135,142.5,-145,,180,192.5,200,,532.5,5/1,ΑΝΔ/ΜΑΣΤ,6-12
ΒΕΛΕΝΤΖΑΣ ΑΘΑΝΑΣΙΟΣ,126.8,120+,ΑΕΚ,2000,100,,,,50,,,,120,135,150,,300,6/1,ΑΝΔ/ΠΑΙΔ,5-12
ΠΑΠΑΔΑΚΗΣ ΝΙΚΟΛΑΟΣ,158.1,120+,ΥΠΕΡΙΩΝ ΚΑΒΑΛ.,1987,275,285,292.5,,130,,,,-240,,,,422.5,7,,
ΜΑΡΚΟΥ ΜΙΧΑΛΗΣ,126,120+,ΥΠΕΡΙΩΝ ΤΟΥΜΠΑΣ,1993,160,170,,,150,160,-170,,-200,,,,330,8/1,ΑΝΔ/ΕΦΗΒ,
ΚΑΡΑΜΠΟΥΡΝΙΩΤΗΣ ΝΙΚΟΛΑΟΣ,157,120+,ΑΕΚ,1981,-210,,,,-120,,,,-260,,,,0,9,,
,,,,,,,,,,,,,,,,,,,,
,,,,,,,,,,,,,,,,,,,,
,,,,,,,,,,,,,,,,,,,,
ΒΑΘΜΟΛΟΓΙΑ ΣΥΛΛΟΓΩΝ ΚΟΡΑΣΙΔΕΣ,,,,,,,,,,,,,,,,,,,,
ΔΙΑΣ,21,,,,,,,,,,,,,,,,,,,
ΑΟΝ ΠΕΤΡΙΤΣΙΟΥ,9,,,,,,,,,,,,,,,,,,,
,,,,,,,,,,,,,,,,,,,,
,,,,,,,,,,,,,,,,,,,,
ΒΑΘΜΟΛΟΓΙΑ ΣΥΛΛΟΓΩΝ ΝΕΑΝΙΔΩΝ,,,,,,,,,,,,,,,,,,,,
ΥΠΕΡΙΩΝ ΤΟΥΜΠΑΣ,12,,,,,,,,,,,,,,,,,,,
ΑΤΛΑΣ ΧΑΝΙΩΝ,12,,,,,,,,,,,,,,,,,,,
,,,,,,,,,,,,,,,,,,,,
ΒΑΘΜΟΛΟΓΙΑ ΣΥΛΛΟΓΩΝ ΓΥΝΑΙΚΩΝ,,,,,,,,,,,,,,,,,,,,
ΣΠΑΡΤΑΚΟΣ,24,,,,,,,,,,,,,,,,,,,
ΥΠΕΡΙΩΝ ΤΟΥΜΠΑΣ,24,,,,,,,,,,,,,,,,,,,
ΔΙΑΣ,21,,,,,,,,,,,,,,,,,,,
ΑΤΛΑΣ ΧΑΝΙΩΝ,12,,,,,,,,,,,,,,,,,,,
ΚΡΟΝΟΣ ΣΕΡΡΩΝ,8,,,,,,,,,,,,,,,,,,,
ΑΟΝ ΠΕΤΡΙΤΣΙΟΥ,6,,,,,,,,,,,,,,,,,,,
,,,,,,,,,,,,,,,,,,,,
,,,,,,,,,,,,,,,,,,,,
,,,,,,,,,,,,,,,,,,,,
ΒΑΘΜΟΛΟΓΙΑ ΣΥΛΛΟΓΩΝ ΓΥΝΑΙΚΩΝ ΜΑΣΤΕΡ,,,,,,,,,,,,,,,,,,,,
ΣΠΑΡΤΑΚΟΣ,12,,,,,,,,,,,,,,,,,,,
,,,,,,,,,,,,,,,,,,,,
,,,,,,,,,,,,,,,,,,,,
,,,,,,,,,,,,,,,,,,,,
,,,,,,,,,,,,,,,,,,,,
ΒΑΘΜΟΛΟΓΙΑ ΣΥΛΛΟΓΩΝ ΠΑΙΔΩΝ,,,,,,,,,,,,,,,,,,,,
ΣΠΑΡΤΑΚΟΣ,21,,,,,,,,,,,,,,,,,,,
ΔΙΑΣ,21,,,,,,,,,,,,,,,,,,,
ΥΠΕΡΙΩΝ ΑΛΜΩΠΙΑΣ,21,,,,,,,,,,,,,,,,,,,
ΚΡΟΝΟΣ ΣΕΡΡΩΝ,20,,,,,,,,,,,,,,,,,,,
ΑΕΚ,12,,,,,,,,,,,,,,,,,,,
ΑΤΛΑΝΤΕΣ ΘΕΣ.,12,,,,,,,,,,,,,,,,,,,
,,,,,,,,,,,,,,,,,,,,
,,,,,,,,,,,,,,,,,,,,
,,,,,,,,,,,,,,,,,,,,
,,,,,,,,,,,,,,,,,,,,
ΒΑΘΜΟΛΟΓΙΑ ΣΥΛΛΟΓΩΝ ΕΦΗΒΩΝ,,,,,,,,,,,,,,,,,,,,
ΑΕΚ,57,,,,,,,,,,,,,,,,,,,
ΔΙΑΣ,32,,,,,,,,,,,,,,,,,,,
ΣΠΑΡΤΑΚΟΣ,21,,,,,,,,,,,,,,,,,,,
ΑΤΛΑΝΤΕΣ ΘΕΣ.,16,,,,,,,,,,,,,,,,,,,
ΥΠΕΡΙΩΝ ΤΟΥΜΠΑΣ,13,,,,,,,,,,,,,,,,,,,
ΚΡΟΝΟΣ ΣΕΡΡΩΝ,12,,,,,,,,,,,,,,,,,,,
ΠΗΓΑΣΟΣ ΤΡ.,12,,,,,,,,,,,,,,,,,,,
ΠΑΝΕΥΒΟΙΚΟΣ,9,,,,,,,,,,,,,,,,,,,
ΥΠΕΡΙΩΝ ΑΛΜΩΠΙΑΣ,7,,,,,,,,,,,,,,,,,,,
,,,,,,,,,,,,,,,,,,,,
,,,,,,,,,,,,,,,,,,,,
,,,,,,,,,,,,,,,,,,,,
ΒΑΘΜΟΛΟΓΙΑ ΣΥΛΛΟΓΩΝ ΑΝΔΡΩΝ ΜΑΣΤΕΡ,,,,,,,,,,,,,,,,,,,,
ΑΤΛΑΝΤΕΣ ΘΕΣ.,12,,,,,,,,,,,,,,,,,,,
ΣΠΑΡΤΑΚΟΣ,12,,,,,,,,,,,,,,,,,,,
ΠΗΓΑΣΟΣ ΤΡ.,12,,,,,,,,,,,,,,,,,,,
ΑΟΝ ΠΕΤΡΙΤΣΙΟΥ,12,,,,,,,,,,,,,,,,,,,
ΑΕΚ,9,,,,,,,,,,,,,,,,,,,
,,,,,,,,,,,,,,,,,,,,
,,,,,,,,,,,,,,,,,,,,
ΒΑΘΜΟΛΟΓΙΑ ΣΥΛΛΟΓΩΝ ΑΝΔΡΩΝ,,,,,,,,,,,,,,,,,,,,
ΑΤΛΑΝΤΕΣ ΘΕΣ.,63,,,,,,,,,,,,,,,,,,,
ΑΕΚ,55,,,,,,,,,,,,,,,,,,,
ΠΗΓΑΣΟΣ ΤΡ.,50,,,,,,,,,,,,,,,,,,,
ΔΙΑΣ,36,,,,,,,,,,,,,,,,,,,
ΣΠΑΡΤΑΚΟΣ,31,,,,,,,,,,,,,,,,,,,
ΚΡΟΝΟΣ ΣΕΡΡΩΝ,31,,,,,,,,,,,,,,,,,,,
ΥΠΕΡΙΩΝ ΤΟΥΜΠΑΣ,27,,,,,,,,,,,,,,,,,,,
ΠΑΝΕΥΒΟΙΚΟΣ,22,,,,,,,,,,,,,,,,,,,
ΠΥΡΡΟΣ ΔΗΜΑΣ,15,,,,,,,,,,,,,,,,,,,
ΠΛΑΤΩΝΑΣ ΣΕΡΡΩΝ,13,,,,,,,,,,,,,,,,,,,
ΑΤΛΑΣ ΧΑΝΙΩΝ,12,,,,,,,,,,,,,,,,,,,
ΥΠΕΡΙΩΝ ΚΑΒΑΛ.,11,,,,,,,,,,,,,,,,,,,
ΥΠΕΡΙΩΝ ΑΛΜΩΠ.,7,,,,,,,,,,,,,,,,,,,
Μ.ΑΛΕΞ.ΣΕΡΡΩΝ,4,,,,,,,,,,,,,,,,,,,
ΑΤΛΑΝΤΑΣ ΑΓ.ΒΑΡΒ.,2,,,,,,,,,,,,,,,,,,,
ΑΟΝ ΠΕΤΡΙΤΣΙΟΥ,1,,,,,,,,,,,,,,,,,,,
,,,,,,,,,,,,,,,,,,,,
,,,,,,,,,,,,,,,,,,,,
Sheet 10: 9o ΠΑΝΕΛ.ΠΡΩΤΑΘΛΗΜΑ 2017,,,,,,,,,,,,,,,,,,,,
,,,,,,,,,,,,,,,,,,,,
B,Lot#,Name,Division,BWT,Cls (kg),SQ-1,SQ-2,SQ-3,BP-1,BP-2,BP-3,SUB,DL-1,DL-2,DL-3,Total,,,,
B,22,Χριστος Χριστουδιας,Master-2,74,74,85,100,115,90,100,-120,215,100,120,140,355,,,,
B,19,ΓΙΩΡΓΟΣ ΚΟΛΟΦΩΤΙΑΣ,Open,72,74,112.5,120,-127.5,115,120,125,245,130,145,155,400,,,,
B,13,Σαράφης Αθανάσιος,Junior,73.3,74,115,125,132.5,95,102.5,-105,235,140,155,165,400,,,,
B,14,Στυλιανός Πουρνής,Junior,72.9,74,130,-140,142.5,82.5,87.5,90,232.5,150,160,167.5,400,,,,
B,,Κωνσταντίνος Κόνιαρης,Open,73.3,74,140,152.5,165,110,120,-127.5,285,155,165,175,460,,,,
B,12,ΠΑΝΑΓΙΩΤΗΣ ΚΟΥΤΡΟΥΛΙΑΣ,Junior,74,74,125,132.5,142.5,85,95,105,247.5,165,180,-195,427.5,,,,
B,15,Καραμπάσης Μάριος,Junior,73.5,74,-140,140,147.5,-102.5,102.5,-110,250,180,190,-200,440,,,,
B,21,Τοπάλι Παναγιώτης,Open,73.8,74,165,175,-176,75,85,-92.5,260,185,200,212.5,472.5,,,,
B,20,Φώτης Παρθενοπουλος,Open,72.8,74,130,-150,150,110,120,-130,270,185,200,215,485,,,,
B,17,Νίκος Σαλίβερος,Open,74,74,175,190,-191,102.5,107.5,-112.5,297.5,210,230,250,547.5,,,,
A,11,Θάλια Τσεβρεντζή,Junior,53,53,90,95,97.5,60,62.5,-65,160,100,105,110,270,,,,
A,2,Γιαννης Μπουρναζη,Junior,54.3,59,60,70,75,45,50,55,130,100,110,115,245,,,,
A,3,ΣΤΑΥΡΟΣ ΑΜΠΑΤΖΗΣ,Junior,66,66,130,137.5,145,87.5,92.5,95,240,150,160,170,410,,,,
A,9,ΘΕΟΔΩΡΟΣ ΠΑΝΑΓΙΩΤΑΚΟΠΟΥΛΟΣ,Open,64.7,66,115,120,-130,82.5,90,-95,210,150,160,170,380,,,,
A,4,Ηλίας Μπέκας,Junior,65,66,150,155,160,82.5,90,0,250,160,170,-177.5,420,,,,
A,5,Νικήτας Λούκας,Junior,65.9,66,145,150,0,105,112.5,0,262.5,165,-170,-170,427.5,,,,
A,8,Κιόττου Σάββας,Junior,64.1,66,135,140,145,85,90,-92.5,235,170,177.5,185,420,,,,
A,,Βασίολης Γώγολος,Paraolympic,,66,,,,-70,-72.5,0,0,,,,,,,,
B,Lot#,Name,Division,BWT,Cls (kg),SQ-1,SQ-2,SQ-3,BP-1,BP-2,BP-3,SUB,DL-1,DL-2,DL-3,Total,,,,
A,5,Σπύρος Μενεγατος,Junior,83,83,150,160,167.5,105,115,120,287.5,160,175,-185,462.5,,,,
B,17,ΕΥΑΓΓΕΛΟΣ ΣΙΜΙΝΤΖΗΣ,Open,80.7,83,120,127.5,135,95,100,105,240,135,145,155,395,,,,
B,14,Δημήτρης Σουμπουλης,Open,77.8,83,172.5,177.5,182.5,-95,95,-97.5,277.5,180,-187.5,-192.5,457.5,,,,
B,18,Γιώργος ευαγγελου,Open,78.4,83,-180,180,-185,110,-120,-125,290,170,180,195,485,,,,
B,13,ΘΕΟΔΩΡΟΣ ΚΟΥΤΣΗΣ,Open,80.4,83,135,150,-160,105,-115,-115,255,185,200,-210,455,,,,
B,22,Παπαϊωάννου Βασίλης,Open,81.1,83,175,190,-200,125,130,-135,320,190,200,210,530,,,,
B,11,ΠΑΝΑΓΙΩΤΗΣ ΚΑΧΙΛΕΛΗΣ,Open,82.2,83,170,180,-190,145,-150,150,330,210,220,230,560,,,,
B,20,Γιάννος Γεωργίου,Open,82.5,83,165,175,-182.5,115,130,-145,305,180,200,235,540,,,,
B,9,Μαυρομάτης Γιώργος,Open,80.1,83,240,-245,0,105,112.5,-117.5,352.5,235,-240,-240,587.5,,,,
B,12,ΓΟΛΣΟΥΖΙΔΗΣ ΕΜΜΑΝΟΥΗΛ,Open,83,83,280,-292.5,-292.5,145,-150,-150,425,225,235,-247.5,660,,,,
B,10,ΣΤΡΑΤΑΚΗΣ ΙΩΑΝΝΗΣ,Open,81.7,83,170,180,190,130,137.5,-142.5,327.5,230,240,247.5,575,,,,
B,19,Αλεξανδρος Σακαρικας,Open,81.7,83,200,-210,-215,132.5,140,-145,340,230,240,250,590,,,,
B,15,Περεντής Παναγιώτης,Open,83,83,245,-252.5,-252.5,140,142.5,-145,387.5,260,272.5,275,662.5,,,,
A,,ΜΙΛΕΒ ΓΙΩΡΓΟ,Sub Junior,83,83,120,-292.5,145,100,110,-115,255,160,180,190,445,,,,
A,3,Κωνσταντίνος Καραγκιόζης,Sub Junior,79,83,120,130,135,85,-95,-95,220,170,180,-190,400,,,,
A,,ΞΑΓΟΡΑΡΗΣ ΧΡΗΣΤΟΣ,Sub Junior,79.5,83,150,160,175,110,115,-122.5,290,170,190,-217.5,480,,,,
A,25,ΣΤΕΡΓΙΟΥ ΚΩΣΤΑΣ,Junior,79,83,150,160,167.5,135,140,142.5,310,185,-200,-200,495,,,,
A,2,Λυκούργος Φυλακτάκης,Sub Junior,81.7,83,160,175,-180,120,127.5,-132.5,302.5,190,205,-220,507.5,,,,
A,6,Ταξιάρχου Γεώργιος-Παναγιώτης,Junior,81.1,83,145,160,170,85,95,-105,265,205,220,-235,485,,,,
A,24,ΚΩΝΣΤΑΝΤΙΝΟΣ ΛΑΖΑΡΗΣ,Master1,78.8,83,185,-200,-200,125,135,-140,320,205,225,230,550,,,,
A,,ΛΕΙΒΑΔΙΟΤΑΚΗΣ ΜΑΝΩΛΗΣ,Junior,83,83,-200,-200,200,110,120,125,325,220,240,-250,565,,,,
B,Lot#,Name,Division,BWT,Cls (kg),SQ-1,SQ-2,SQ-3,BP-1,BP-2,BP-3,SUB,DL-1,DL-2,DL-3,Total,,,,
A,6,Ζαχαρόπουλος Απόστολος,Junior,90.8,93,-130,130,-140,70,-80,-80,200,140,150,-165,350,,,,
B,14,Φιλης Αλέξανδρος,Open,89.3,,142.5,150,155,95,-100,-100,250,160,170,-180,420,,,,
B,17,Ριζόπουλος Δημήτρης,Open,90.1,,160,170,175,120,125,-130,300,180,190,200,500,,,,
B,21,Παύλου Μάριος,Open,91.2,,160,-170,170,140,145,152.5,322.5,190,200,210,532.5,,,,
B,18,ΝΙΚΟΣ ΚΟΥΝΗΣ,Open,92,,200,210,-220,140,147.5,-152.5,357.5,230,240,-245,597.5,,,,
B,20,Καρώνης Άγγελος,Open,89.8,,185,195,205,135,142.5,147.5,352.5,220,235,-247.5,587.5,,,,
B,10,Σεφερλής Ιωάννης,Open,92.7,,235,250,-260,-165,-165,165,415,270,-280,-280,685,,,,
B,11,Ασλανίδης Δημήτριος,Open,90,,300,-310,,130,140,-145,440,0,,,,,,,
B,13,Αντώνης Κορκοφίγκας,Open,91.8,,180,195,,100,110,117.5,312.5,0,,,,,,,
B,16,Γιαννης νταγκουνακης,Open,93,,270,-285,-285,170,-180,-180,440,270,-290,,710,,,,
A,22,Αθανάσιος Δαλαμήτρος,master1,91.8,,110,,125,90,95,100,225,160,170,177.5,402.5,,,,
A,23,ΠΑΠΑΔΟΠΟΥΛΟΣ ΓΕΩΡΓΙΟΣ,master1,92.3,,120,125,-130,110,120,125,250,160,170,180,430,,,,
A,5,Σπύρος Καμπάκος,Junior,92.5,93,195,205,220,120,130,-135,350,190,200,215,565,,,,
A,24,Ανδρέας Μούζουρας,master1,92,,210,220,-232.5,-125,125,-132.5,345,195,210,215,560,,,,
A,3,Γιωργος Σαμπανης,Junior,92.2,93,210,220,-230,160,165,-167.5,385,230,240,-250,625,,,,
A,4,Μαρίνος Βαγγέλης,Junior,91.9,93,210,220,-230,125,130,135,355,245,260,270,625,,,,
B,Lot#,Name,Division,BWT,Cls (kg),SQ-1,SQ-2,SQ-3,BP-1,BP-2,BP-3,SUB,DL-1,DL-2,DL-3,Total,,,,
A,1,Κατερίνα Μαραζάκη,Open,52,52,50,55,-60,30,-35,35,90,65,70,75,165,,,,
B,11,ΚΑΤΡΑΚΗ ΜΑΡΙΑ,Junior,71.3,72,85,-95,-95,30,-35,37.5,122.5,-80,90,95,217.5,,,,
B,22,ASTAKHOVA OLESYA,master1,86.5,84+,75,87.5,100,40,45,50,150,90,100,110,260,,,,
B,10,Dimitrova Greta,Junior,72,72,110,-115,115,45,-50,50,165,120,125,130,295,,,,
B,21,Χαριτοπουλου Δέσποινα,Open,66.8,72,100,-105,-107.5,45,50,-52.5,150,130,137.5,145,295,,,,
B,19,Λυδια Σφυρακη,Junior,72,72,120,-130,130,60,65,70,200,130,140,-150,340,,,,
B,16,Αντρη Παπακωνσταντινου,Open,71,72,80,100,115,80,85,-87.5,200,140,150,-155,350,,,,
B,20,Σοφία κεσσιδη,SubJunior,68,72,-122.5,127,137.5,75,80,85,222.5,135,150,155,377.5,,,,
B,13,Εσθήρ Ιακώβ,Open,63,63,102.5,-105,105,50,52.5,-55,157.5,110,-115,,267.5,,,,
B,,Ζαγγελίδου Όλγα,Open,85.5,84+,105,112.5,-117.5,-40,40,-45,152.5,110,,,262.5,,,,
B,15,Αλίκη Κωνσταντίνου,Open,76,84,130,137.5,142.5,75,80,-85,222.5,170,182.5,190,412.5,,,,
A,2,Χριστιανα Χρίστου Μεταξά,Open,49.5,52,70,77.5,80,30,35,40,120,75,85,-100,205,,,,
A,14,Ελενη Σιδηροπουλου,master1,58,63,60,-65,70,40,50,-60,120,80,85,90,210,,,,
A,3,ΓΑΖΕΑ ΣΟΦΙΑ,Open,57,57,90,95,-97.5,45,-50,50,145,95,100,105,250,,,,
A,7,ΚΑΡΔΑΡΑ ΜΑΡΙΑ,SubJunior,57,57,95,100,-105,-45,45,-50,145,95,100,105,250,,,,
A,5,Θαλεια Τσεβρεντζη,Junior,52,52,90,95,97.5,60,62.5,-65,160,100,105,110,270,,,,
A,8,Παναγιώτα Χαλδεάκη,Open,56.5,57,70,80,85,45,50,-52.5,135,100,115,120,255,,,,
B,Lot#,Name,Division,BWT,Cls (kg),SQ-1,SQ-2,SQ-3,BP-1,BP-2,BP-3,SUB,DL-1,DL-2,DL-3,Total,,,,
A,20,Γιώργος Γκιτκος,Master1,103,105,120,-130,-150,90,100,-105,220,165,-190,190,410,,,,
B,4,ΘΕΟΔΩΡΟΣ ΚΟΤΟΥΦΟΣ,Junior,98,105,145,150,155,85,-90,-90,240,140,145,-150,385,,,,
B,,Βελέντζας Αθανάσιος,subjunior,136,120+,110,,,50,,,160,-150,-150,150,310,,,,
B,6,Αντρέας Παφιτης,Junior,102,105,165,172.5,-180,90,100,110,282.5,160,175,190,472.5,,,,
B,,Θεοδωρος Σαμλικας,Master1,158.2,120+,145,155,170,-130,130,135,305,185,200,210,515,,,,
B,7,ΜΑΡΙΟΣ ΒΑΣΙΛΟΠΟΥΛΟΣ,Junior,96,105,130,150,-170,120,125,-132.5,275,190,210,-217.5,485,,,,
B,5,Δημήτρης Σέμσης,Junior,105,105,170,180,-190,130,140,-150,320,200,215,-225,535,,,,
B,,Δρόσος Αλέξανδρος,Junior,103.8,105,162.5,172.5,180,137.5,142.5,-145,322.5,205,215,225,547.5,,,,
B,,Παπαδόπουλος Λαυρέντιος,Open,109,120,180,195,-205,-100,120,-135,315,190,210,240,555,,,,
B,,ΚΟΛΟΚΟΤΡΩΝΗΣ ΠΑΝΑΓΙΩΤΗΣ,Open,116,120,205,215,-220,120,-127.5,,335,220,235,-245,570,,,,
B,,Πετρος Τριανταφυλλιδης,Open,132,120+,280,300,305,155,160,165,470,240,250,255,725,,,,
B,8,Ιωννης Παπαγεωργιου,Junior,100,105,200,212.5,217.5,145,155,160,377.5,242.5,252.5,260,637.5,,,,
B,22,ΛΑΤΙΦΛΛΑΡΙ ΑΝΑΣΤΆΣΙΟΣ,Junior,120,120,230,250,,170,-180,-180,420,240,255,262.5,682.5,,,,
B,,Παπαδάκης Παντελής,Open,161,120+,285,-295,,135,-142.5,-142.5,420,200,225,-267.5,645,,,,
B,,Αναστασιος Τερσενιδης,Open,116,120,220,230,240,170,180,187.5,427.5,260,280,-290,707.5,,,,
B,,Θωμάς Αγγελάκης,Open,121,120+,290,300,-310,200,-210,-210,500,320,340,-345,840,,,,
B,,Κώνσταντινος Γκαριπης,Open,113,120,300,320,330,180,185,190,520,290,-300,,810,,,,
B,,Αναστάσιος Τριανταφύλλου,Open,112,120,340,-355,,185,190,200,540,290,-295,,830,,,,
A,,Τζογάνης Στέφανος,Open,93.5,105,60,-70,-70,60,70,75,135,80,120,,255,,,,
A,18,Χαλκιάς Βαγγέλης,Open,103.2,105,170,185,195,160,170,-180,365,200,220,-240,585,,,,
A,17,Νικόλαος Φλωράκης,Open,100,105,,,,130,140,-150,0,-210,220,230,0,,,,
A,13,Πανταζής Διονύσης,Open,101.5,105,190,200,210,-150,-150,150,360,215,230,245,605,,,,
A,9,ΔΙΟΝΥΣΗΣ ΑΝΑΣΤΑΣΙΟΥ,Open,99,105,160,170,180,-162.5,165,-170,345,220,-230,-230,565,,,,
A,11,Νικόλαος Κοκκινάκης,Open,105,105,200,210,-212.5,-160,160,-167.5,370,-225,-230,-230,0,,,,
A,1,ΟΔΥΣΣΕΑΣ ΜΟΥΖΕΝΙΔΗΣ,subjunior,100,105,200,215,,120,130,-132.5,345,230,250,-255,595,,,,
A,12,Κωνσταντινος Μαυρεδακης,Open,105,105,-190,190,200,110,115,-117.5,315,230,240,-250,555,,,,
A,10,Αριστοτέλης Χατζηγιαννάκης,Open,100,105,215,230,240,155,165,172.5,412.5,250,265,275,687.5,,,,
A,15,Εμμανουήλ Βαρβέρης,Open,98.3,105,-260,260,272.5,170,177.5,-182.5,450,260,270,275,725,,,,
A,2,Ρωμανος Δραμουντανης,subjunior,111.2,120,75,,,-142.5,-142.5,-150,0,,,,,,,,
,,,,,,,,,,,,,,,,,,,,
,,,,,,,,,,,,,,,,,,,,
,,,,,,,,,,,,,,,,,,,,
Sheet 11: 10ο ΠΑΝΕΛ.ΠΡΩΤΑΘΛΗΜΑ 2018,,,,,,,,,,,,,,,,,,,,
,,,,,,,,,,,,,,,,,,,,
Θέση,Ονοματεπώνυμο,Σωματείο,Βάρος,sq1,sq2,sq3,bp1,bp2,bp3,dl1,dl2,dl3,total,wilks,,,,,,
,43 sub junior,,,,,,,,,,,,,,,,,,,
1,Αλεξάνδρα Ελευθεριαδη,ΔΙΑΣ Χαλκιδικής,42.95,40,47.5,52.5,25,30,-35,50,60,67.5,150,214.59,,,,,,
,57 sub junior,,,,,,,,,,,,,,,,,,,
1,Αννα Ελευθεριαδη,ΔΙΑΣ Χαλκιδικής,55.6,70,75,80,35,45,-50,85,95,100,225,266.22,,,,,,
,63 sub junior,,,,,,,,,,,,,,,,,,,
1,Σοφία Τσολακίδου,ΔΙΑΣ Χαλκιδικής,59.8,67.5,72.5,77.5,40,45,50,85,95,100,227.5,254.3,,,,,,
,72 sub junior,,,,,,,,,,,,,,,,,,,
1,Σοφία Κεσσιδη,ΔΙΑΣ Χαλκιδικής,71.72,120,127.5,135,67.5,-75,80,130,145,155,370,362.08,,,,,,
2,Αναστασία Ντραγκομιροβα,ΔΙΑΣ Χαλκιδικής,71.7,85,95,105,52.5,60,-65,130,140,-145,305,298.53,,,,,,
3,Βικτωρία Μαρκετάκη,ΑΤΛΑΣ Χανίων,71.04,90,105,115,50,60,-67.5,100,120,127.5,302.5,297.93,,,,,,
4,Κωνσταντίνα Λελεκα,ΔΙΑΣ Χαλκιδικής,68.3,80,90,100,-40,40,45,90,107.5,117.5,262.5,265.68,,,,,,
,84 sub junior,,,,,,,,,,,,,,,,,,,
1,Ελινα Τζενγκο,ΔΙΑΣ Χαλκιδικής,77.1,130,137.5,142.5,55,60,62.5,130,145,,345,322.47,,,,,,
2,Χρυσάνθη Λατιφλλαρι,ΔΙΑΣ ΧΑΛΚΙΔΙΚΗΣ,74.22,70,85,95,60,65,-72.5,70,80,95,255,244.01,,,,,,
,52 junior,,,,,,,,,,,,,,,,,,,
1,Θεοδώρα Λαμπίρη,ΑΡΕΝΑ,48.82,70,72.5,-75,35,37.5,40,87.5,90,92.5,205,268.12,,,,,,
,63 Junior,,,,,,,,,,,,,,,,,,,
1,Ελένη Ελευθεριαδη,ΔΙΑΣ Χαλκιδικής,60.3,-115,125,132.5,50,60,-65,110,120,130,322.5,358.17,,,,,,
2,Αναστασοπούλου Κατερίνα,,59.45,95,100,105,-45,50,-52.5,105,115,-120,270,303.18,,,,,,
3,Κοτσίοφη Αντιόπη Σαββίνα,ΑΤΛΑΣ Χανίων,58.67,85,95,-100,40,45,-47.5,90,100,,240,272.28,,,,,,
Θέση,Ονοματεπώνυμο,Σωματείο,Βάρος,sq1,sq2,sq3,bp1,bp2,bp3,dl1,dl2,dl3,total,wilks,,,,,,
,72 junior,,,,,,,,,,,,,,,,,,,
1,Τσακαγιάννη Ειρηνη-Ηλιάνα,Crossfit Αρτα,68.25,115,122.5,130,50,60,-70,120,130,-140,320,324.03,,,,,,
,84 Junior,,,,,,,,,,,,,,,,,,,
1,Φαραντούρη Ελένη,Powerlifting club patras,76.38,87.5,97.5,100,45,50,55,100,110,117.5,272.5,256.15,,,,,,
,52 open,,,,,,,,,,,,,,,,,,,
1,ΧΡΙΣΤΙΑΝΑ ΧΡΙΣΤΟΥ,QUANTUM POWERLIFTING (ΚΥΠΡΟΣ),50.08,75,80,-85,35,40,-45,80,90,100,220,285.28,,,,,,
,57 open,,,,,,,,,,,,,,,,,,,
1,Θάλεια Τσεβρεντζή,Υπεριων Τούμπας,56.02,90,97.5,-102.5,55,57.5,-60,102.5,112.5,,257.5,302.9,,,,,,
,63 open,,,,,,,,,,,,,,,,,,,
1,Μαρία Γούτσια,Crossfit Factory Arta,59,85,-92.5,95,52.5,55,-60,115,120,-125,270,304.96,,,,,,
,72 open,,,,,,,,,,,,,,,,,,,
1,ΑΝΤΡΗ ΠΑΠΑΚΩΝΣΤΑΝΤΙΝΟΥ,QUANTUM POWERLIFTING (ΚΥΠΡΟΣ),70.95,117.5,125,130,80,-90,-90,145,155,162.5,372.5,367.17,,,,,,
,84+ open,,,,,,,,,,,,,,,,,,,
1,Ελένη Γκόγκου,Πήγγασος Τριανδρίας,85.05,125,135,140,60,65,,145,155,162.5,372.5,367.17,,,,,,
,63 master,,,,,,,,,,,,,,,,,,,
1,Θεοδώρα Παππά,Crossfit Factory Arta,59.4,80,85,92.5,52.5,57.5,-62.5,115,120,125,275,308.99,,,,,,
Θέση,Ονοματεπώνυμο,Σωματείο,Βάρος,sq1,sq2,sq3,bp1,bp2,bp3,dl1,dl2,dl3,total,wilks,,,,,,
,59 sub junior,,,,,,,,,,,,,,,,,,,
1,Κλιάμπας Γιάννης,Κρόνος Σερρών,58.25,100,115,-122.5,50,60,,130,140,,315,276.13,,,,,,
,66 sub junior,,,,,,,,,,,,,,,,,,,
1,Τσαπάρας Γιώργος,Σωκρατης Τρικαλων,65.5,115,120,122.5,65,70,72.5,140,-145,145,340,268.63,,,,,,
2,Πολύχρονης Αλμπάνης,ΔΙΑΣ Χαλκιδικής,65.2,105,115,120,60,65,70,110,125,137.5,327.5,259.77,,,,,,
3,Αρμάντο Αχμεταϊ,ΔΙΑΣ Χαλκιδικής,63.65,75,85,90,65,70,75,120,130,140,305,146.9,,,,,,
,74 sub junior,,,,,,,,,,,,,,,,,,,
1,Νίκος καραδημητριου,"Α. Σ. Σερρων "" ο κρονος""",69.2,125,135,140,65,75,80,150,-170,,370,279.76,,,,,,
2,Αλέξανδρος Φραγκεδάκης,ΑΤΛΑΣ Χανίων,70.9,90,100,110,80,90,-92.5,100,110,120,320,237.5,,,,,,
,83 sub junior,,,,,,,,,,,,,,,,,,,
1,Χατζημελετίου Μιχάλης,,81.9,170,-180,-180,120,130,135,210,-220,220,525,353.27,,,,,,
2,Χρυσοστομίδης Νικόλαος,Σωκρατης Τρικαλων,79.9,-135,140,155,75,90,100,170,190,-197.5,445,304.02,,,,,,
3,Αλέξανδρος Αγγελωβ,ΔΙΑΣ Χαλκιδικής,82,140,150,155,95,102.5,107.5,170,-190,-190,427.5,287.45,,,,,,
4,Γιώργος Μιλεβ,ΔΙΑΣ Χαλκιδικής,79.7,125,-135,-145,100,105,110,170,180,-192.5,415,283.98,,,,,,
5,Δημήτρης Μαλλας,ΔΙΑΣ Χαλκιδικής,79.7,100,-110,120,90,95,-97.5,160,170,180,395,270.3,,,,,,
6,Μάριος Καρακατάνης,ΔΙΑΣ Χαλκιδικής,83,130,140,147.5,60,75,85,130,145,155,380,253.65,,,,,,
Θέση,Ονοματεπώνυμο,Σωματείο,Βάρος,sq1,sq2,sq3,bp1,bp2,bp3,dl1,dl2,dl3,total,wilks,,,,,,
,93 sub junior,,,,,,,,,,,,,,,,,,,
1,Αρτέμης Καπασακαλιδης,ΔΙΑΣ Χαλκιδικής,83.1,150,157.5,160,100,107.5,-110,180,200,210,477.5,318.49,,,,,,
2,Μανούσος Κυμιωνής,ΑΤΛΑΣ Χανίων,92.36,142.5,155,160,80,92.5,97.5,210,220,-230,477.5,300.97,,,,,,
3,Μαυρομάτης Ιωάννης,ΔΙΑΣ Χαλκιδικής,83.1,100,115,117.5,100,110,-115,140,160,-162.5,387.5,258.46,,,,,,
4,Βαγγέλης τροχίδης,Κρόνος Σερρών,91,140,150,-155,-100,-100,-100,-180,180,-185,330,,,,,,,
5,Στέλιος Παπαρέγκας,,84.18,145,150,-155,-80,-80,-80,160,165,-170,315,,,,,,,
,105 sub junior,,,,,,,,,,,,,,,,,,,
1,Αναστάσης Πατσιούρης,Κρόνος Σερρών,103.12,-210,210,-225,140,150,-160,220,230,-240,590,354.83,,,,,,
2,Ραφαήλ Γκιόλτας,ΔΙΑΣ Χαλκιδικής,94.1,90,115,130,-110,120,125,105,130,140,395,246.76,,,,,,
3,Αρσενης Αλμπάνης,ΔΙΑΣ Χαλκιδική,93.2,90,105,110,60,65,67.5,100,115,125,302.5,189.85,,,,,,
,120 sub junior,,,,,,,,,,,,,,,,,,,
1,Ιωάννης Βεργεράκης,ΑΤΛΑΣ Χανίων,110,190,200,-210,80,90,-100,200,-220,-220,490,288.37,,,,,,
,66 junior,,,,,,,,,,,,,,,,,,,
1,Ιπποκράτης Στρατάκης,ΑΤΛΑΣ Χανίων,64.6,110,117.5,-122.5,85,92.5,-100,125,140,,350,279.76,,,,,,
,74 junior,,,,,,,,,,,,,,,,,,,
1,Χριστοφόρος Ρήγας,Cate's crossfit/crossfit volos,72.17,170,180,,115,120,125,180,190,-200,495,362.54,,,,,,
2,ΑΜΠΑΤΖΗΣ ΣΤΑΥΡΟΣ,Α.Σ. ΑΤΛΑΝΤΑΣ ΑΓΙΑΣ ΒΑΡΒΑΡΑΣ,71.3,147.5,152.5,-157.5,95,97.5,-100,170,185,-197.5,435,321.46,,,,,,
3,Στυλιανός Πουρνής,ΙΑΣΩΝ ΝΕΑΣ ΑΠΟΛΛΩΝΙΑΣ,72.3,145,160,-170,95,-102.5,-102.5,160,172.5,180,435,318.2,,,,,,
4,Σαράφης Αθανάσιος,ΙΑΣΩΝ ΝΕΑΣ ΑΠΟΛΛΩΝΙΑΣ,72.6,150,175,-180,100,107.5,-112.5,125,145,-165,427.5,311.78,,,,,,
5,Κυριάκος Παπαδόπουλος,Υπερίων Αλμωπίας,72.3,150,165,,65,,,165,172.5,177.5,407.5,298.09,,,,,,
Θέση,Ονοματεπώνυμο,Σωματείο,Βάρος,sq1,sq2,sq3,bp1,bp2,bp3,dl1,dl2,dl3,total,wilks,,,,,,
,83 junior,,,,,,,,,,,,,,,,,,,
1,ΡΕΙΖΗΣ ΑΝΑΣΤΑΣΙΟΣ,powerlifting club patras,79.1,175,182.5,187.5,117.5,120,-125,190,200,210,517.5,355.83,,,,,,
2,Γιώργος Αποστολίδης,Κρόνος Σερρών,80.1,130,145,150,100,110,-115,160,172.5,-177.5,432.5,295.05,,,,,,
3,Παναγιώτης Φελέκης,ΑΤΛΑΣ Χανίων,81.1,130,137.5,-142.5,95,102.5,-107.5,160,170,180,420,284.3,,,,,,
4,ΘΩΜΑΣ ΝΟΥΤΣΟΣ,ΑΤΛΑΝΤΕΣ ΘΕΣ/ΝΙΚΗΣ,81.8,105,110,120,80,87.5,-90,155,165,175,382.5,257.58,,,,,,
5,Χρήστος Γιάντσης,,81.5,-190,-190,-190,120,-125,-125,210,220,-225,340,,,,,,,
,93 junior,,,,,,,,,,,,,,,,,,,
1,ΛΥΚΟΥΡΓΟΣ ΦΥΛΑΚΤΑΚΗΣ,Κρόνος Σερρών,86.6,170,180,190,130,-140,-140,220,235,-240,555,361.58,,,,,,
2,Κωνσταντίνος Καραγκιόζης,Κρόνος Σερρών,84.1,160,170,-175,130,135,-137.5,240,-250,-250,545,361.01,,,,,,
3,Γιώργος Παντελίδης,Σωκρατης Τρικαλων,84.1,-185,185,-192.5,102.5,105,107.5,200,-202.5,-202.5,492.5,326.23,,,,,,
4,ΙΩΑΝΝΗΣ ΧΡΙΣΤΟΦΟΡΙΔΗΣ,ΑΤΛΑΝΤΕΣ ΘΕΣ/ΝΙΚΗΣ,91.3,130,-140,150,100,110,-115,200,210,220,480,304.22,,,,,,
5,ΝΙΚΟΛΟΠΟΥΛΟΣ ΔΗΜΗΤΡΙΟΣ,Α.Σ.ΑΤΛΑΝΤΑΣ ΑΓΙΑΣ ΒΑΡΒΑΡΑΣ,92.9,135,155,-170,100,110,-117.5,150,160,170,435,273.4,,,,,,
,105 junior,,,,,,,,,,,,,,,,,,,
1,Γιώργος Σαμπάνης,Powerlifting Χαλκιδας,100,230,240,-250,-165,165,175,240,-255,-255,655,398.63,,,,,,
2,Ταξιάρχης Τραγουστής,ΑΤΛΑΣ Χανίων,102.6,190,200,-200,115,-125,-125,220,240,-250,555,334.44,,,,,,
,120 junior,,,,,,,,,,,,,,,,,,,
1,Δρόσος Αλέξανδρος Ιωάννης,powerlifting club patras,111.2,190,205,215,140,152.5,-160,230,250,265,632.5,371.02,,,,,,
,120+ junior,,,,,,,,,,,,,,,,,,,
1,Λατιφλλάρι Αναστάσιος,ΔΙΑΣ ΧΑΛΚΙΔΙΚΗΣ,137,260,275,-300,175,180,-187.5,260,270,280,735,412.11,,,,,,
Θέση,Ονοματεπώνυμο,Σωματείο,Βάρος,sq1,sq2,sq3,bp1,bp2,bp3,dl1,dl2,dl3,total,wilks,,,,,,
,59 open,,,,,,,,,,,,,,,,,,,
1,Χρήστος Παπανιδης,ΔΙΑΣ Χαλκιδικής,59,-100,-110,110,75,80,85,130,145,170,365,316.16,,,,,,
,66 open,,,,,,,,,,,,,,,,,,,
1,ΠΑΝΑΓΙΩΤΑΚΟΠΟΥΛΟΣ ΘΕΟΔΩΡΟΣ,Α.Σ. ΑΤΛΑΝΤΑΣ ΑΓΙΑΣ ΒΑΡΒΑΡΑΣ,66,130,140,142.5,95,100,105,175,180,197.5,445,349.41,,,,,,
2,Σπυρος Ζαμπρακος,,66,125,130,140,95,100,107.5,175,185,195,435,341.56,,,,,,
,74 open,,,,,,,,,,,,,,,,,,,
1,Δημητριος Κρουσταλακης,,71.05,170,180,185,105,112.5,-120,190,210,-220,507.5,376.06,,,,,,
2,ΚΟΛΟΦΩΤΙΑΣ ΓΙΩΡΓΟΣ,,73.2,122.5,130,135,110,115,120,145,160,-165,415,300.83,,,,,,
,83 open,,,,,,,,,,,,,,,,,,,
1,Γολσουζιδης Εμμανουηλ,Υπεριων,82.78,250,265,277.5,130,147.5,-152.5,210,-230,230,655,437.93,,,,,,
2,Μαυρομμάτης Γεώργιος,Υπερίων Τούμπας,82.3,240,247.5,-255,107.5,115,120,240,260,270,637.5,427.7,,,,,,
3,Χρήστος Τότκας,,81.9,175,185,192.5,127.5,-135,-135,225,235,245,565,380.19,,,,,,
4,ΜΠΟΥΤΖΟΥΚΑΚΗΣ ΝΙΚΟΛΑΟΣ,ATLAS XANIA,83,170,185,-192.5,125,135,140,220,230,237.5,562.5,375.47,,,,,,
5,ΚΑΧΙΛΕΛΗΣ ΠΑΝΑΓΙΩΤΗΣ,ΔΥΝΑΜΙΚΟ ΤΡΙΑΘΛΟ ΧΑΛΚΙΔΑΣ,82.2,180,190,,140,145,-150,220,-230,-230,555,372.63,,,,,,
6,Χαράλαμπος Τσεγιαννάκης,ΑΤΛΑΣ Χανίων,76.1,175,-180,-187.5,125,127.5,132.5,200,-210,,507.5,358.04,,,,,,
7,Σταύρος Στεργίου,,81.6,-140,140,150,105,110,-115,140,150,155,415,279.88,,,,,,
8,ΔΗΜΗΤΡΗΣ ΠΟΛΥΖΟΣ,,80.7,,,,,,,170,180,190,190,,,,,,,
9,Βασίλης Παπαϊωάννου,,81.4,190,200,-210,120,125,-130,-220,-220,-220,325,,,,,,,
Θέση,Ονοματεπώνυμο,Σωματείο,Βάρος,sq1,sq2,sq3,bp1,bp2,bp3,dl1,dl2,dl3,total,wilks,,,,,,
,93 open,,,,,,,,,,,,,,,,,,,
1,ΜΠΕΚΑΟΥΡΙ ΜΠΕΚΑ,Αριστοτέλης Τριανδρίας,92.2,230,250,255,120,-127.5,-127.5,210,230,240,615,387.94,,,,,,
2,Καρτεροπουλος Σταθης,Α.Γ.Σ ΦΟΊΝΙΚΑΣ,90.1,-160,170,180,145,155,-160,200,215,225,560,357.28,,,,,,
3,ΔΗΜΗΤΡΙΟΣ ΚΥΡΚΟΠΟΥΛΟΣ,ΠΗΓΑΣΟΣ ΤΡΙΑΝΔΡΙΑΣ,90.7,165,175,180,115,122.5,127.5,185,210,225,532.5,338.62,,,,,,
4,Μάριος Παύλου,Poweliftng Χαλκίδας,90.47,150,160,170,140,-150,-150,190,200,-210,510,324.72,,,,,,
5,Χαϊδαρίδης Γιώργος,ΑΣ ΣΩΚΡΑΤΗΣ ΤΡΙΚΑΛΩΝ,91.25,-160,-160,160,90,95,-100,170,180,-190,435,275.79,,,,,,
6,Ορφέας Αντωνίου,,88.32,112.5,117.5,125,75,85,-100,127.5,135,142.5,352.5,227.26,,,,,,
7,Θανάσης Αργυρόπουλος,,90,,,,105,-120,-120,180,190,202.5,307.5,196.31,,,,,,
,105 open,,,,,,,,,,,,,,,,,,,
1,Ιωαάννης Νταγκουνάκης,ΑΤΛΑΣ Χανίων,102.55,300,310,,190,200,-205,300,320,332.5,842.5,507.77,,,,,,
2,ΦΙΛΙΠΠΟΥΔΗΣ ΠΑΡΗΣ,ΥΠΕΡΙΩΝ ΤΟΥΜΠΑΣ,104,230,240,245,200,205,-210,270,282.5,295,745,446.7,,,,,,
3,ΑΝΑΣΤΑΣΙΟΥ ΔΙΟΝΥΣΙΟΣ,Α.Σ. ΑΤΛΑΝΤΑΣ ΑΓΙΑΣ ΒΑΡΒΑΡΑΣ,102,170,185,195,150,160,170,210,225,-235,590,356.3,,,,,,
4,Κώστας Μαυρεδακης,Άτλας Χανια,104.5,200,-210,210,110,-117.5,-117.5,240,250,-260,570,341.2,,,,,,
5,ΧΑΡΙΛΑΟΣ ΝΙΤΣΙΑΚΟΣ,ΑΤΛΑΝΤΕΣ ΘΕΣ/ΝΙΚΗΣ,104.1,185,200,-205,120,-130,-130,210,220,232.5,552.5,331.17,,,,,,
6,Αντωνης Ρηγοπουλος,Υπεριων Τουμπας,104.1,170,-172.5,-172.5,-120,125,-127.5,190,200,210,505,302.7,,,,,,
7,ΑΝΤΡΕΑΣ ΠΑΦΙΤΗΣ,QUANTUM POWERLIFTING ( KYΠΡΟΣ),104.3,165,175,180,100,107.5,112.5,190,200,212.5,505,302.5,,,,,,
8,Νικολαος Μαυραγανης,,99.31,150,160,165,95,102.5,-107.5,205,220,-227.5,487.5,297.52,,,,,,
9,ΠΑΝΤΕΛΑΙΟΣ ΙΩΑΝΝΗΣ,Α.Σ. ΑΤΛΑΝΤΑΣ ΑΓΙΑΣ ΒΑΡΒΑΡΑΣ,102,,,,150,-157.5,-157.5,170,185,192.5,342.5,206.84,,,,,,
Θέση,Ονοματεπώνυμο,Σωματείο,Βάρος,sq1,sq2,sq3,bp1,bp2,bp3,dl1,dl2,dl3,total,wilks,,,,,,
,120 open,,,,,,,,,,,,,,,,,,,
1,Αγγελακης θωμας,Κρονος σερρων,119.86,300,310,315,210,215,217.5,335,350,352.5,885,508.96,,,,,,
2,Αναστασιος Τριανταφυλλου,Υπεριων τουμπας,118.65,360,-377.5,-377.5,200,210,-215,,,,570,328.61,,,,,,
3,Νικολαος Σακελλαρης,powerlifting club patras,113.4,145,-160,,132.5,140,147.5,177.5,190,-202.5,482.5,281.44,,,,,,
4,Χατζάκης Γιώργος,ΑΣ ΣΩΚΡΑΤΗΣ ΤΡΙΚΑΛΩΝ,110,155,160,-165,105,-110,-117.5,175,182.5,187.5,452.5,266.3,,,,,,
,+120 open,,,,,,,,,,,,,,,,,,,
1,ΑΡΓΥΡΑΚΗΣ ΑΝΤΩΝΗΣ,Υπεριων τούμπας,144,250,270,292.5,145,157.5,162.5,230,242.5,-260,687.5,382.59,,,,,,
2,ΜΙΧΑΗΛ ΧΑΤΖΗΓΕΩΡΓΙΟΥ,ΑΤΛΑΝΤΕΣ ΘΕΣ/ΝΙΚΗΣ,212.1,-200,210,220,170,-180,-180,230,250,260,650,372.91,,,,,,
3,Ευάγγελος Δαυρής,Α.Ο Καπετάν Λιάπης,133,,,,155,-165,165,250,265,,430,242.26,,,,,,
Θέση,Ονοματεπώνυμο,Σωματείο,Βάρος,sq1,sq2,sq3,bp1,bp2,bp3,dl1,dl2,dl3,total,wilks,,,,,,
,66 masters 1,,,,,,,,,,,,,,,,,,,
1,ΚΥΡΙΑΚΟΠΟΥΛΟΣ ΘΟΔΩΡΟΣ,ΑΤΛΑΝΤΕΣ,65.6,150,155,-160,125,130,-135,180,190,-200,475,374.82,,,,,,
,93 masters 1,,,,,,,,,,,,,,,,,,,
1,ΠΑΠΑΔΟΠΟΥΛΟΣ ΓΕΩΡΓΙΟΣ,Ήφαιστος Περαίας,83.2,200,-220,,90,100,,-180,190,,490,326.23,,,,,,
2,ΑΘΑΝΑΣΙΟΣ ΔΑΛΑΜΗΤΡΟΣ,ΑΤΛΑΝΤΕΣ ΘΕΣ/ΝΙΚΗΣ,86.2,105,-107.5,115,90,95,-102.5,155,160,167.5,377.5,246.58,,,,,,
,105 masters 1,,,,,,,,,,,,,,,,,,,
1,Χαλκιάς Ευάγγελος,Αθλητικος Συλλογος Σπαρτακος Ναουσας,101,180,190,-205,160,170,180,210,220,240,610,369.78,,,,,,
2,Στέργιος Σιδέρης,ΑΤΛΑΝΤΕΣ ΘΕΣ/ΝΙΚΗΣ,100.4,,,,160,170,-175,,,,170,103.29,,,,,,
,120 masters 1,,,,,,,,,,,,,,,,,,,
1,Γιωργος Γκιτκος,Αθλητικος Συλλογος Σπαρτακος Ναουσα,108,150,155,160,-105,105,110,180,190,-200,460,272.27,,,,,,
,120+ masters 1,,,,,,,,,,,,,,,,,,,
1,ΘΕΟΔΩΡΟΣ ΣΑΛΙΜΚΑΣ,QUANTUM POWERLIFTING (ΚΥΠΡΟΣ),151.65,155,170,180,125,130,135,185,202.5,207.5,522.5,288.63,,,,,,
,83 masters 2,,,,,,,,,,,,,,,,,,,
1,ΚΩΝΣΤΑΝΤΙΝΟΣ ΛΑΖΑΡΗΣ,powerlifting club patras,Άνδρες-83,185,200,-202.5,125,135,137.5,205,225,-235,562.5,384.92,,,,,,
,,,,,,,,,,,,,,,,,,,,
,,,,,,,,,,,,,,,,,,,,
Sheet 12: 11ο ΠΑΝΕΛ.ΠΡΩΤΑΘΛΗΜΑ 2019,,,,,,,,,,,,,,,,,,,,
,,,,,,,,,,,,,,,,,,,,
,Women,Lot,Weight,Team,SQ,,,BP,,,DL,,,Total,,,,,,
,84+ Sub-Junior,,,,,,,,,,,,,,,,,,,
-,Mpountouri Alexandra*,20,97.5,Atlas Xanion,-95,-95,-95,40,45,-50,95,-105,-110,0,,,,,,
,52 Junior,,,,,,,,,,,,,,,,,,,
1,Nedelkou Ioanna*,7,50,Powerlifting Club Patras,-80,80,87.5,30,35,-40,75,-82.5,82.5,205,,,,,,
,57 Junior,,,,,,,,,,,,,,,,,,,
1,Adam Aikaterini*,3,55.15,Powerlifting Club Patras,70,75,80,45,-47.5,-47.5,100,-107.5,107.5,232.5,,,,,,
,63 Junior,,,,,,,,,,,,,,,,,,,
1,Andrikopoulou Anastasia*,6,59.2,Powerlifting Club Patras,85,90,97.5,50,55,-57.5,100,107.5,112.5,265,,,,,,
2,Kotsyfi Antiopi*,12,62.75,Atlas Xanion,95,-107.5,-107.5,50,55,-57.5,100,110,-117.5,260,,,,,,
,72 Junior,,,,,,,,,,,,,,,,,,,
1,Xaritopoulou Despoina*,16,71.5,Yperion Toumpas,115,122.5,130,52.5,57.5,-60,155,162.5,-167.5,350,,,,,,
2,Marketaki Biktoria*,17,71.7,Atlas Xanion,120,132.5,135,62.5,-70,70,120,130,140,345,,,,,,
3,Karakatsani Athanasia*,5,71.3,Powerlifting Club Patras,80,85,90,42.5,47.5,-50,90,-95,-95,227.5,,,,,,
,63 Open,,,,,,,,,,,,,,,,,,,
1,Geronti Georgia*,4,60.15,,100,-112.5,-112.5,50,57.5,-60,115,-135,-135,272.5,,,,,,
,72 Open,,,,,,,,,,,,,,,,,,,
1,Papakonstantinou Andri*,2,71.7,Quantum Cyprus,120,130,135,80,87.5,-95,145,155,-160,377.5,,,,,,
2,Farantouri Eleni*,8,68.8,Powerlifting Club Patras,95,102.5,110,50,55,-57.5,110,120,130,295,,,,,,
,84 Open,,,,,,,,,,,,,,,,,,,
1,Ananiadou Eytyxia*,1,82.3,Yperion Toumpas,180,195,200,90,100,-105,180,195,210,510,,,,,,
,Men,,,,,,,,,,,,,,,,,,,
,59 Sub-Junior,,,,,,,,,,,,,,,,,,,
1,Lempesis Ioannis*,44,58,Xalkida D.T.,-95,100,105,60,70,75,115,122.5,10,302.5,,,,,,
,74 Sub-Junior,,,,,,,,,,,,,,,,,,,
1,Messinis Efraim*,10,72,Powerlifting Club Patras,125,-132.5,-132.5,105,-107.5,-110,150,160,175,405,,,,,,
2,Kyriakopoulos Anastasios*,11,73.1,Powerlifting Club Patras,120,130,135,90,95,100,150,162.5,170,405,,,,,,
3,Kouvaras Nikolaos*,21,73.3,Atlantas Agias Barbaras,50,70,85,35,45,-55,80,95,105,235,,,,,,
-,Ploumis Lampros*,13,70.4,Powerlifting Club Patras,-115,115,-122.5,-60,-65,-65,140,150,157.5,0,,,,,,
,83 Sub-Junior,,,,,,,,,,,,,,,,,,,
1,Konstantatos Konstantinos*,35,81.3,,-127.5,130,135,82.5,87.5,90,157.5,165,170,395,,,,,,
2,Liapis Ieronymos*,25,76.1,A.O.Kapetan Liapis,115,125,132.5,65,72.5,-77.5,145,155,10,360,,,,,,
,93 Sub-Junior,,,,,,,,,,,,,,,,,,,
1,Zafeiropoulos Basileios*,52,89.3,Powerlifting Club Patras,130,135,-147.5,80,90,102.5,135,160,185,422.5,,,,,,
,74 Junior,,,,,,,,,,,,,,,,,,,
1,Tsaparas Georgios*,14,68.2,Metcon 039,120,130,-135,85,90,-92.5,150,-160,-160,370,,,,,,
,83 Junior,,,,,,,,,,,,,,,,,,,
1,Stergiou Konstantinos*,41,78.6,Powerlifting Club Patras,185,195,205,140,147.5,-152.5,210,220,225,577.5,,,,,,
2,Karakatsanis Rafail*,27,81.2,Powerlifting Club Patras,200,-210,-210,135,140,145,200,210,220,565,,,,,,
3,Xristias Panagiotis*,31,82.9,Powerlifting Club Patras,-152.5,152.5,-162.5,107.5,115,-120,182.5,192.5,200,467.5,,,,,,
4,Raptis Georgios*,36,81.4,Faktori Artas,130,140,-152.5,90,-100,-100,-165,170,180,410,,,,,,
5,Kakafonis Mixail*,29,80.7,Powerlifting Club Patras,130,-135,-135,-82.5,82.5,-87.5,160,170,-180,382.5,,,,,,
,93 Junior,,,,,,,,,,,,,,,,,,,
1,Mixail Kyriakos*,47,89.6,Quantum Cyprus,225,235,245,-140,145,-155,225,240,250,640,,,,,,
2,Fylaktakis Lykourgos*,53,88.1,A.S.Amila,200,205,207.5,145,-150,-150,250,260,262.5,615,,,,,,
3,Karagkiozis Konstantinos*,45,91,Kronos Serron,190,200,-202.5,140,-145,-145,250,265,-275,605,,,,,,
4,Mparounis Konstantinos*,50,91.5,Powerlifting Club Patras,210,220,-225,130,-135,-135,230,240,250,600,,,,,,
5,Ieronymidis Georgios*,58,87.5,,170,182.5,195,122.5,130,,245,252.5,,577.5,,,,,,
6,Xatzixaralampous Stavros*,46,90.5,Quantum Cyprus,165,175,180,115,130,-145,215,227.5,-240,537.5,,,,,,
7,Kotsalas Basileios*,56,90.4,Powerlifting Club Patras,162.5,170,177.5,125,132.5,137.5,187.5,195,-205,510,,,,,,
,105 Junior,,,,,,,,,,,,,,,,,,,
1,Sampanis Georgios*,40,99,Xalkida D.T.,235,-245,245,170,-180,180,250,260,-270,685,,,,,,
2,Mpampatsikos Hlias*,73,103.9,,220,240,-255,140,150,160,250,265,-280,665,,,,,,
3,Asprogenous Alkis*,62,96.4,Quantum Cyprus,190,200,-210,115,125,-132.5,205,225,-227.5,550,,,,,,
4,Arvanitidis Ioannis*,71,100.9,Kronos Serron,130,145,150,95,102.5,-107.5,180,-190,-190,432.5,,,,,,
,120 Junior,,,,,,,,,,,,,,,,,,,
1,Katsinaris Hlias*,61,118.15,,170,180,-190,127.5,-132.5,132.5,190,200,205,517.5,,,,,,
-,Tragoustis Taxiarxis*,72,110.8,Atlas Xanion,205,210,215,120,-125,,-250,-250,-250,0,,,,,,
,66 Open,,,,,,,,,,,,,,,,,,,
1,Ntaountakis Euaggelos*,22,64.25,Atlas Xanion,130,137.5,145,-100,100,105,190,200,-210,450,,,,,,
2,Panagiotakopoulos Theodoros*,19,66,Atlantas Agias Barbaras,127.5,132.5,150,-90,100,-105,170,185,200,450,,,,,,
3,Zamprakos Spyros*,15,65,Pigasos Triandrias,120,130,-140,90,100,105,170,180,-190,415,,,,,,
4,Kousanas Hlias*,9,63.75,Xalkida D.T.,120,130,132.5,90,100,-105,150,160,-170,392.5,,,,,,
,74 Open,,,,,,,,,,,,,,,,,,,
1,Tzegiannakis Xaralampos*,33,73.05,Atlas Xanion,-165,170,175,117.5,122.5,-,190,-195,,487.5,,,,,,
2,Pelekanou Xristos*,32,73,Atlas Xanion,-130,130,135,110,-117.5,-120,190,205,215,460,,,,,,
3,Agiol Ioannis*,18,74,Pigasos Triandrias,120,135,145,80,90,-100,170,180,190,425,,,,,,
4,Ploumis Euthimios*,23,74,Metcon 039,115,120,125,85,90,-95,180,-190,-202.5,395,,,,,,
5,Blontakis Kyriakos*,34,71.6,Atlas Xanion,115,120,-125,-95,95,-102.5,150,160,170,385,,,,,,
-,Kasianov Nikitas*,30,73.6,Powerlifting Club Patras,-,-,-,125,130,135,190,200,210,0,,,,,,
,83 Open,,,,,,,,,,,,,,,,,,,
1,Sakarikas Alexandros*,24,82.1,Powerlifting Club Patras,-210,222.5,-235,140,-150,-150,240,260,272.5,635,,,,,,
2,Papaioannou Basileios*,37,82.05,Xalkida D.T.,200,-210,-220,125,135,-140,220,230,240,575,,,,,,
3,Milionis Dimosthenis*,28,82.9,Faktori Artas,190,210,-215,115,125,130,200,212.5,225,565,,,,,,
4,Xristoulas Ioannis*,26,81.2,,175,180,-185,105,110,-112.5,200,210,-220,500,,,,,,
5,Kaxilelis Panagiotis*,38,81.55,Xalkida D.T.,-,,,140,145,-150,,,,145,,,,,,
-,Papazoglou Basilis*,42,82.3,Pigasos Triandrias,-160,-,,-120,-,-,-190,,,0,,,,,,
,93 Open,,,,,,,,,,,,,,,,,,,
1,Barberis Emmanouil*,66,91.9,Powerlifting Club Patras,260,275,-280,140,150,,300,320,-330,745,,,,,,
2,Mpekaouri Mpeka*,49,92.5,Makedonia 93,230,240,247.5,125,132.5,140,230,240,245,632.5,,,,,,
3,Tsoutsas Georgios*,54,89.8,Yperion Attikis,230,-240,-247.5,130,142.5,-155,230,247.5,-260,620,,,,,,
4,Pavlou Marios*,43,93,Xalkida D.T.,160,170,180,140,150,155,205,215,-10,550,,,,,,
5,Naltsoglou Athanasios*,48,91.1,Atlas Xanion,180,-190,190,120,127.5,132.5,190,200,212.5,535,,,,,,
6,Thanasis Ioannis*,55,92.2,Powerlifting Club Patras,150,157.5,165,105,110,-115,160,167.5,175,450,,,,,,
7,Stamatopoulos Athanasios*,51,87.8,Powerlifting Club Patras,122.5,-130,-130,-75,77.5,-82.5,160,172.5,180,380,,,,,,
8,Perentis Panagiotis*,70,86.05,,-,,,-,,,300,322.5,-335,322.5,,,,,,
-,Karteropoulos Stathis*,57,92.9,Pigasos Triandrias,195,205,210,-165,-175,-175,225,235,245,0,,,,,,
,105 Open,,,,,,,,,,,,,,,,,,,
1,Ntagkounakis Ioannis*,60,104.25,Atlas Xanion,300,310,320,200,210,-217.5,300,320,-337.5,850,,,,,,
2,Pafitis Andreas*,63,103.5,Quantum Cyprus,170,185,-192.5,105,115,122.5,200,210,220,527.5,,,,,,
3,Lekatsas Fotis*,75,103.1,Metcon 039,165,180,185,120,125,135,170,190,205,525,,,,,,
,120 Open,,,,,,,,,,,,,,,,,,,
1,Potamousis Georgios*,69,110.1,,200,210,-225,135,145,-147.5,215,225,232.5,587.5,,,,,,
2,Sakelaris Nikolaos*,67,112.45,Powerlifting Club Patras,172.5,182.5,-195,147.5,155,-160,190,210,220,557.5,,,,,,
3,Nikolaou Nikolaos*,64,110.1,Quantum Cyprus,165,175,-185,120,130,-135,180,195,-212.5,500,,,,,,
,,,,,,,,,,,,,,,,,,,,
,Triantafyllou Anastasios*,65,119.7,Yperion Toumpas,360,375,,215,222.5,,302.5,310,,907.5,,,,,,
,120+ Open,,,,,,,,,,,,,,,,,,,
1,Argyrakis Antonios*,74,135,Yperion Toumpas,285,292.5,-305,165,-170,-170,230,247.5,-252.5,705,,,,,,
,83 Masters 2,,,,,,,,,,,,,,,,,,,
1,Lazaris konstantinos*,39,79,Powerlifting Club Patras,180,195,205,125,135,140,210,227.5,-232.5,572.5,,,,,,
,120 Open Equipped,,,,,,,,,,,,,,,,,,,
1,Xanas Eleutherios,68,109.45,,200,215,230,-100,102.5,,195,210,,542.5,,,,,,
,,,,,,,,-,,,,,,,,,,,,
*,Ο ΤΡΙΑΝΤΑΦΥΛΛΟΥ ΔΕΝ ΗΘΕΛΕ ΜΕΤΑΛΛΙΟ ΕΠΟΜΕΝΩΣ ΟΛΟΙ ΠΗΓΑΝ ΜΙΑ ΘΕΣΗ ΠΡΟΣ ΤΑ ΕΠΑΝΩ.,,,,,,,,,,,,,,,,,,,
,,,,,,,,,,,,,,,,,,,,
,,,,,,,,,,,,,,,,,,,,
Sheet 13: Κύπελλο Πάτρας 2019,,,,,,,,,,,,,,,,,,,,
,,,,,,,,,,,,,,,,,,,,
B,Lot#,Name,Division,BWT,Cls (kg),SQ-1,SQ-2,SQ-3,BP-1,BP-2,BP-3,SUB,DL-1,DL-2,DL-3,Total,,,,
A,11,Μαριάννα Οικονόμου,Sub Jun,53.7,57,,,,,,,,75,85,90,0,,,,
A,1,Μπαλούρη Μάρθα,Junior,94,84+,-65,65,-70,-35,37.5,42.5,107.5,85,100,115,222.5,,,,
A,3,Αναστασία Ανδρικοπούλου,Junior,62.1,63,75,-82.5,-90,-47.5,47.5,50,125,95,102.5,-110,227.5,,,,
A,4,ΛΕΝΙΑ ΛΟΙΖΟΥ,Junior,72,72,80,90,95,50,-55,-55,145,100,115,130,275,,,,
A,5,Αρχοντίδου Ειρήνη,Junior,51.9,52,85,95,100,35,40,-42.5,140,100,105,-107.5,245,,,,
A,2,ΦΙΣΤΙ ΑΝΙΕΖΑ,Open,56.7,57,70,-80,80,45,50,-52.5,130,110,120,130,260,,,,
A,8,Φαραντουρη ελενη,Junior,71.9,72,-95,100,107.5,50,55,-57.5,162.5,110,120,-125,282.5,,,,
A,10,ΤΣΑΚΑΓΙΑΝΝΗ ΕΙΡΗΝΗ,Open,77.3,84,-120,-120,-120,60,65,-70,0,110,120,130,0,,,,
A,6,ΠΑΠΑ ΘΕΟΔΩΡΑ,Master,59.8,63,-92.5,92.5,95,60,-62.5,-62.5,155,115,120,125,280,,,,
A,7,ΓΟΥΤΣΙΑ ΜΑΡΙΑ,Open,59.2,63,95,100,-102.5,52.5,-55,55,155,115,120,122.5,277.5,,,,
A,9,ΚΑΤΕΡΙΝΑ ΑΝΑΣΤΑΣΟΠΟΥΛΟΥ,Junior,62.3,63,100,-105,105,-50,50,-55,155,-120,-125,125,280,,,,
B,Lot#,Name,Division,BWT,Cls (kg),SQ-1,SQ-2,SQ-3,BP-1,BP-2,BP-3,SUB,DL-1,DL-2,DL-3,Total,,,,
B,1,Βασίλης Χαντζάρας,Sub Jun,71.6,74,50,60,70,62.5,67.5,-72.5,137.5,90,100,110,247.5,,,,
B,4,Λάμπρος Πλούμης,Sub Jun,71.3,74,-100,100,110,55,60,-67.5,170,110,120,125,295,,,,
B,5,Γιώργος Χάσκαρης,Open,73.1,74,105,-110,110,80,85,-87.5,195,130,135,-137.5,330,,,,
B,3,Αλέξανδρος Τσούτσης,Sub Jun,58.1,59,100,105,110,-65,70,-75,180,130,-140,-140,310,,,,
B,2,Ιωάννης Λιαπης,Sub Jun,73.5,74,95,105,112.5,62.5,-70,-70,175,120,130,142.5,317.5,,,,
B,6,ΤΣΑΠΑΡΑΣ ΓΙΩΡΓΟΣ,Junior,68,74,120,125,-130,-80,80,-87.5,205,140,150,-155,355,,,,
B,8,Σωτήρης Γασπαρινατος,Open,73.5,74,145,-155,157.5,90,95,-97.5,252.5,167.5,180,190,442.5,,,,
B,9,ΑΜΠΑΤΖΗΣ ΣΤΑΥΡΟΣ,Open,71,74,147.5,155,160,97.5,100,102.5,262.5,175,185,190,452.5,,,,
B,7,ΣΠΥΡΟΣ ΖΑΜΠΡΑΚΟΣ,Open,65.1,66,130,140,-145,-100,-100,102.5,242.5,190,200,-210,442.5,,,,
B,9,ΚΟΛΟΦΩΤΙΑΣ ΓΕΩΡΓΙΟΣ,Open,73.8,74,,,,117.5,125,-130,0,,,,,,,,
D,Lot#,Name,Division,BWT,Cls (kg),SQ-1,SQ-2,SQ-3,BP-1,BP-2,BP-3,SUB,DL-1,DL-2,DL-3,Total,,,,
C,6,ΘΕΟΔΩΡΟΠΟΥΛΟΣ ΑΝΔΡΕΑΣ,Open,81.1,83,150,162.5,170,115,-125,130,300,185,200,-210,500,,,,
C,5,Σπύρος Μενεγατος,Junior,82.1,83,160,170,-175,120,-127.5,-127.5,290,190,-200,,480,,,,
C,8,ΛΑΖΑΡΗΣ ΚΩΝΣΤΑΝΤΙΝΟΣ,Master,80,83,180,195,202.5,125,135,-140,337.5,205,225,-232.5,562.5,,,,
C,2,Αλεξανδρος Μπακουρος,Open,83,83,140,145,,100,-110,-110,245,210,220,230,475,,,,
C,11,Μανώλης Γολσουζίδης,Open,82.8,83,240,255,267.5,130,142.5,150,417.5,215,-235,-235,632.5,,,,
C,7,Μαυραγάνης Νίκος,Open,102,105,170,180,192.5,112.5,-120,125,317.5,220,232.5,242.5,560,,,,
C,9,Πέτρος Νταντινης,Junior,96.4,105,185,195,205,127.5,135,-140,340,230,250,265,605,,,,
C,10,Ηλίας Μπαμπάτσικος,Junior,100.5,105,-210,210,225,130,140,150,375,230,240,250,625,,,,
C,3,Ευστράτιος Πολύζος,Junior,82.2,83,145,157.5,165,135,140,-145,305,245,-255,-255,550,,,,
C,4,ΛΙΑΠΗΣ ΑΛΕΞΑΝΔΡΟΣ,Open,82.1,83,145,155,-162.5,105,110,115,270,160,172.5,-182.5,442.5,,,,
D,1,Θανάσης Ιωάννης,Open,92.8,93,142.5,-150,150,95,-100,,245,150,160,165,410,,,,
D,2,ΕΥΑΓΓΕΛΟΣ ΚΑΛΟΓΙΑΝΝΗΣ,Junior,88.7,93,145,155,,85,100,-110,255,155,170,182.5,437.5,,,,
D,3,ΘΕΟΔΩΡΟΣ ΣΑΛΙΜΚΑΣ,Master,154,120+,-155,155,162.5,125,130,135,297.5,185,202.5,205,502.5,,,,
D,4,Νικολαος Σακελλαρης,Open,117,120,167.5,177.5,-185,135,145,-150,322.5,192.5,205,210,532.5,,,,
D,8,ΚΟΝΤΑΞΗΣ ΑΛΕΞΗΣ,Open,91.2,93,190,-200,-200,120,125,130,320,180,200,-210,520,,,,
D,7,Αθανάσιος Μαγγιώρος,Junior,90.5,93,-190,190,205,107.5,-115,117.5,322.5,190,202.5,212.5,535,,,,
D,6,Κωνσταντίνος Μπαρούνης,Junior,91,93,190,-202.5,202.5,115,120,125,327.5,200,215,227.5,555,,,,
D,5,ΚΥΡΙΑΚΙΔΗΣ ΓΕΩΡΓΙΟΣ,Open,92.1,93,170,180,-185,-140,-140,-140,0,220,230,-237.5,0,,,,
D,10,Ακης Αργυρακης,Open,140,120+,270,290,302.5,160,-170,-170,462.5,240,-250,260,722.5,,,,
D,11,Αναστάσιος τριαντάφυλλου,Open,119.95,120,350,375,-390,200,210,,585,270,-300,,855,,,,
D,9,Μάνος Βαρβέρης,Open,93,93,240,-250,255,140,152.5,160,415,-280,302.5,317.5,732.5,,,,
,,,,,,,,,,,,,,,,,,,,
,,,,,,,,,,,,,,,,,,,,
,,,,,,,,,,,,,,,,,,,,
Sheet 14: 1ο Ποντιακό Κύπελλο,,,,,,,,,,,,,,,,,,,,
,,,,,,,,,,,,,,,,,,,,
A,Lot#,Name,Division,BWT,Cls (kg),SQ-1,SQ-2,SQ-3,BP-1,BP-2,BP-3,SUB,DL-1,DL-2,DL-3,Total,,,,
A,6,Θεοφανεία Πασσαλή,sub jun,102,72+,-30,30,35,-15,-15,15,50,50,-65,80,130,,,,
A,4,Ειρήνη Κουμαρίνου,junior,55,57,40,-50,-60,20,0,0,60,60,70,-80,130,,,,
A,1,Ρακανίδη Αικατερίνη,open,58,63,-80,-90,90,30,-35,35,125,70,80,90,215,,,,
A,23,Καλπογιαννάκη Σοφία,Open,56.3,57,60,65,-70,35,42.5,-45,107.5,70,80,-85,187.5,,,,
A,,Μίχα Δήμητρα,Open,56,57,50,-55,60,30,-40,-50,90,80,90,-95,180,,,,
A,2,Θάλεια Τσεβρεντζή,junior,52,52,85,90,-95,50,55,-57.5,145,90,95,-100,240,,,,
A,5,Εσθήρ Ιακώβ,open,62,63,-100,100,105,47.5,-52.5,52.5,157.5,105,115,122.5,280,,,,
A,8,Σαλπιγγίδου Άννα,sub jun,88,72+,110,115,120,30,40,-45,160,105,115,-120,275,,,,
A,,Μπεντέλη Κωνσταντίνα,Open,59,63,120,140,150,-60,60,-70,210,110,120,0,330,,,,
A,22,Τερζή Χριστίνα,open,69.7,72,105,110,-115,50,55,-60,165,115,120,125,290,,,,
A,3,Σκουμπουρδή Λένα,open,59,63,-60,-60,-60,,,,,,,,,,,,
B,11,Παντελής Φιλίππου,sub jun,51.7,66,45,50,-65,20,0,0,70,60,75,80,150,,,,
B,12,ΤΣΙΤΛΑΚΙΔΗΣ ΔΗΜΗΤΡΗΣ,sub jun,58.7,66,-110,110,115,30,32.5,40,155,102.5,107.5,-112.5,262.5,,,,
B,14,Νίκος Κουτρουλιάς,sub jun,64.8,66,102.5,107.5,112.5,-65,72.5,-75,185,120,130,140,325,,,,
B,13,ΤΙΡΕΚΙΔΗΣ ΓΙΩΡΓΟΣ,sub jun,61.4,66,120,0,0,-30,30,50,170,130,142.5,150,320,,,,
B,15,Ιάκωβος Κιρετζιάν,sub jun,69,74,125,135,-145,55,65,-70,200,135,145,155,355,,,,
B,20,ΣΟΦΙΑΝΙΔΗΣ ΧΡΗΣΤΟΣ,sub jun,74,74,145,,,,,,,130,-150,155,0,,,,
B,9,Βελέντζας Αθανάσιος,sub jun,125,120+,110,120,-130,60,-65,-65,180,-150,150,-165,330,,,,
B,16,Mαγκουρής Bασίλειος,sub jun,79.8,83,135,145,155,-85,87.5,95,250,142.5,155,-165,405,,,,
B,17,Αλέξανδρος Μπούνταλης,sub jun,87.8,93,160,170,180,105,112.5,120,300,180,200,215,515,,,,
B,21,Ρωμανος Δραμουντανης,sub jun,117,120,187.5,205,-225,135,145,-155,350,225,242.5,250,600,,,,
D,Lot#,Name,Division,BWT,Cls (kg),SQ-1,SQ-2,SQ-3,BP-1,BP-2,BP-3,SUB,DL-1,DL-2,DL-3,Total,,,,
D,12,Νίκος Μωραϊτης,Junior,74,74,150,-160,-160,,,,,-150,-150,-150,0,,,,
D,10,Ευάγγελος Σίττας,Junior,74,74,125,132.5,-135,92.5,-97.5,-97.5,225,150,160,165,390,,,,
D,13,Νικολόπουλος Ευάγγελος,Junior,73.15,74,157.5,165,170,107.5,112.5,-115,282.5,170,175,180,462.5,,,,
D,9,Ιάκωβος Περιστερίδης,Junior,74,74,,,,,,,,170,177.5,-182.5,0,,,,
D,8,Παναγιώτης Κουτρουλιάς,Junior,71.8,74,125,135,-137.5,-90,-92.5,-92.5,0,165,170,185,0,,,,
D,17,Μιχαλόπουλος Νίκος,Open,73.85,74,170,-180,187.5,117.5,125,130,317.5,205,-220,227.5,545,,,,
D,18,ΠΑΝΑΓΙΩΤΗΣ ΚΑΧΙΛΕΛΗΣ,Open,73.75,74,-150,-160,160,135,140,-142.5,300,200,215,-220,515,,,,
D,14,Ρόντι Μπιντολάρι,Junior,,74,,,,,,0,,,,,,,,,
D,15,Παπαζαφείρης Δημοσθένης,Junior,68.6,74,120,130,-135,-90,-95,-95,0,,,,,,,,
D,16,ΤZΕΤΖΙΑΣ ΝΙΚΟΛΑΟΣ,Master,71,74,,,,60,62.5,67.5,0,,,,,,,,
F,5,ΜΑΝΩΛΗΣ ΚΟΛΟΚΟΤΡΩΝΗΣ,Junior,101,66,,,,,,,,,,,,,,,
I,19,Σπύρος Μενεγάτος,Junior,,83,,,,,,,,,,,,,,,
C,3,Νικολαος Ντερβισι,Junior,62.3,66,115,120,-125,65,70,-72.5,190,115,125,130,320,,,,
C,1,Δημήτρης Γεωργίου,Junior,62.4,66,112.5,120,125,65,72.5,-75,197.5,120,130,140,337.5,,,,
C,4,ΣΤΑΥΡΟΣ ΑΜΠΑΤΖΗΣ,Junior,65.75,66,120,125,130,85,-87.5,87.5,217.5,130,137.5,145,362.5,,,,
C,7,ΘΕΟΔΩΡΟΣ ΠΑΝΑΓΙΩΤΑΚΟΠΟΥΛΟΣ,Open,66,66,120,125,132.5,90,100,-102.5,232.5,145,152.5,160,392.5,,,,
C,2,Νικήτας Λούκας,Junior,64.7,66,135,140,-145,95,105,-110,245,150,160,-170,405,,,,
C,6,Κιόττου Σάββας,Junior,62.5,66,125,130,135,77.5,-82.5,-82.5,212.5,160,170,177.5,390,,,,
C,11,ΤΙΡΕΚΙΔΗΣ ΑΒΡΑΑΜ,Junior,66,66,150,0,,60,0,0,210,180,-190,-190,390,,,,
F,Lot#,Name,Division,BWT,Cls (kg),SQ-1,SQ-2,SQ-3,BP-1,BP-2,BP-3,SUB,DL-1,DL-2,DL-3,Total,,,,
F,16,Albion Ormeni,Open,91.5,93,110,117.5,125,85,90,-100,215,135,145,160,375,,,,
F,21,Φίλης Αλέξανδρος,Open,88.5,93,145,155,-162.5,92.5,97.5,-102.5,252.5,160,170,175,427.5,,,,
F,23,Ριζόπουλος Δημήτρης,Open,91.2,93,165,172.5,175,120,125,-130,300,185,-195,-195,485,,,,
F,18,Μαυρομιχάλης Αναστάσιος,Junior,86,93,-157.5,162.5,-175,112.5,120,-130,282.5,210,220,230,512.5,,,,
F,19,ΓΟΛΣΟΥΖΙΔΗΣ ΕΜΜΑΝΟΥΗΛ,Open,90,93,270,282.5,-292.5,130,-142.5,145,427.5,222.5,-237.5,-237.5,650,,,,
F,22,Καρώνης Άγγελος,Open,92.1,93,180,-192.5,200,130,137.5,142.5,342.5,215,227.5,237.5,580,,,,
F,17,Γιάννης Παπαγεωργιου,Junior,91,93,185,200,210,140,147.5,-152.5,357.5,220,235,242.5,600,,,,
F,15,Μαρίνος Βαγγέλης,Junior,91.8,93,-200,200,210,115,120,-125,330,230,242.5,250,580,,,,
F,20,ΝΙΚΟΣ ΚΟΥΝΗΣ,Open,92.1,93,200,-215,-220,130,140,145,345,230,247.5,-262.5,592.5,,,,
F,25,Mιχαήλ Μαμαλάκης,Open,92.6,93,232.5,242.5,-250,150,160,-165,402.5,247.5,262.5,-270,665,,,,
G,2,ΙΟΡΔΑΝΙΔΗΣ ΓΙΩΡΓΟΣ,Junior,,83,,,,,,,,,,,,,,,
G,10,ΣΤΕΦΑΝΟΣ ΤΖΟΓΑΝΗΣ,Open,,83,,,,,,,,,,,,,,,
G,24,Τάσος Δήμας,Open,,93,,,,,,,,,,,,,,,
E,,Χατζηιωαννιδης Πέτρος,Open,83,83,,,,-80,-80,-80,0,-80,0,0,0,,,,
E,,Φοίβος Καραμπέτσος,Open,77.1,83,,,,-110,-110,-110,0,100,105,110,0,,,,
E,7,Varzanidis Oleg,Master,82.1,83,130,140,150,120,130,132.5,282.5,140,150,-160,432.5,,,,
E,11,ΡΟΥΣΟΓΛΟΥ ΑΛΕΞΑΝΔΡΟΣ,Open,80.1,83,125,130,-137.5,80,85,90,220,150,160,-165,380,,,,
E,4,Σπύρος Μενεγάτος,Junior,80.9,83,135,145,150,105,-115,115,265,155,162.5,170,435,,,,
E,14,Καραγγέλης Κωνσταντίνος,Junior,83,83,135,145,-152.5,80,85,-90,230,155,165,172.5,402.5,,,,
E,8,Δημήτρης Σουμπουλης,Open,78.2,83,165,-172.5,175,-95,95,-97.5,270,170,180,190,460,,,,
E,6,ΜΟΥΖΟΥΡΑΣ ΑΝΔΡΕΑΣ,Master,83,83,190,-205,205,127.5,132.5,-135,337.5,187.5,192.5,-197.5,530,,,,
E,5,Κωνσταντίνος Λάζαρης,Master,78.2,83,170,182.5,-190,125,135,-140,317.5,200,215,222.5,540,,,,
E,9,Αλεξανδρος Σακαρικας,Open,81.25,83,200,-210,-210,130,135,-140,335,220,230,-247.5,565,,,,
E,12,Σπυρος Σταματιαδης,Open,83,83,210,220,227.5,112.5,117.5,-120,345,220,227.5,240,585,,,,
E,13,ΣΤΡΑΤΑΚΗΣ ΙΩΑΝΝΗΣ,Open,82.2,83,170,180,0,125,135,-140,315,220,-230,-235,535,,,,
E,3,Ροβέρτος Παπαναστασίου,Junior,81.7,83,175,187.5,200,135,142.5,150,350,240,255,270,620,,,,
E,1,Igor Kosovych,Junior,80.3,83,,,,125,-137.5,-142.5,0,,,,,,,,
G,Lot#,Name,Division,BWT,Cls (kg),SQ-1,SQ-2,SQ-3,BP-1,BP-2,BP-3,SUB,DL-1,DL-2,DL-3,Total,,,,
G,13,Φοινιτσης Νικολαος,Open,106,120,140,-150,-150,80,-90,-97.5,220,150,-170,170,390,,,,
G,16,Βαγγέλης Κοτσαμπασάκης,Open,11.8,120,,,,110,120,-130,0,240,250,-260,0,,,,
G,18,ΚΑΡΑΓΕΩΡΓΟΣ ΘΟΔΩΡΗΣ,Master,126.5,120+,-215,-220,220,135,-147.5,147.5,367.5,255,-270,-270,622.5,,,,
G,19,Εμμανουήλ Μάριζας,Open,153.7,120+,200,215,0,110,120,0,335,240,265,-310,600,,,,
G,15,ΘΩΜΑΣ ΑΓΓΕΛΑΚΗΣ,Open,116.3,120,270,-280,-280,200,207.5,-212.5,477.5,300,310,320,797.5,,,,
G,17,ΚΩΣΤΑΣ ΦΑΣΣΑΣ,Junior,123.5,120+,,,,130,-142.5,-142.5,0,,,,,,,,
G,,ΚΟΗΣ ΕΥΑΓΓΕΛΟΣ,Open,133,120+,,,,170,180,190,0,,,,,,,,
G,,Τριανταφύλλου Αναστάσιος,Open,115,120,,,,185,-190,-190,0,,,,,,,,
H,,Τζογάνης Στέφανος,Open,95,105,,,,65,70,-80,0,80,90,100,0,,,,
H,2,Θεόδωρος Κοτούφος,Junior,101,105,142.5,150,-155,82.5,87.5,-92.5,237.5,142.5,147.5,152.5,390,,,,
H,1,Χρήστος Νίκου,Junior,94,105,160,170,180,85,92.5,97.5,277.5,160,180,202.5,480,,,,
H,10,ΙΩΑΝΝΗΣ ΠΑΝΤΕΛΑΙΟΣ,Open,101.1,105,,,,150,155,-157.5,0,160,180,0,0,,,,
H,9,ΒΑΣΙΛΟΠΟΥΛΟΣ ΜΑΡΙΟΣ,Junior,96.1,105,,,,110,120,-135,0,180,190,205,0,,,,
H,3,Χρήστος Μωραϊτης,Master,98.8,105,-190,195,205,125,0,0,330,190,200,-210,530,,,,
H,11,ΔΙΟΝΥΣΗΣ ΑΝΑΣΤΑΣΙΟΥ,Open,100,105,-160,165,170,157.5,165,-170,335,210,-215,-220,545,,,,
H,5,ΟΡΦΑΝΙΔΗΣ ΛΑΖΑΡΟΣ,Open,105,105,210,230,-240,145,-165,-165,375,225,245,-270,620,,,,
H,7,ΜΕΛΙΑΔΗΣ ΤΑΣΟΣ,Open,102.4,105,225,-240,240,-135,-135,135,375,255,265,-270,640,,,,
H,12,Εμμανουήλ Βαρβέρης,Open,100.5,105,270,-285,-285,175,182.5,-190,452.5,280,300,-305,752.5,,,,
H,6,ΣΠΑΝΟΣ ΝΙΚΟΣ,Open,95.35,105,,,,150,155,160,0,-305,320,330,0,,,,
H,4,Οδησσέας Δήμας,Master,105,105,210,220,0,,,,,,,,,,,,
,,,,,,,,,,,,,,,,,,,,
,,,,,,,,,,,,,,,,,,,,
,,,,,,,,,,,,,,,,,,,,
Sheet 15: 3ο Ποντιακό Κύπελλο,,,,,,,,,,,,,,,,,,,,
,,,,,,,,,,,,,,,,,,,,
,Women,Weight,Team,SQ,,,BP,,,DL,,,Total,,,,,,,
,47 Sub-Junior,,,,,,,,,,,,,,,,,,,
1,Axment Amira,46.9,Yperion Almopias,45,-47.5,47.5,32.5,35,-37.5,55,60,65,147.5,1,,,,,,
,52 Sub-Junior,,,,,,,,,,,,,,,,,,,
1,Axment Ntaiana,51.2,Yperion Almopias,-55,55,57.5,35,37.5,-40,50,55,60,155,1,,,,,,
,72 Sub-Junior,,,,,,,,,,,,,,,,,,,
1,Marketaki Biktoria,71.5,Atlas Xanion,110,120,137.5,60,67.5,72.5,120,132.5,-140,342.5,1,,,,,,
,63 Junior,,,,,,,,,,,,,,,,,,,
1,Kotsyfi Antiopi,61.2,Atlas Xanion,90,100,-110,40,50,52.5,100,107.5,110,262.5,1,,,,,,
,63 Open,,,,,,,,,,,,,,,,,,,
1,Polybiou Maria,62.7,Kronos Serron,115,120,125,65,-70,70,-110,115,122.5,317.5,1,,,,,,
,72 Open,,,,,,,,,,,,,,,,,,,
1,Sfyraki Lydia,69.5,Yperion Toumpas,95,105,115,50,60,-70,125,140,147.5,322.5,1,,,,,,
,84 Open,,,,,,,,,,,,,,,,,,,
1,Ananiadou Eytyxia,82.5,Yperion Attikis,180,-190,,90,95,97.5,180,190,200,477.5,1,,,,,,
,Men,,,,,,,,,,,,,,,,,,,
,74 Sub-Junior,,,,,,,,,,,,,,,,,,,
1,Liapis Ieronymos,73,A.O.Kapetan Liapis,110,117.5,120,60,65,67.5,125,135,145,332.5,1,,,,,,
,83 Sub-Junior,,,,,,,,,,,,,,,,,,,
1,Xatzimeletioy Mixalis,83,,-190,190,197.5,140,-145,145,220,230,237.5,580,1,,,,,,
,83 Junior,,,,,,,,,,,,,,,,,,,
1,Drivas Xaralampos,82.3,,-160,160,-170,-95,-100,100,-205,215,-225,475,1,,,,,,
2,Mpairaktaris Petros,82.9,A.O.Kapetan Liapis,150,-157.5,-165,95,105,-112.5,190,200,-207.5,455,2,,,,,,
,93 Junior,,,,,,,,,,,,,,,,,,,
1,Karagkiozis Konstantinos,88.9,Megas Alexandros Serron,180,190,195,135,140,-142.5,260,265,-270,600,1,,,,,,
2,Fylaktakis Lykourgos,87.5,Kronos Serron,190,200,-205,140,145,147.5,240,250,-255,597.5,2,,,,,,
3,Mparounis Konstantinos,90.7,D.T.Patras,200,-207.5,207.5,-130,132.5,135,210,220,230,572.5,3,,,,,,
4,Ieronymidis Georgios,88.4,,175,182.5,192.5,122.5,130,-135,230,245,-252.5,567.5,4,,,,,,
5,Kymionis Manousos,91,Atlas Xanion,170,-180,-180,90,100,-105,220,-230,-230,490,5,,,,,,
6,Xoriatis Georgios,89.4,,-160,-170,175,-100,-107.5,110,190,200,-210,485,6,,,,,,
7,Pantelakis Pavlos,88.2,,,,,140,150,-157.5,,,,150,7,,,,,,
,105 Junior,,,,,,,,,,,,,,,,,,,
1,Arvanitidis Ioannis,104.3,Kronos Serron,110,120,135,90,102.5,-107.5,150,170,-180,407.5,2,,,,,,
-,Mpampatsikos Hlias,104,,220,235,250,-140,-150,-150,250,260,270,0,1,,,,,,
,120 Junior,,,,,,,,,,,,,,,,,,,
1,Papageorgiou Ioannis,115.9,,225,-245,250,165,175,182.5,280,300,310,742.5,1,,,,,,
2,Potamousis Georgios,109.8,,185,192.5,200,135,142.5,-147.5,-210,217.5,225,567.5,2,,,,,,
-,Xanas Eleutherios,109.8,,-230,-230,-230,102.5,-112.5,,195,205,-212.5,0,3,,,,,,
,66 Open,,,,,,,,,,,,,,,,,,,
1,Kousanas Hlias,64,Xalkida D.T.,100,110,120,90,100,-105,-140,150,160,380,1,,,,,,
,74 Open,,,,,,,,,,,,,,,,,,,
1,Kroystalakis Dimitrios,73.8,A.O.Kapetan Liapis,185,200,205,105,112.5,117.5,190,200,-212.5,522.5,1,,,,,,
2,Ampatzis Stavros,71.5,Atlantas Agias Barbaras,157.5,162.5,165,100,105,107.5,185,192.5,-195,465,2,,,,,,
,83 Open,,,,,,,,,,,,,,,,,,,
1,Papaioannou Basileios,81.8,Xalkida D.T.,200,210,215,120,130,-135,220,230,-235,575,1,,,,,,
2,Kerasidis Xenokratis,80.7,,170,185,200,110,115,120,220,240,250,570,2,,,,,,
3,Triantafyllos Georgios,81.2,Arta CF Factory,140,-150,-150,80,-95,-95,205,-210,-220,425,3,,,,,,
,93 Open,,,,,,,,,,,,,,,,,,,
1,Barberis Emmanouil,91.5,D.T.Patras,255,265,270,170,175,180,295,-310,310,760,1,,,,,,
2,Tsoutsas Georgios,90.9,Yperion Attikis,180,205,-220,110,125,135,180,200,220,560,2,,,,,,
3,Davris Dimitrios,91.5,A.O.Kapetan Liapis,,,,115,122.5,130,220,230,237.5,367.5,3,,,,,,
,105 Open,,,,,,,,,,,,,,,,,,,
1,Mauraganis Nikolaos,103.2,A.O.Kapetan Liapis,200,210,215,125,130,137.5,240,255,-262.5,607.5,1,,,,,,
2,Fykas Spyridon,103.3,,,,,132.5,-140,-140,190,200,205,337.5,2,,,,,,
3,Xristopoulos Nikolaos,97.6,A.O.Kapetan Liapis,,,,132.5,137.5,-142.5,,,,137.5,3,,,,,,
,120 Open,,,,,,,,,,,,,,,,,,,
1,Triantafyllou Anastasios,120,Yperion Toumpas,320,340,342.5,215,222.5,227.5,270,290,,857.5,1,,,,,,
,120+ Open,,,,,,,,,,,,,,,,,,,
1,Davris Euaggelos,141.7,A.O.Kapetan Liapis,210,220,-230,160,-170,-170,250,262.5,-270,642.5,1,,,,,,
-,Argyrakis Antonios,143.6,Yperion Toumpas,-285,-295,-295,155,165,172.5,-240,-240,-265,0,2,,,,,,
,83 Masters 2,,,,,,,,,,,,,,,,,,,
1,Lazaris konstantinos,77.9,Pigasos Triandrias,175,185,190,125,135,-140,200,220,230,555,1,,,,,,
,,,,,,,,,,,,,,,,,,,,
,,,,,,,,,,,,,,,,,,,,
Sheet 16: 1ο Παγκρήτιο Χανιά 2019,,,,,,,,,,,,,,,,,,,,
,,,,,,,,,,,,,,,,,,,,
,Women,Lot,Weight,Team,SQ,,,BP,,,DL,,,Total,,,,,,
,72 Sub-Junior,,,,,,,,,,,,,,,,,,,
1,Marketaki Biktoria*,7,70.5,Atlas Xanion,125,132.5,-140,60,67.5,-75,130,-137.5,-137.5,330,1,,,,,
,63 Junior,,,,,,,,,,,,,,,,,,,
1,Kotsifi Antiopi*,4,61.7,Atlas Xanion,95,-102.5,-105,47.5,52.5,-55,100,110,115,262.5,1,,,,,
,57 Open,,,,,,,,,,,,,,,,,,,
1,Lagoubardou Athina*,6,55.9,Atlas Xanion,80,90,-100,50,55,-60,90,95,100,245,1,,,,,
,63 Open,,,,,,,,,,,,,,,,,,,
1,Geronti Georgia*,5,59.4,Pigasos Triandrias,95,110,115,50,57.5,-62.5,110,130,135,307.5,1,,,,,
,Men,,,,,,,,,,,,,,,,,,,
,74 Junior,,,,,,,,,,,,,,,,,,,
1,Rodinos Petros*,15,70.4,Atlas Xanion,110,125,135,80,90,97.5,110,125,140,372.5,1,,,,,
-,Panagkasiadis Kostas*,13,71.7,Atlas Xanion,100,110,115,-80,-82.5,-82.5,125,140,-155,0,2,,,,,
,93 Junior,,,,,,,,,,,,,,,,,,,
1,Karagkiozis Kostas*,28,92.7,Megas Alexandros,195,205,210,137.5,145,-147.5,265,275,280,635,1,,,,,
2,Laggis Dimitrios*,31,87,Atlas Xanion,160,170,180,120,130,140,200,220,225,545,2,,,,,
3,Kymionis Manousos*,26,92.4,Atlas Xanion,170,177.5,182.5,90,100,-105,-210,225,-232.5,507.5,3,,,,,
4,Apostolou Dimosthenis*,33,91.7,Atlas Xanion,160,-167.5,170,105,-112.5,-115,160,170,182.5,457.5,4,,,,,
5,Koutroumpas Ioannis*,24,89,Dionisos,140,150,160,100,-110,-110,140,160,180,440,5,,,,,
6,Raikidis Nikolaos*,27,86,Atlas Xanion,120,130,137.5,90,97.5,-100,155,165,172.5,407.5,6,,,,,
,120 Junior,,,,,,,,,,,,,,,,,,,
1,Tragoustis Taxiarxis*,44,109.5,Yperion Attikis,200,205,207.5,115,120,122.5,250,-260,-260,580,1,,,,,
,66 Open,,,,,,,,,,,,,,,,,,,
1,Ntaountakis Eyaggelos*,16,62.5,Atlas Xanion,120,130,-140,90,100,-105,180,190,-200,420,1,,,,,
,74 Open,,,,,,,,,,,,,,,,,,,
1,Tzegiannakis Xaralampos*,14,72.4,Atlas Xanion,160,170,-180,122.5,125,-130,180,195,-205,490,1,,,,,
2,Tsompanis Petros*,18,73.9,Atlas Xanion,-155,155,-175,105,110,-115,200,-210,-210,465,2,,,,,
3,Pelekanou Xristos*,20,73.1,Atlas Xanion,-125,125,130,107.5,-112.5,-117.5,170,185,200,437.5,3,,,,,
4,Blontakis Kyriakos*,19,70.8,Atlas Xanion,110,115,120,90,95,100,155,-165,-165,375,4,,,,,
,83 Open,,,,,,,,,,,,,,,,,,,
1,Kroustalakis Dimitrios*,11,74.7,A.S.Kapetan Liapis,185,195,-207.5,105,112.5,-120,185,200,210,517.5,1,,,,,
2,Triantafyllou Minas*,17,77.15,Yperion Toumpas,180,-190,-190,85,100,105,180,195,202.5,487.5,2,,,,,
3,Alivrouvas Ioannis*,0,77.4,,-150,150,-170,-100,105,110,180,182.5,-200,442.5,3,,,,,
,93 Open,,,,,,,,,,,,,,,,,,,
1,Mpoutzoukakis Nikos*,35,86,Atlas Xanion,160,175,187.5,-130,135,142.5,200,215,222.5,552.5,1,,,,,
2,Naltsoglou Athanasios*,32,90.5,Atlas Xanion,170,-185,185,110,122.5,-130,180,200,210,517.5,2,,,,,
3,Kymionis Georgios*,25,89,Atlas Xanion,165,-175,180,120,125,-130,190,202.5,210,515,3,,,,,
4,Xatziioannou Georgios*,29,85.5,Westside Box,200,-202.5,202.5,80,85,,200,210,220,507.5,4,,,,,
5,Mpelesis Ioannis*,30,83.7,Westside Box,140,-150,160,115,125,130,185,200,210,500,5,,,,,
,105 Open,,,,,,,,,,,,,,,,,,,
1,Ntakounakis Ioannis*,46,104.2,Atlas Xanion,310,325,-327.5,210,-217.5,,310,-325,325,860,1,,,,,
2,Pateromixelakis Spyros*,41,101,Body fit Kissamou,160,-170,-170,-170,180,-190,180,200,-215,540,2,,,,,
3,Papaxristos Xristos*,43,104.9,Atlas Xanion,-120,127.5,135,110,-117.5,-117.5,160,170,180,425,3,,,,,
,120 Open,,,,,,,,,,,,,,,,,,,
1,Triantafyllou Anastasios*,45,116,Yperion Toumpas,360,-370,-370,215,-222.5,-222.5,310,-320,-325,885,1,,,,,
2,Mauredakis Kostas*,39,109.5,Atlas Xanion,205,212.5,-220,-120,125,127.5,250,-260,,590,2,,,,,
,120+ Open,,,,,,,,,,,,,,,,,,,
1,Argyrakis Antonios*,40,140,Yperion Toumpas,275,290,300,160,170,-175,225,240,252.5,722.5,1,,,,,
,93 Masters 1,,,,,,,,,,,,,,,,,,,
1,Ladoukakis Xaris*,12,92,Yperion Kavalariou,120,135,140,70,82.5,87.5,150,162.5,170,397.5,1,,,,,
,105 Masters 1,,,,,,,,,,,,,,,,,,,
1,Terezakis Mixail*,42,99,Atlas Xanion,220,230,-235,140,145,150,220,230,240,620,1,,,,,
