﻿BDFPF TEAM BENCH UNEQUIPPED 2013
Isogym 1
                                   100 KG Deceuninck            Dylan          M                     Isogym              21 JR   99,4    180     185      -190     102,77
                                   75 KG Tirth                  Ram            M                     Isogym              40 M1   74,2    145     -152,5   -152,5   97,16
1                                  67,5 KG Vanhee               Emmerik    M                         Isogym              23 JR   66,3    120     125      -132,5   92,21
                                   75 KG Hallewaert             Bart           M                     Isogym              44 M1   74,5    125     130      -135     86,84
                                                                                                                                                                   378,98
                                   Gilberts Gym 1
                                   67,5 KG Van den AbbeeleTim                                        M    Gilberts Gym   25 SR   66,1    105     122,5    135      99,87
                                   90 KG Peeters                Alan                                 M    Gilberts Gym   19 T3   86,5    135     145      152,5    91,50
2                                  110 KG Gheldof               Marcel         M                     Gilberts            46 M2   104,4   140     150      160      87,17
                                   67,5 KG Abd Rabbihi          Hassan                               M    Gilberts Gym   22 JR   67,4    105     112,5    -117,5   81,77
                                                                                                                                                                   360,31
                                   Planet Fitness 1
                                   82,5 KG Sudarminto           Indra          M   Planet Fitness    22 JR               76,5    140     150     -155     98,15
                                   145 KG Backelant             Wilhelm        M    Planet fitness   50 M3               142,8   190     -200             95,06
3                                  82,5 KG Antonissens          Ronald         M    Planet Fitnes    55 M4               79,4    120     127,5   -130     81,14
                                   52 KG De Lauw                Luc            M   Plannet Fitness   48 M2               51,7    77,5    80      -82,5    76,64
                                                                                                                                                          350,98
                                   Planet Fitness 2
                                   82,5 KG Brams                Bert           M   Planet Fitness    28 SR               78,7    100     110     115      73,658
                                   100 KG Mertens               Rene           M   Planet Fitness    80 M9               99,7    105     110     120,5    66,576
4                                  75 KG Smet                   Frederik       M   Planet Fitness    23 JR               74,0    85      95      -102,5   63,783
                                   90 KG Schrickx               John           M   Planet Fitness    79 M8               83,7    80      85      -88      52,122
                                                                                                                                                          256,14
                                   Patton Team
                                   82,5 KG Sagman               David          M    Patton Team      22 JR               80,4    130     140     -145              88,30
                                   125 KG Goovaerts             Marc           M    Patton Team      56 M4               115,8   145     148     150      153      79,61
5                                  90 KG Theyssens              Martin         M    Patton Team      73 M7               84,3    85      92,5    -97,5             56,44
                                   75 KG Cebru                  Gabriel        M    Patton Team      22 JR               74,2    -110    -130    0                 0,00
                                                                                                                                                                   224,35
Nat Record                         World Record
European Record                    Best Lifter
12 - 10 - 2013 Merksem

BDFPF TEAM BENCH UNEQUIPPED 2013
Isogym 2
                                   82,5 KG Soenens                     Gillis                M                   Isogym   23 JR   80,3   -132,5   135      -140     85,21
6                                  82,5 KG Cuylle                      Angelo                M                   Isogym   20 JR   80,7   100      107,5    -112,5   67,62
                                   90 KG Verbeke                       Beny                  M                   Isogym   48 M2   86,6   110      -115     -115     65,95
                                                                                                                                                                    218,77
                                   Gilberts Gym 2
                                   82,5 KG Claus                       Geert                 M    Gilberts Gym   41 M1    81,4    100    105      -110     65,64
7                                  - 44 KG Van Casteren   Hanne                              V    Gilberts Gym   15 T1    41,6    32,5   35       37,5     43,42
                                                                                                                                                           109,06
                                   Body 2 Fit
                                   52 KG Devos                         Lorenzo               M     Body 2 Fit    16 T2    48,2    42,5   -45      45       46,87
8                                  56 KG Devos                         Gillian               M     Body 2 Fit    14 T1    55,0    50     52,5     -55      46,85
                                   75 KG Devos                         Kurt                  M     Body 2 Fit    42 M1    71,3    -100   -100     -100     0,00
                                                                                                                                                           93,72
                                   Planet Fitness 3
9                                  - 50,5 KG Van Vlasselaer  Marijke   V    Planet Fitness   25 SR               49,9     35      40     -42,5    40,064
Nat Record                         World Record
European Record                    Best Lifter
12 - 10 - 2013 Merksem
