Division,WeightClassKg,Place,Name,Team,BodyweightKg,Best3SquatKg,Best3BenchKg,Best3DeadliftKg,TotalKg,Equipment,Event,Sex,BirthDate
Boys,51.71,1,Derek Perez #1,Rio Hondo,47.54,147.42,65.77,142.88,356.07,Single-ply,SBD,M,
Boys,51.71,2,Diego Garcia #1,Rio Hondo,50.98,111.13,52.16,131.54,294.84,Single-ply,SBD,M,
Boys,55.79,1,Christian Lozano,Rio Hondo,51.8,136.08,77.11,147.42,360.61,Single-ply,SBD,M,
Boys,67.13,1,Tomas Arredondo,Rio Hondo,64.77,206.38,127.01,192.78,526.17,Single-ply,SBD,M,
Boys,67.13,2,Jose Barrientos,Rio Hondo,66.86,183.7,131.54,210.92,526.17,Single-ply,SBD,M,
Boys,67.13,3,Elek Hernandez,Rio Hondo,64.32,158.76,106.59,181.44,446.79,Single-ply,SBD,M,
Boys,67.13,4,Christian Sosa,La Feria,67.13,158.76,113.4,172.37,444.52,Single-ply,SBD,M,
Boys,67.13,5,Nicholas Morales,La Feria,66.5,156.49,127.01,156.49,439.98,Single-ply,SBD,M,
Boys,67.13,6,Leroy Benavidez,La Feria,66.68,147.42,106.59,165.56,419.57,Single-ply,SBD,M,
Boys,82.1,1,Travis Menchaca,La Feria,80.2,226.8,129.27,249.48,605.55,Single-ply,SBD,M,
Boys,82.1,2,Evan Sanchez,La Feria,80.92,210.92,138.35,226.8,576.06,Single-ply,SBD,M,
Boys,89.81,1,Manuel Flores,Rio Hondo,88.18,224.53,163.29,190.51,578.33,Single-ply,SBD,M,
Boys,89.81,2,Misael Perez,La Feria,85.55,174.63,133.81,142.88,451.32,Single-ply,SBD,M,
Boys,99.79,1,Orlando Morales,La Feria,98.25,274.42,167.83,242.67,684.92,Single-ply,SBD,M,
Boys,109.77,1,Antonio Marroquin,La Feria,107.5,276.69,183.7,242.67,703.07,Single-ply,SBD,M,
Boys,124.74,1,Matthew Lopez,Rio Hondo,124.74,324.32,208.65,274.42,807.39,Single-ply,SBD,M,
Boys,124.74,2,Ruben Perez,Rio Hondo,117.66,256.28,149.69,215.46,621.42,Single-ply,SBD,M,
Boys,139.71,1,Scott Atkinson,Rio Hondo,132.36,278.96,161.03,274.42,714.41,Single-ply,SBD,M,
Boys,139.71,2,Rudy Sanchez,La Feria,130.27,242.67,151.95,208.65,603.28,Single-ply,SBD,M,
Boys,139.71,3,Manuel Ramirez,Rio Hondo,126.28,224.53,133.81,226.8,585.13,Single-ply,SBD,M,
Boys,139.71+,1,Miguel Chavarria,Rio Hondo,154.49,240.4,149.69,213.19,603.28,Single-ply,SBD,M,
