Division,WeightClassKg,Place,Name,Team,BodyweightKg,Best3SquatKg,Best3BenchKg,Best3DeadliftKg,TotalKg,Equipment,Event,Sex,BirthDate
Boys,51.71,1,Max Williamson,Sulphur Springs,51.53,127.01,79.38,136.08,342.46,Single-ply,SBD,M,
Boys,51.71,2,Michael Klemiuk,Farmersville,49.9,131.54,58.97,127.01,317.51,Single-ply,SBD,M,
Boys,51.71,3,Alex Simpson,Daingerfield,51.26,111.13,74.84,111.13,297.1,Single-ply,SBD,M,
Boys,51.71,4,Rafe McComack,Farmersville,51.44,104.33,65.77,113.4,283.5,Single-ply,SBD,M,
Boys,51.71,5,Omar Perez,Mineola,44.63,92.99,63.5,111.13,267.62,Single-ply,SBD,M,
Boys,51.71,6,Mason Moore,Emory Rains,46.63,92.99,56.7,108.86,258.55,Single-ply,SBD,M,
Boys,51.71,7,Kelton Varner,Paris,51.53,99.79,61.23,95.25,256.28,Single-ply,SBD,M,
Boys,51.71,8,Juan Ramos,Daingerfield,51.26,90.72,52.16,111.13,254.01,Single-ply,SBD,M,
Boys,51.71,9,Brian Usrey,Bells,44.63,74.84,47.63,97.52,219.99,Single-ply,SBD,M,
Boys,51.71,10,Matt Watkins,Daingerfield,49.8,65.77,49.9,88.45,204.12,Single-ply,SBD,M,
Boys,55.79,1,Hugo Sanchez,Pattonville Prairiland,54.79,170.1,95.25,149.69,415.04,Single-ply,SBD,M,
Boys,55.79,2,Jose Martinez #1,Commerce,53.61,129.27,77.11,156.49,362.87,Single-ply,SBD,M,
Boys,55.79,3,Dillin Exum,Detroit,54.34,147.42,70.31,131.54,349.27,Single-ply,SBD,M,
Boys,55.79,4,Dreightan Patt,Honey Grove,54.61,149.69,61.23,131.54,342.46,Single-ply,SBD,M,
Boys,55.79,5,Juan Santacruz,Sulphur Springs,55.07,136.08,74.84,127.01,337.93,Single-ply,SBD,M,
Boys,55.79,6,Dalton Hamlin,Mineola,55.61,127.01,63.5,127.01,317.51,Single-ply,SBD,M,
Boys,55.79,7,Paul Torres,Paris,55.34,117.93,68.04,129.27,315.25,Single-ply,SBD,M,
Boys,59.87,1,Luke Elrod,Paris North Lamar,58.6,161.03,99.79,192.78,453.59,Single-ply,SBD,M,
Boys,59.87,2,Alejandro Mojica,South Garland,59.69,158.76,88.45,167.83,415.04,Single-ply,SBD,M,
Boys,59.87,3,Abraham Banueloz,Sulphur Springs,58.79,145.15,79.38,147.42,371.95,Single-ply,SBD,M,
Boys,59.87,4,Avery Gordon,Farmersville,59.87,124.74,83.91,147.42,356.07,Single-ply,SBD,M,
Boys,59.87,5,Ben Howell,Lone Oak,57.97,127.01,72.57,154.22,353.8,Single-ply,SBD,M,
Boys,59.87,6,Jack Miller,Grand Saline,57.06,140.61,74.84,136.08,351.53,Single-ply,SBD,M,
Boys,59.87,7,Christobal Torres,Sulphur Springs,58.79,133.81,74.84,142.88,351.53,Single-ply,SBD,M,
Boys,59.87,8,Cannon Miller,Wolfe City,58.42,136.08,77.11,120.2,333.39,Single-ply,SBD,M,
Boys,59.87,9,Kelvin Clark,Cooper,57.97,129.27,61.23,129.27,319.78,Single-ply,SBD,M,
Boys,59.87,10,Jackson Almand,Celeste,58.06,111.13,65.77,133.81,310.71,Single-ply,SBD,M,
Boys,59.87,11,Evan Patrick,Sulphur Springs,58.06,111.13,70.31,127.01,308.44,Single-ply,SBD,M,
Boys,59.87,12,Carson Herron,Wolfe City,59.6,124.74,83.91,97.52,306.17,Single-ply,SBD,M,
Boys,59.87,13,Jake Batts,Emory Rains,59.42,99.79,79.38,124.74,303.91,Single-ply,SBD,M,
Boys,59.87,14,Chandler Henslee,Celeste,59.06,102.06,68.04,124.74,294.84,Single-ply,SBD,M,
Boys,59.87,15,Graham Knight,Commerce,59.87,83.91,45.36,117.93,247.21,Single-ply,SBD,M,
Boys,59.87,DQ,Jayden Mitchell,Daingerfield,57.88,77.11,,,,Single-ply,SBD,M,
Boys,67.13,1,Juan Hernandez,Sulphur Springs,64.23,226.8,117.93,229.06,573.79,Single-ply,SBD,M,
Boys,67.13,2,Jerret Stone,Celeste,66.86,183.7,111.13,158.76,453.59,Single-ply,SBD,M,
Boys,67.13,3,Alonzo Torres,Mount Vernon,67.04,188.24,92.99,167.83,449.06,Single-ply,SBD,M,
Boys,67.13,4,Bryan Tamayo,Dallas A+,65.14,161.03,92.99,183.7,437.72,Single-ply,SBD,M,
Boys,67.13,5,Trent Edralin,Grand Saline,67.04,158.76,99.79,165.56,424.11,Single-ply,SBD,M,
Boys,67.13,6,Chris Alejo,Mineola,66.41,145.15,95.25,165.56,405.97,Single-ply,SBD,M,
Boys,67.13,7,Camden Smith,Caddo Mills,66.68,161.03,92.99,151.95,405.97,Single-ply,SBD,M,
Boys,67.13,8,Lance Miller,Clarksville,66.22,131.54,68.04,181.44,381.02,Single-ply,SBD,M,
Boys,67.13,9,Jason Mullins,Detroit,61.96,136.08,95.25,129.27,360.61,Single-ply,SBD,M,
Boys,67.13,10,Morgan Cruces,Lone Oak,66.32,138.35,77.11,142.88,358.34,Single-ply,SBD,M,
Boys,67.13,11,Jack Weger,Honey Grove,67.04,149.69,70.31,127.01,347,Single-ply,SBD,M,
Boys,67.13,12,Jesse Reeves #3,Emory Rains,62.87,104.33,61.23,149.69,315.25,Single-ply,SBD,M,
Boys,67.13,13,David Rodriguez,Dallas A+,66.04,108.86,70.31,136.08,315.25,Single-ply,SBD,M,
Boys,67.13,14,Drake McComb,Pattonville Prairiland,62.32,117.93,68.04,117.93,303.91,Single-ply,SBD,M,
Boys,67.13,DQ,Cameron Widner,Paris North Lamar,66.86,,,,,Single-ply,SBD,M,
Boys,67.13,DQ,Victor Hernandez,Wolfe City,66.77,124.74,79.38,,,Single-ply,SBD,M,
Boys,67.13,DQ,Cloedus Scales,Detroit,67.04,,,,,Single-ply,SBD,M,
Boys,67.13,DQ,Levi Harlow,Detroit,67.13,133.81,,,,Single-ply,SBD,M,
Boys,74.84,1,Jacob Tull,Farmersville,73.03,235.87,140.61,219.99,596.47,Single-ply,SBD,M,
Boys,74.84,2,Lane Kendrick,Bells,72.39,226.8,151.95,215.46,594.21,Single-ply,SBD,M,
Boys,74.84,3,Ethan Fort,Lone Oak,70.67,226.8,113.4,204.12,544.31,Single-ply,SBD,M,
Boys,74.84,4,Kaden Orr,Mount Vernon,74.84,199.58,138.35,174.63,512.56,Single-ply,SBD,M,
Boys,74.84,5,Kenneth Posey,Paris North Lamar,74.57,183.7,108.86,183.7,476.27,Single-ply,SBD,M,
Boys,74.84,6,Blaine Farmer,Detroit,71.3,174.63,90.72,204.12,469.47,Single-ply,SBD,M,
Boys,74.84,7,Anthony Perez,Lone Oak,73.57,183.7,104.33,181.44,469.47,Single-ply,SBD,M,
Boys,74.84,8,Brayden McCormack,Paris North Lamar,70.49,174.63,97.52,170.1,442.25,Single-ply,SBD,M,
Boys,74.84,9,Braylon Peckham,Mineola,74.84,156.49,102.06,165.56,424.11,Single-ply,SBD,M,
Boys,74.84,10,Jarrett Tisdale,Wolfe City,72.67,156.49,104.33,138.35,399.16,Single-ply,SBD,M,
Boys,74.84,11,Deon Morris,Honey Grove,72.39,142.88,74.84,174.63,392.36,Single-ply,SBD,M,
Boys,74.84,12,Jose Villafranco,Caddo Mills,72.48,165.56,83.91,142.88,392.36,Single-ply,SBD,M,
Boys,74.84,13,Lucas Blackmon,Grand Saline,72.3,142.88,86.18,151.95,381.02,Single-ply,SBD,M,
Boys,74.84,14,Tiwa Sritairat,Bells,71.76,142.88,79.38,151.95,374.21,Single-ply,SBD,M,
Boys,74.84,15,Grady Ford,Celeste,67.59,140.61,83.91,145.15,369.68,Single-ply,SBD,M,
Boys,74.84,16,Parker Wilcox,Commerce,74.48,142.88,72.57,154.22,369.68,Single-ply,SBD,M,
Boys,74.84,17,Jordan McMurray,Commerce,74.57,149.69,72.57,145.15,367.41,Single-ply,SBD,M,
Boys,74.84,18,Seth Estoll,Mineola,67.59,122.47,72.57,165.56,360.61,Single-ply,SBD,M,
Boys,74.84,19,Brayden Fronterhouse,Celeste,68.4,138.35,83.91,138.35,360.61,Single-ply,SBD,M,
Boys,74.84,20,Kendal Wolfe,Honey Grove,72.76,133.81,74.84,145.15,353.8,Single-ply,SBD,M,
Boys,74.84,21,Kyle Foster,Commerce,71.4,124.74,74.84,140.61,340.19,Single-ply,SBD,M,
Boys,74.84,22,Brady Banker,Honey Grove,74.57,127.01,65.77,142.88,335.66,Single-ply,SBD,M,
Boys,74.84,23,Collin Duval,Grand Saline,68.13,120.2,61.23,151.95,333.39,Single-ply,SBD,M,
Boys,74.84,24,Aydan Whittle,Sulphur Springs,67.49,117.93,72.57,136.08,326.59,Single-ply,SBD,M,
Boys,74.84,25,Danyel Usrey,Bells,70.03,102.06,74.84,124.74,301.64,Single-ply,SBD,M,
Boys,74.84,26,Antonio Torres,Honey Grove,74.12,108.86,61.23,131.54,301.64,Single-ply,SBD,M,
Boys,74.84,27,Eric Marmolejo,Dallas A+,74.3,70.31,47.63,113.4,231.33,Single-ply,SBD,M,
Boys,74.84,DQ,Fogelburg Jackson,Cooper,73.94,113.4,,,,Single-ply,SBD,M,
Boys,74.84,DQ,Jack Turner,Lone Oak,73.21,151.95,,,,Single-ply,SBD,M,
Boys,74.84,DQ,Andrew Huddleston,Mount Vernon,72.48,188.24,,,,Single-ply,SBD,M,
Boys,82.1,1,Matthew Mitchell,Sulphur Springs,81.83,249.48,142.88,210.92,603.28,Single-ply,SBD,M,
Boys,82.1,2,Makenzie McGill,Mount Vernon,80.56,233.6,131.54,217.72,582.87,Single-ply,SBD,M,
Boys,82.1,3,Anthony Martinez #14,Emory Rains,81.74,233.6,129.27,199.58,562.45,Single-ply,SBD,M,
Boys,82.1,4,Claude Scales,Detroit,77.02,215.46,122.47,199.58,537.51,Single-ply,SBD,M,
Boys,82.1,5,Fernando Cortes,Pattonville Prairiland,77.93,183.7,124.74,181.44,489.88,Single-ply,SBD,M,
Boys,82.1,6,Waylon Bozeman,Emory Rains,80.56,183.7,108.86,183.7,476.27,Single-ply,SBD,M,
Boys,82.1,7,Cameron Jefferson,Sulphur Springs,81.74,190.51,108.86,174.63,474,Single-ply,SBD,M,
Boys,82.1,8,Cole Gilbert,Pattonville Prairiland,81.92,181.44,111.13,181.44,474,Single-ply,SBD,M,
Boys,82.1,9,Andrew Cox,Mount Vernon,80.92,161.03,115.67,183.7,460.4,Single-ply,SBD,M,
Boys,82.1,10,Mario Farfan,Paris,77.47,163.29,108.86,170.1,442.25,Single-ply,SBD,M,
Boys,82.1,11,Elijah Turner,Paris,80.29,174.63,92.99,161.03,428.64,Single-ply,SBD,M,
Boys,82.1,12,Tucker Crutchfield,Detroit,78.47,158.76,99.79,161.03,419.57,Single-ply,SBD,M,
Boys,82.1,13,Enrique Rivera,South Garland,78.56,172.37,83.91,161.03,417.3,Single-ply,SBD,M,
Boys,82.1,14,Zach Helms,Cooper,81.74,170.1,99.79,142.88,412.77,Single-ply,SBD,M,
Boys,82.1,15,Damian Gonzales,Farmersville,78.38,142.88,92.99,167.83,403.7,Single-ply,SBD,M,
Boys,82.1,16,Cody Stevens,Paris North Lamar,75.3,142.88,90.72,142.88,376.48,Single-ply,SBD,M,
Boys,82.1,17,Levi Smith,Farmersville,75.3,133.81,79.38,158.76,371.95,Single-ply,SBD,M,
Boys,82.1,18,Ethan Dunham,Mineola,75.11,145.15,86.18,138.35,369.68,Single-ply,SBD,M,
Boys,82.1,19,Sawyer Deal,Mount Vernon,78.83,149.69,79.38,140.61,369.68,Single-ply,SBD,M,
Boys,82.1,20,Avery Rodrigues,Commerce,80.56,138.35,83.91,147.42,369.68,Single-ply,SBD,M,
Boys,82.1,21,Zaine Thompson,Cooper,78.93,142.88,92.99,124.74,360.61,Single-ply,SBD,M,
Boys,82.1,22,Carson Blalock,Pattonville Prairiland,81.47,142.88,81.65,136.08,360.61,Single-ply,SBD,M,
Boys,82.1,23,Kenneth Vega,Mount Vernon,77.2,133.81,70.31,147.42,351.53,Single-ply,SBD,M,
Boys,82.1,DQ,Reggie Ellis,Paris,81.28,190.51,,,,Single-ply,SBD,M,
Boys,82.1,DQ,Ahmad Bills,Paris,75.57,183.7,,,,Single-ply,SBD,M,
Boys,82.1,DQ,Jesse Troy,Paris North Lamar,78.38,,,,,Single-ply,SBD,M,
Boys,89.81,1,Ben Hatcher,Sulphur Springs,89.09,244.94,138.35,226.8,610.08,Single-ply,SBD,M,
Boys,89.81,2,Christian Mena,Bells,88.72,240.4,142.88,224.53,607.81,Single-ply,SBD,M,
Boys,89.81,3,Jariah Moore,Paris,88.36,226.8,138.35,219.99,585.13,Single-ply,SBD,M,
Boys,89.81,4,Daquaveous Mason,Paris North Lamar,86.36,222.26,108.86,226.8,557.92,Single-ply,SBD,M,
Boys,89.81,5,Juan Ramos,Mount Vernon,84.73,199.58,129.27,197.31,526.17,Single-ply,SBD,M,
Boys,89.81,6,Juan Araujo,Dallas A+,89.27,174.63,120.2,222.26,517.1,Single-ply,SBD,M,
Boys,89.81,7,Wyatt Noack,Celeste,88.54,174.63,106.59,201.85,483.08,Single-ply,SBD,M,
Boys,89.81,8,Jd Songer,Lone Oak,82.55,208.65,86.18,181.44,476.27,Single-ply,SBD,M,
Boys,89.81,9,Tommy Trent,Mineola,85.91,183.7,99.79,188.24,471.74,Single-ply,SBD,M,
Boys,89.81,10,Jayden Shelby,Detroit,88.36,185.97,95.25,190.51,471.74,Single-ply,SBD,M,
Boys,89.81,11,Jack Nichols,Commerce,85.28,172.37,106.59,185.97,464.93,Single-ply,SBD,M,
Boys,89.81,12,Tate Quinlan,Farmersville,89.54,179.17,106.59,158.76,444.52,Single-ply,SBD,M,
Boys,89.81,13,Tristan Nichols,Celeste,87.72,167.83,102.06,163.29,433.18,Single-ply,SBD,M,
Boys,89.81,14,Remington Brown,Paris North Lamar,88,163.29,104.33,165.56,433.18,Single-ply,SBD,M,
Boys,89.81,15,Christian Hernandez,Wolfe City,89.72,161.03,115.67,156.49,433.18,Single-ply,SBD,M,
Boys,89.81,16,Paul Stanley,Mineola,83.73,149.69,111.13,165.56,426.38,Single-ply,SBD,M,
Boys,89.81,17,Matthew Roland,Paris,88.72,158.76,113.4,151.95,424.11,Single-ply,SBD,M,
Boys,89.81,18,Triston Wilson,Lone Oak,85.82,156.49,95.25,154.22,405.97,Single-ply,SBD,M,
Boys,89.81,19,Alex Angel,Wolfe City,87.72,161.03,97.52,145.15,403.7,Single-ply,SBD,M,
Boys,89.81,20,Aaron Moody,Cooper,86,165.56,95.25,129.27,390.09,Single-ply,SBD,M,
Boys,89.81,21,Angel Jimenez #1,Blue Ridge,86.27,147.42,70.31,147.42,365.14,Single-ply,SBD,M,
Boys,89.81,22,Joshua Bridges,Cooper,89.09,131.54,83.91,120.2,335.66,Single-ply,SBD,M,
Boys,89.81,23,Diego Mendoza,Dallas A+,83.1,83.91,56.7,102.06,242.67,Single-ply,SBD,M,
Boys,89.81,DQ,Aiden Slemmons,Lone Oak,82.55,142.88,,,,Single-ply,SBD,M,
Boys,89.81,DQ,Kris Miranda,Pattonville Prairiland,89.54,195.04,,,,Single-ply,SBD,M,
Boys,99.79,1,Hayden Thomas,Pattonville Prairiland,96.62,263.08,165.56,260.82,689.46,Single-ply,SBD,M,
Boys,99.79,2,Henry Serrano,Commerce,92.53,226.8,136.08,217.72,580.6,Single-ply,SBD,M,
Boys,99.79,3,Diego Capetillo,Farmersville,92.62,233.6,120.2,226.8,580.6,Single-ply,SBD,M,
Boys,99.79,4,Ryan Rodriguez,Blue Ridge,92.53,217.72,142.88,199.58,560.19,Single-ply,SBD,M,
Boys,99.79,5,Landon Bailey,Pattonville Prairiland,97.52,204.12,136.08,199.58,539.77,Single-ply,SBD,M,
Boys,99.79,6,Aiden Giles,Celeste,96.8,165.56,145.15,174.63,485.34,Single-ply,SBD,M,
Boys,99.79,7,Jason Boyd,Bells,98.97,181.44,124.74,172.37,478.54,Single-ply,SBD,M,
Boys,99.79,8,Maverick Brown,Paris North Lamar,92.8,181.44,113.4,181.44,476.27,Single-ply,SBD,M,
Boys,99.79,9,Aveon Pacheco,South Garland,98.07,192.78,97.52,183.7,474,Single-ply,SBD,M,
Boys,99.79,10,Shelton Burden,Bells,92.9,170.1,102.06,199.58,471.74,Single-ply,SBD,M,
Boys,99.79,11,Robert Davis,Celeste,93.98,174.63,120.2,165.56,460.4,Single-ply,SBD,M,
Boys,99.79,12,Jaden Wilson,Honey Grove,95.53,181.44,95.25,183.7,460.4,Single-ply,SBD,M,
Boys,99.79,13,Corbin Smith,Lone Oak,92.9,176.9,92.99,170.1,439.98,Single-ply,SBD,M,
Boys,99.79,14,Camden Norris,Lone Oak,98.88,165.56,83.91,142.88,392.36,Single-ply,SBD,M,
Boys,99.79,15,Brayden Reynolds,Paris North Lamar,97.16,136.08,90.72,136.08,362.87,Single-ply,SBD,M,
Boys,99.79,16,Zeke Crane,Daingerfield,93.71,136.08,74.84,142.88,353.8,Single-ply,SBD,M,
Boys,99.79,DQ,Yunior Burciaga,Wolfe City,89.99,,,,,Single-ply,SBD,M,
Boys,99.79,DQ,Johnathan Olguin,Clarksville,92.26,188.24,,,,Single-ply,SBD,M,
Boys,109.77,1,Chad Maynard,Sulphur Springs,100.43,283.5,154.22,215.46,653.17,Single-ply,SBD,M,
Boys,109.77,2,Dj Newsome,Mineola,109.77,260.82,133.81,254.01,648.64,Single-ply,SBD,M,
Boys,109.77,3,Jacob Hall,Caddo Mills,106.68,244.94,140.61,235.87,621.42,Single-ply,SBD,M,
Boys,109.77,4,Corbin Brantley,Mount Vernon,105.69,242.67,163.29,197.31,603.28,Single-ply,SBD,M,
Boys,109.77,5,Caiden Moore,Mount Vernon,100.24,222.26,161.03,208.65,591.94,Single-ply,SBD,M,
Boys,109.77,6,Max Figueroa,Wolfe City,102.6,206.38,138.35,226.8,571.53,Single-ply,SBD,M,
Boys,109.77,7,Atticus Finley,Paris North Lamar,106.59,235.87,117.93,213.19,566.99,Single-ply,SBD,M,
Boys,109.77,8,Ben Risner,Mount Vernon,105.96,208.65,142.88,192.78,544.31,Single-ply,SBD,M,
Boys,109.77,9,Bennett Hale,Caddo Mills,106.68,199.58,138.35,183.7,521.63,Single-ply,SBD,M,
Boys,109.77,10,Ezayl Tovar,Wolfe City,105.32,204.12,127.01,181.44,512.56,Single-ply,SBD,M,
Boys,109.77,11,Osbaldo Escobedo,Dallas A+,105.96,195.04,117.93,192.78,505.76,Single-ply,SBD,M,
Boys,109.77,12,Cason McBride,Lone Oak,102.24,195.04,106.59,195.04,496.68,Single-ply,SBD,M,
Boys,109.77,13,Peyton Rainbolt,Lone Oak,101.42,208.65,127.01,158.76,494.42,Single-ply,SBD,M,
Boys,109.77,14,Trevon Jones,Daingerfield,108.14,142.88,79.38,174.63,396.89,Single-ply,SBD,M,
Boys,109.77,15,Caleb Noe,Grand Saline,108.95,117.93,86.18,174.63,378.75,Single-ply,SBD,M,
Boys,109.77,16,Ryan McDermot,Cooper,101.79,151.95,81.65,142.88,376.48,Single-ply,SBD,M,
Boys,109.77,17,Alex Puentes,Wolfe City,102.33,136.08,99.79,133.81,369.68,Single-ply,SBD,M,
Boys,109.77,18,Josh Riddle,Commerce,101.79,142.88,74.84,138.35,356.07,Single-ply,SBD,M,
Boys,109.77,19,Victor Martinez,Dallas A+,103.96,122.47,70.31,158.76,351.53,Single-ply,SBD,M,
Boys,109.77,DQ,Carsen Cox,Pattonville Prairiland,107.32,240.4,127.01,,,Single-ply,SBD,M,
Boys,124.74,1,Sean Dial,Sulphur Springs,121.56,247.21,142.88,242.67,632.76,Single-ply,SBD,M,
Boys,124.74,2,Alex Salazar #2,Grand Saline,124.28,254.01,151.95,215.46,621.42,Single-ply,SBD,M,
Boys,124.74,3,Marlon Hayes,Daingerfield,110.68,208.65,156.49,206.38,571.53,Single-ply,SBD,M,
Boys,124.74,4,Malik Tatum,Daingerfield,113.67,197.31,117.93,244.94,560.19,Single-ply,SBD,M,
Boys,124.74,5,Luis Hernandez,South Garland,113.04,206.38,124.74,199.58,530.7,Single-ply,SBD,M,
Boys,124.74,6,KeAaron Jackson,Detroit,120.84,185.97,117.93,204.12,508.02,Single-ply,SBD,M,
Boys,124.74,7,Seth Riddle,Commerce,113.31,190.51,102.06,204.12,496.68,Single-ply,SBD,M,
Boys,124.74,8,Jason Rushing,Mineola,114.58,156.49,115.67,151.95,424.11,Single-ply,SBD,M,
Boys,124.74,9,Nick Wallace,Daingerfield,116.3,174.63,97.52,142.88,415.04,Single-ply,SBD,M,
Boys,124.74,10,Scott Eubanks,Emory Rains,122.38,158.76,97.52,151.95,408.23,Single-ply,SBD,M,
Boys,124.74,11,Mark Vasquez,Farmersville,120.11,158.76,88.45,158.76,405.97,Single-ply,SBD,M,
Boys,124.74,12,Cody Kilgo,Wolfe City,111.77,142.88,102.06,129.27,374.21,Single-ply,SBD,M,
Boys,124.74,13,Travis Skipworth,Bells,110.77,74.84,88.45,142.88,306.17,Single-ply,SBD,M,
Boys,124.74,DQ,Jeremiah Smith,Paris,123.29,170.1,131.54,,,Single-ply,SBD,M,
Boys,124.74,DQ,Emmanuel Capistran,Dallas A+,115.94,,,,,Single-ply,SBD,M,
Boys,139.71,1,Jy'Keelin Frazier,Daingerfield,131,204.12,145.15,210.92,560.19,Single-ply,SBD,M,
Boys,139.71,2,Jacob Bavlinka,Lone Oak,135.81,124.74,97.52,142.88,365.14,Single-ply,SBD,M,
Boys,139.71,DQ,Kellen Rollins,Blue Ridge,134.81,272.16,,,,Single-ply,SBD,M,
Boys,139.71+,1,Derek Patterson,Lone Oak,141.52,294.84,161.03,224.53,680.39,Single-ply,SBD,M,
Boys,139.71+,2,Hector Mares,Dallas A+,153.59,210.92,127.01,174.63,512.56,Single-ply,SBD,M,
Boys,139.71+,3,Joseph Monroe,Bells,175.72,219.99,120.2,172.37,512.56,Single-ply,SBD,M,
Boys,139.71+,DQ,Noah Howell,Commerce,144.42,265.35,,,,Single-ply,SBD,M,
