Division,WeightClassKg,Place,Name,Team,BodyweightKg,Best3SquatKg,Best3BenchKg,Best3DeadliftKg,TotalKg,Equipment,Event,Sex
Boys,51.71,1,Richard Ballew,Clute Brazoswood,49.99,106.59,68.04,111.13,285.76,Single-ply,SBD,M
Boys,55.79,1,Armando Cabriales,Clute Brazoswood,55.61,133.81,81.65,154.22,369.68,Single-ply,SBD,M
Boys,59.87,1,Marco Sanchez,Hitchcock,57.7,151.95,74.84,151.95,378.75,Single-ply,SBD,M
Boys,59.87,2,Richard Salazar #2,West Columbia,59.87,127.01,74.84,131.54,333.39,Single-ply,SBD,M
Boys,67.13,1,Dakota Mann,West Columbia,67.04,158.76,102.06,170.1,430.91,Single-ply,SBD,M
Boys,67.13,2,Devin West,Clute Brazoswood,66.59,161.03,81.65,172.37,415.04,Single-ply,SBD,M
Boys,67.13,3,Clay Frick,Sweeny,63.59,158.76,83.91,165.56,408.23,Single-ply,SBD,M
Boys,67.13,4,James Palma,Alvin Shadow Creek,66.22,142.88,90.72,172.37,405.97,Single-ply,SBD,M
Boys,67.13,5,Sterling Smith,Manvel,64.23,124.74,88.45,183.7,396.89,Single-ply,SBD,M
Boys,67.13,6,Jacob Rainer,Alvin Shadow Creek,65.05,138.35,92.99,161.03,392.36,Single-ply,SBD,M
Boys,67.13,7,Brenden Nino,Alvin Shadow Creek,66.59,136.08,88.45,151.95,376.48,Single-ply,SBD,M
Boys,67.13,8,Chris Miller,West Columbia,67.04,136.08,83.91,147.42,367.41,Single-ply,SBD,M
Boys,67.13,9,Juan Mendoza #5,Freeport Brazosport,64.23,136.08,79.38,149.69,365.14,Single-ply,SBD,M
Boys,67.13,10,Chris Oller,West Columbia,63.87,127.01,83.91,142.88,353.8,Single-ply,SBD,M
Boys,67.13,11,Enrique Alvarez,Hitchcock,64.59,129.27,52.16,158.76,340.19,Single-ply,SBD,M
Boys,67.13,12,Francisco Castro,Freeport Brazosport,61.14,106.59,68.04,124.74,299.37,Single-ply,SBD,M
Boys,67.13,13,Korion McNeal,Hitchcock,67.13,102.06,74.84,122.47,299.37,Single-ply,SBD,M
Boys,74.84,1,Mason Seay,Clute Brazoswood,73.12,192.78,102.06,204.12,498.95,Single-ply,SBD,M
Boys,74.84,2,Caleb Graddick,Freeport Brazosport,74.84,147.42,102.06,192.78,442.25,Single-ply,SBD,M
Boys,74.84,3,Micah Bumgarner,Hitchcock,74.39,163.29,102.06,172.37,437.72,Single-ply,SBD,M
Boys,74.84,4,Davin Vasquez,Clute Brazoswood,74.03,147.42,92.99,183.7,424.11,Single-ply,SBD,M
Boys,74.84,5,Duston Sanders,Clute Brazoswood,74.12,154.22,83.91,185.97,424.11,Single-ply,SBD,M
Boys,74.84,6,Stephen Morales,Hitchcock,71.85,172.37,83.91,163.29,419.57,Single-ply,SBD,M
Boys,74.84,7,Ethan Fuentes,Freeport Brazosport,69.13,167.83,77.11,163.29,408.23,Single-ply,SBD,M
Boys,74.84,8,Daniel Cantu,Clute Brazoswood,69.85,133.81,86.18,170.1,390.09,Single-ply,SBD,M
Boys,74.84,9,Luis Garcia #8,West Columbia,70.67,131.54,79.38,165.56,376.48,Single-ply,SBD,M
Boys,74.84,DQ,Jalen Paxton,Manvel,72.57,129.27,,58.97,,Single-ply,SBD,M
Boys,74.84,DQ,Aaron Moore,Clute Brazoswood,73.39,151.95,97.52,,,Single-ply,SBD,M
Boys,82.1,1,Jason Martinez,Alvin Shadow Creek,77.29,183.7,147.42,197.31,528.44,Single-ply,SBD,M
Boys,82.1,2,Lane Caballero,Clute Brazoswood,81.37,183.7,86.18,192.78,462.66,Single-ply,SBD,M
Boys,82.1,3,Shemar Bryant,Sweeny,80.01,145.15,92.99,183.7,421.84,Single-ply,SBD,M
Boys,82.1,DQ,Nick Wilkerson,Sweeny,80.65,147.42,,,,Single-ply,SBD,M
Boys,89.81,1,Brady Byrd,Sweeny,89.36,235.87,124.74,215.46,576.06,Single-ply,SBD,M
Boys,89.81,2,Kody Gums,Stafford,89.18,192.78,122.47,204.12,519.36,Single-ply,SBD,M
Boys,89.81,3,E'fabian Allen,Alvin Shadow Creek,89.81,195.04,108.86,197.31,501.22,Single-ply,SBD,M
Boys,89.81,4,Michael Oketumbi,Manvel,88.72,183.7,90.72,199.58,474,Single-ply,SBD,M
Boys,89.81,5,Kelvon York-Norman,Hitchcock,89.81,204.12,117.93,149.69,471.74,Single-ply,SBD,M
Boys,89.81,6,Dorian McDougal,Clute Brazoswood,83.82,167.83,115.67,179.17,462.66,Single-ply,SBD,M
Boys,89.81,7,Osman Tabora,Alvin Shadow Creek,89.18,158.76,95.25,192.78,446.79,Single-ply,SBD,M
Boys,89.81,8,Josh Ellis #3,Sweeny,88.99,165.56,108.86,158.76,433.18,Single-ply,SBD,M
Boys,89.81,9,Tyler Caluneo,Alvin Shadow Creek,83.82,113.4,83.91,131.54,328.85,Single-ply,SBD,M
Boys,89.81,DQ,Mario Vega,Clute Brazoswood,85.64,206.38,,,,Single-ply,SBD,M
Boys,99.79,1,Marc Huber,Clute Brazoswood,99.34,210.92,131.54,215.46,557.92,Single-ply,SBD,M
Boys,99.79,2,Ken Savanna,Stafford,95.8,199.58,138.35,215.46,553.38,Single-ply,SBD,M
Boys,99.79,3,Terrance Boxie,Stafford,90.26,163.29,131.54,210.92,505.76,Single-ply,SBD,M
Boys,99.79,4,Reggie Freeman,Manvel,96.07,197.31,113.4,192.78,503.49,Single-ply,SBD,M
Boys,99.79,5,James Cobb,Sweeny,95.98,190.51,102.06,204.12,496.68,Single-ply,SBD,M
Boys,99.79,6,Brandon Welch,Clute Brazoswood,95.44,183.7,122.47,188.24,494.42,Single-ply,SBD,M
Boys,99.79,7,Harry Urban,Clute Brazoswood,94.35,176.9,120.2,192.78,489.88,Single-ply,SBD,M
Boys,99.79,8,Braden Davis,West Columbia,98.97,176.9,122.47,179.17,478.54,Single-ply,SBD,M
Boys,99.79,9,Jj Winters,Sweeny,94.17,165.56,108.86,142.88,417.3,Single-ply,SBD,M
Boys,99.79,10,Osiris Jackson,Alvin Shadow Creek,95.16,158.76,97.52,156.49,412.77,Single-ply,SBD,M
Boys,99.79,11,Robert Wooten,Stafford,90.63,151.95,106.59,151.95,410.5,Single-ply,SBD,M
Boys,99.79,12,Pete Aluis,Freeport Brazosport,91.08,136.08,74.84,151.95,362.87,Single-ply,SBD,M
Boys,99.79,13,John Abernathy,Manvel,96.98,124.74,68.04,129.27,322.05,Single-ply,SBD,M
Boys,109.77,1,Xavian Hampton,Hitchcock,107.68,285.76,158.76,249.48,694,Single-ply,SBD,M
Boys,109.77,2,John Ray,Alvin Shadow Creek,105.6,238.14,142.88,242.67,623.69,Single-ply,SBD,M
Boys,109.77,3,Ethan George,Stafford,101.06,226.8,136.08,204.12,566.99,Single-ply,SBD,M
Boys,109.77,4,Garrison Johnson,Manvel,104.33,206.38,111.13,217.72,535.24,Single-ply,SBD,M
Boys,109.77,5,Armon Chowdury,Sweeny,104.14,206.38,122.47,165.56,494.42,Single-ply,SBD,M
Boys,109.77,6,Corey Villen,Alvin Shadow Creek,109.77,188.24,92.99,192.78,474,Single-ply,SBD,M
Boys,109.77,7,London Solis,West Columbia,101.33,163.29,108.86,151.95,424.11,Single-ply,SBD,M
Boys,109.77,8,Nathaniel Guajardo,Alvin Shadow Creek,107.41,151.95,74.84,151.95,378.75,Single-ply,SBD,M
Boys,109.77,9,Rafael Martinez,West Columbia,106.05,151.95,61.23,142.88,356.07,Single-ply,SBD,M
Boys,124.74,1,Zach Natt,Stafford,113.4,192.78,122.47,195.04,510.29,Single-ply,SBD,M
Boys,124.74,2,Juan Hernández #14,Manvel,120.75,199.58,102.06,181.44,483.08,Single-ply,SBD,M
Boys,124.74,3,Cruz Soria,Freeport Brazosport,115.03,165.56,117.93,154.22,437.72,Single-ply,SBD,M
Boys,124.74+,1,Michael Willer,Sweeny,140.89,333.39,170.1,278.96,782.45,Single-ply,SBD,M
Boys,124.74+,2,John Woods,Sweeny,162.75,249.48,183.7,229.06,662.24,Single-ply,SBD,M
Boys,124.74+,3,Damarius Countee,Manvel,148.87,238.14,142.88,195.04,576.06,Single-ply,SBD,M
Boys,124.74+,4,Layden Robinson,Manvel,133.45,183.7,129.27,226.8,539.77,Single-ply,SBD,M
Boys,124.74+,5,Dustin Gaona,Clute Brazoswood,145.6,192.78,124.74,208.65,526.17,Single-ply,SBD,M
Boys,124.74+,6,Shamir Lewis,Freeport Brazosport,172.55,106.59,83.91,158.76,349.27,Single-ply,SBD,M
Boys,124.74+,DQ,Bradyn Hare,Freeport Brazosport,130.18,217.72,124.74,,,Single-ply,SBD,M
Boys,124.74+,DQ,Marcus Smith,Stafford,141.43,181.44,142.88,,,Single-ply,SBD,M
