Division,WeightClassKg,Place,Name,Team,BodyweightKg,Best3SquatKg,Best3BenchKg,Best3DeadliftKg,TotalKg,Equipment,Event,Sex
Boys,51.71,1,Tuti Garcia,Los Fresnos,48.72,124.74,61.23,145.15,331.12,Single-ply,SBD,M
Boys,55.79,2,Dillion Rodriguez,Edcouch-Elsa,51.8,102.06,83.91,142.88,328.85,Single-ply,SBD,M
Boys,51.71,3,Edgar Hernandez,Brownsville Rivera,51.71,117.93,77.11,127.01,322.05,Single-ply,SBD,M
Boys,51.71,4,Frank Perez,Brownsville Lopez,45.9,74.84,68.04,102.06,244.94,Single-ply,SBD,M
Boys,51.71,5,Nathan Carrion,Weslaco,48.17,79.38,45.36,102.06,226.8,Single-ply,SBD,M
Boys,51.71,6,Jorge Tinajero,Brownsville Porter,49.9,72.57,45.36,88.45,206.38,Single-ply,SBD,M
Boys,55.79,1,Omar Puente,Los Fresnos,55.52,195.04,129.27,210.92,535.24,Single-ply,SBD,M
Boys,55.79,2,Jerry Lopez,Port Isabel,54.79,188.24,104.33,181.44,474,Single-ply,SBD,M
Boys,55.79,3,Luis Vasquez,Los Fresnos,55.79,147.42,99.79,183.7,430.91,Single-ply,SBD,M
Boys,55.79,4,Raul Mata,San Benito,54.43,131.54,95.25,161.03,387.82,Single-ply,SBD,M
Boys,55.79,5,Albert de la Rosa,San Benito,52.07,122.47,74.84,142.88,340.19,Single-ply,SBD,M
Boys,59.87,6,Arturo Galindo,Brownsville Hanna,55.88,106.59,70.31,136.08,312.98,Single-ply,SBD,M
Boys,55.79,7,Hugo Abarca,Lyford,53.34,111.13,63.5,122.47,297.1,Single-ply,SBD,M
Boys,59.87,8,Adam Cancino,La Feria,55.97,108.86,63.5,122.47,294.84,Single-ply,SBD,M
Boys,55.79,9,Omar Garcia,Brownsville Veterans Memorial,54.52,88.45,54.43,95.25,238.14,Single-ply,SBD,M
Boys,55.79,10,Miguel Cervantes,Brownsville Lopez,55.79,74.84,54.43,106.59,235.87,Single-ply,SBD,M
Boys,55.79,11,Danny Covarrubias,Brownsville Porter,52.16,45.36,40.82,102.06,188.24,Single-ply,SBD,M
Boys,55.79,DQ,Aaron Vasquez,Edcouch-Elsa,55.61,136.08,,,,Single-ply,SBD,M
Boys,55.79,DQ,Ralph Zapata,Rio Hondo,54.16,142.88,,,,Single-ply,SBD,M
Boys,59.87,1,Aaron Robles,San Benito,59.69,181.44,117.93,208.65,508.02,Single-ply,SBD,M
Boys,67.13,2,Alan Alfaro,Rio Hondo,60.06,174.63,79.38,179.17,433.18,Single-ply,SBD,M
Boys,59.87,3,Heliseo Guerrero,Rio Hondo,59.24,163.29,92.99,165.56,421.84,Single-ply,SBD,M
Boys,59.87,4,Joe Ibanez,Brownsville Pace,58.15,138.35,74.84,165.56,378.75,Single-ply,SBD,M
Boys,59.87,5,Randy Medellin,San Benito,56.06,124.74,77.11,158.76,360.61,Single-ply,SBD,M
Boys,59.87,6,Daniel Diaz,Brownsville Lopez,57.61,111.13,97.52,147.42,356.07,Single-ply,SBD,M
Boys,59.87,7,Billy Guerra,La Feria,58.51,145.15,56.7,142.88,344.73,Single-ply,SBD,M
Boys,59.87,8,Rafael Ledezma,Brownsville Porter,59.6,127.01,72.57,142.88,342.46,Single-ply,SBD,M
Boys,59.87,9,Nathan Garcia,Brownsville Veterans Memorial,57.7,120.2,90.72,124.74,335.66,Single-ply,SBD,M
Boys,67.13,1,Carlos Castillo,Los Fresnos,66.68,195.04,111.13,206.38,512.56,Single-ply,SBD,M
Boys,67.13,2,Kenny Atkinson,Los Fresnos,66.95,167.83,122.47,185.97,476.27,Single-ply,SBD,M
Boys,67.13,3,Carlos Grimaldo,Brownsville Hanna,67.04,147.42,106.59,165.56,419.57,Single-ply,SBD,M
Boys,67.13,4,Marco Arista,Port Isabel,66.04,161.03,90.72,165.56,417.3,Single-ply,SBD,M
Boys,67.13,5,Alex Garcia #8,Brownsville Lopez,65.32,138.35,81.65,170.1,390.09,Single-ply,SBD,M
Boys,74.84,6,Andres Vasquez,Brownsville Rivera,67.22,124.74,102.06,156.49,383.29,Single-ply,SBD,M
Boys,67.13,7,David Garcia #12,Brownsville Veterans Memorial,63.87,129.27,90.72,158.76,378.75,Single-ply,SBD,M
Boys,67.13,8,Oscar Gonzalez,Brownsville Porter,66.32,136.08,79.38,161.03,376.48,Single-ply,SBD,M
Boys,67.13,9,Horacio Salinas,Brownsville Lopez,65.95,138.35,92.99,142.88,374.21,Single-ply,SBD,M
Boys,67.13,10,Jesse Ibanez,San Benito,65.59,136.08,88.45,136.08,360.61,Single-ply,SBD,M
Boys,67.13,11,Omar Rodriguez,Brownsville Veterans Memorial,63.59,131.54,81.65,145.15,358.34,Single-ply,SBD,M
Boys,67.13,12,Anthony Noyala,San Benito,62.69,133.81,83.91,136.08,353.8,Single-ply,SBD,M
Boys,67.13,13,Andres Trinidad,Brownsville Pace,62.23,111.13,102.06,136.08,349.27,Single-ply,SBD,M
Boys,67.13,14,Alfonso Torres,Brownsville Rivera,64.23,124.74,86.18,124.74,335.66,Single-ply,SBD,M
Boys,67.13,15,Ricky Gonzalez,Brownsville Hanna,64.14,111.13,77.11,124.74,312.98,Single-ply,SBD,M
Boys,74.84,16,Louis Izaguirre,Brownsville Porter,67.31,115.67,63.5,131.54,310.71,Single-ply,SBD,M
Boys,67.13,17,Albert Vasquez,La Feria,65.77,115.67,61.23,127.01,303.91,Single-ply,SBD,M
Boys,67.13,18,Juan Zamora,Brownsville Porter,64.41,106.59,49.9,136.08,292.57,Single-ply,SBD,M
Boys,67.13,DQ,Albert Medina,Brownsville Pace,67.04,104.33,88.45,,,Single-ply,SBD,M
Boys,67.13,DQ,Aaron Estevanes,Weslaco,60.42,,,,,Single-ply,SBD,M
Boys,67.13,DQ,Juan Guerrero,Weslaco,65.05,,,,,Single-ply,SBD,M
Boys,67.13,DQ,Emilio Martinez,Rio Hondo,66.54,,,,,Single-ply,SBD,M
Boys,74.84,1,Jerry Alaniz,La Feria,74.12,226.8,142.88,229.06,598.74,Single-ply,SBD,M
Boys,74.84,2,Joe Torres #5,Los Fresnos,74.84,219.99,142.88,217.72,580.6,Single-ply,SBD,M
Boys,74.84,3,Abel Rangel,La Feria,73.48,213.19,111.13,213.19,537.51,Single-ply,SBD,M
Boys,74.84,4,Nathan Mireles,San Benito,73.03,192.78,127.01,197.31,517.1,Single-ply,SBD,M
Boys,74.84,5,Marco Garate,Rio Hondo,69.58,183.7,108.86,195.04,487.61,Single-ply,SBD,M
Boys,74.84,6,Miguel Mariscal,Edcouch-Elsa,72.03,161.03,127.01,179.17,467.2,Single-ply,SBD,M
Boys,74.84,7,José Fernández,Brownsville Rivera,69.76,151.95,106.59,176.9,435.45,Single-ply,SBD,M
Boys,82.1,8,Daniel Campos,Edcouch-Elsa,74.93,156.49,97.52,174.63,428.64,Single-ply,SBD,M
Boys,74.84,9,Daniel Flores,Rio Hondo,74.12,174.63,92.99,156.49,424.11,Single-ply,SBD,M
Boys,74.84,10,Ricardo Carlos,Brownsville Veterans Memorial,74.57,158.76,83.91,147.42,390.09,Single-ply,SBD,M
Boys,74.84,11,Oscar Flores,Brownsville Pace,71.58,151.95,88.45,136.08,376.48,Single-ply,SBD,M
Boys,74.84,12,David Yanes,Port Isabel,68.04,142.88,79.38,151.95,374.21,Single-ply,SBD,M
Boys,74.84,13,Jose Martinez #16,Brownsville Pace,70.67,102.06,79.38,102.06,283.5,Single-ply,SBD,M
Boys,74.84,DQ,Chris Salinas,La Feria,68.13,131.54,,,,Single-ply,SBD,M
Boys,82.1,1,Ben Nevarez,Edcouch-Elsa,81.74,226.8,147.42,272.16,646.37,Single-ply,SBD,M
Boys,82.1,2,Ramon Sauceda,La Feria,80.65,226.8,158.76,235.87,621.42,Single-ply,SBD,M
Boys,82.1,3,Rene Aguilar,Brownsville Lopez,77.75,183.7,127.01,208.65,519.36,Single-ply,SBD,M
Boys,82.1,4,Max Gonzalez,Weslaco,82.1,201.85,120.2,197.31,519.36,Single-ply,SBD,M
Boys,82.1,5,Juan Garza,Brownsville Rivera,81.28,192.78,113.4,206.38,512.56,Single-ply,SBD,M
Boys,82.1,6,Armando Garza,La Feria,78.65,188.24,120.2,188.24,496.68,Single-ply,SBD,M
Boys,82.1,7,Diego Garcia #9,Edcouch-Elsa,77.02,192.78,111.13,179.17,483.08,Single-ply,SBD,M
Boys,82.1,8,Andres Lucio,Brownsville Rivera,81.28,165.56,111.13,192.78,469.47,Single-ply,SBD,M
Boys,82.1,9,Cordero Castro,Lyford,77.66,188.24,102.06,176.9,467.2,Single-ply,SBD,M
Boys,82.1,10,Eduardo Estrada,La Feria,80.65,163.29,131.54,167.83,462.66,Single-ply,SBD,M
Boys,82.1,11,Travis Ramos,Lyford,78.2,188.24,113.4,156.49,458.13,Single-ply,SBD,M
Boys,82.1,12,Roger Tapia,Brownsville Veterans Memorial,80.92,170.1,106.59,181.44,458.13,Single-ply,SBD,M
Boys,82.1,13,Brandon Cantu,Port Isabel,81.1,151.95,111.13,192.78,455.86,Single-ply,SBD,M
Boys,82.1,14,Juan Barrientos,Brownsville Hanna,81.47,165.56,113.4,151.95,430.91,Single-ply,SBD,M
Boys,82.1,15,Gabriel Alvarado,Brownsville Pace,78.83,142.88,102.06,183.7,428.64,Single-ply,SBD,M
Boys,82.1,16,Alex Ritta,Brownsville Porter,76.75,142.88,97.52,183.7,424.11,Single-ply,SBD,M
Boys,82.1,17,Karlo Dominguez,Brownsville Pace,78.11,142.88,124.74,154.22,421.84,Single-ply,SBD,M
Boys,82.1,18,Arturo Villano,Brownsville Pace,80.74,156.49,102.06,158.76,417.3,Single-ply,SBD,M
Boys,82.1,19,Miguel Medina,Lyford,77.66,149.69,97.52,136.08,383.29,Single-ply,SBD,M
Boys,82.1,20,Freddy de la Garza,Brownsville Hanna,76.2,124.74,92.99,142.88,360.61,Single-ply,SBD,M
Boys,82.1,DQ,Eric Acuna,Brownsville Hanna,81.65,124.74,113.4,,,Single-ply,SBD,M
Boys,82.1,DQ,Jose Tijerina,Weslaco,77.29,156.49,,,,Single-ply,SBD,M
Boys,89.81,1,Fernando Rivera #2,Port Isabel,86.64,215.46,142.88,208.65,566.99,Single-ply,SBD,M
Boys,89.81,2,Daniel Cisneros,Brownsville Lopez,89.18,174.63,127.01,195.04,496.68,Single-ply,SBD,M
Boys,89.81,3,Jacob Martin,Weslaco,84.91,174.63,129.27,174.63,478.54,Single-ply,SBD,M
Boys,89.81,4,Ricky Rodriguez,San Benito,88.63,158.76,113.4,195.04,467.2,Single-ply,SBD,M
Boys,89.81,5,Isaac Martinez,Port Isabel,86.64,165.56,113.4,181.44,460.4,Single-ply,SBD,M
Boys,89.81,6,Cristian Hoshino,Port Isabel,84.46,183.7,106.59,161.03,451.32,Single-ply,SBD,M
Boys,89.81,7,Ricardo Sauceda,Brownsville Lopez,89.81,149.69,115.67,163.29,428.64,Single-ply,SBD,M
Boys,89.81,8,Luis Zermano,Brownsville Lopez,88.18,145.15,97.52,163.29,405.97,Single-ply,SBD,M
Boys,89.81,9,Chris Granja,Brownsville Hanna,83.28,133.81,83.91,172.37,390.09,Single-ply,SBD,M
Boys,89.81,10,Eddie Garcia,Brownsville Hanna,88.09,142.88,95.25,151.95,390.09,Single-ply,SBD,M
Boys,89.81,11,Pedro Ramos,Brownsville Pace,86.27,124.74,83.91,136.08,344.73,Single-ply,SBD,M
Boys,89.81,DQ,George Gutierrez,Brownsville Porter,88.45,151.95,,,,Single-ply,SBD,M
Boys,99.79,1,Michael Alvarez,Brownsville Pace,94.8,183.7,95.25,174.63,453.59,Single-ply,SBD,M
Boys,99.79,2,Israel Torres,La Feria,92.26,165.56,108.86,176.9,451.32,Single-ply,SBD,M
Boys,99.79,3,Bryan Lawrence,Brownsville Veterans Memorial,96.34,163.29,102.06,161.03,426.38,Single-ply,SBD,M
Boys,99.79,4,Felipe Ledezma,Brownsville Hanna,92.44,142.88,92.99,156.49,392.36,Single-ply,SBD,M
Boys,99.79,5,Mattew Trinidad,Brownsville Hanna,99.79,138.35,102.06,142.88,383.29,Single-ply,SBD,M
Boys,99.79,6,Mark Garcia,Brownsville Porter,93.26,136.08,74.84,145.15,356.07,Single-ply,SBD,M
Boys,99.79,7,Robert Rivas,Brownsville Porter,96.43,104.33,79.38,154.22,337.93,Single-ply,SBD,M
Boys,99.79,DQ,Mike Perez,Weslaco,90.36,,,,,Single-ply,SBD,M
Boys,99.79,DQ,Estevan Reyes,Weslaco,99.61,,,,,Single-ply,SBD,M
Boys,109.77,1,Julio Rivas,San Benito,104.05,247.21,163.29,249.48,659.98,Single-ply,SBD,M
Boys,109.77,2,Alex Valencia,Los Fresnos,105.51,235.87,165.56,235.87,637.3,Single-ply,SBD,M
Boys,109.77,3,Juan Gallegos,Rio Hondo,106.78,219.99,151.95,215.46,587.4,Single-ply,SBD,M
Boys,109.77,4,Mike Garza,Edcouch-Elsa,102.24,226.8,133.81,217.72,578.33,Single-ply,SBD,M
Boys,109.77,5,Jacob Alaniz,Brownsville Veterans Memorial,104.42,210.92,127.01,231.33,569.26,Single-ply,SBD,M
Boys,109.77,6,Mike Cervantes,Lyford,107.77,226.8,136.08,181.44,544.31,Single-ply,SBD,M
Boys,109.77,7,Frank Alvarez,Port Isabel,107.05,165.56,108.86,201.85,476.27,Single-ply,SBD,M
Boys,109.77,8,Jesus Anaya,Weslaco,106.23,172.37,113.4,188.24,474,Single-ply,SBD,M
Boys,109.77,9,Luis Martinez,San Benito,103.51,170.1,129.27,167.83,467.2,Single-ply,SBD,M
Boys,109.77,10,Sonny Vasquez,Lyford,107.77,136.08,90.72,120.2,347,Single-ply,SBD,M
Boys,124.74,1,Gabriel Garzoria,Los Fresnos,119.84,215.46,183.7,238.14,637.3,Single-ply,SBD,M
Boys,124.74,2,Alejandro Briseno,Brownsville Rivera,110.86,219.99,147.42,226.8,594.21,Single-ply,SBD,M
Boys,124.74,3,Gabriel Rodriguez,Edcouch-Elsa,113.13,215.46,147.42,210.92,573.79,Single-ply,SBD,M
Boys,124.74,4,Jesse Guzman,Brownsville Veterans Memorial,110.95,197.31,106.59,183.7,487.61,Single-ply,SBD,M
Boys,124.74,5,Rene Perez,Weslaco,118.3,179.17,124.74,181.44,485.34,Single-ply,SBD,M
Boys,124.74+,1,Josue Garzoria,Los Fresnos,141.07,249.48,183.7,258.55,691.73,Single-ply,SBD,M
Boys,124.74+,2,Jose Limon,Los Fresnos,139.62,249.48,136.08,249.48,635.03,Single-ply,SBD,M
Boys,124.74+,3,John Reyes #2,Rio Hondo,137.08,249.48,156.49,197.31,603.28,Single-ply,SBD,M
Boys,124.74+,4,Armondo Castillo,Brownsville Lopez,125.37,167.83,113.4,192.78,474,Single-ply,SBD,M
Boys,124.74+,5,Gage Rivas,Brownsville Veterans Memorial,128.73,181.44,120.2,172.37,474,Single-ply,SBD,M
Boys,124.74+,6,Manny Pena,Brownsville Hanna,179.89,183.7,115.67,174.63,474,Single-ply,SBD,M
Boys,124.74+,7,Anthony Castillo,Brownsville Lopez,125.19,167.83,122.47,163.29,453.59,Single-ply,SBD,M
Boys,124.74+,DQ,Cristo de la Cruz,Brownsville Pace,125.65,,,,,Single-ply,SBD,M
Boys,124.74+,DQ,Pablo Salto,Edcouch-Elsa,139.98,,,,,Single-ply,SBD,M
