Division,WeightClassKg,Place,Name,Team,BodyweightKg,Best3SquatKg,Best3BenchKg,Best3DeadliftKg,TotalKg,Equipment,Event,Sex,BirthDate
Boys,51.71,1,Heath Scholottman,Mount Vernon,51.62,149.69,88.45,163.29,401.43,Single-ply,SBD,M,
Boys,51.71,2,Max Williamson,Sulphur Springs,51.44,117.93,74.84,127.01,319.78,Single-ply,SBD,M,
Boys,51.71,3,Aden Luna,Ore City,51.71,92.99,58.97,104.33,256.28,Single-ply,SBD,M,
Boys,51.71,4,Juan Ramos,Daingerfield,50.44,72.57,40.82,111.13,224.53,Single-ply,SBD,M,
Boys,51.71,DQ,Matt Watins,Daingerfield,49.8,,,,,Single-ply,SBD,M,
Boys,55.79,1,Hugo Sanchez,Pattonville Prairiland,55.07,158.76,95.25,151.95,405.97,Single-ply,SBD,M,
Boys,55.79,2,Dillon Bobbitt,Greenville,51.8,145.15,70.31,131.54,347,Single-ply,SBD,M,
Boys,55.79,3,Garrett Lowry,Paris,55.25,111.13,81.65,136.08,328.85,Single-ply,SBD,M,
Boys,55.79,4,Alex Simpson,Daingerfield,52.44,90.72,72.57,111.13,274.42,Single-ply,SBD,M,
Boys,55.79,5,Aven Blaylock,Tyler,55.07,68.04,49.9,92.99,210.92,Single-ply,SBD,M,
Boys,59.87,1,Thomas Morris,Omaha Pewitt,59.87,129.27,83.91,145.15,358.34,Single-ply,SBD,M,
Boys,59.87,2,David Chavez,Mount Pleasant,57.97,122.47,77.11,151.95,351.53,Single-ply,SBD,M,
Boys,59.87,3,Abraham Banueloz,Sulphur Springs,57.61,131.54,68.04,138.35,337.93,Single-ply,SBD,M,
Boys,59.87,4,Cristobal Torres,Sulphur Springs,58.88,120.2,70.31,136.08,326.59,Single-ply,SBD,M,
Boys,59.87,5,RJ Galloway,Texarkana Liberty-Eylau,58.88,102.06,61.23,122.47,285.76,Single-ply,SBD,M,
Boys,67.13,1,Johnathan Jones,Paris,66.59,204.12,102.06,197.31,503.49,Single-ply,SBD,M,
Boys,67.13,2,Karson Owens,Mount Pleasant Chapel Hill,59.96,149.69,86.18,172.37,408.23,Single-ply,SBD,M,
Boys,67.13,3,Lane Davis,Mount Pleasant Chapel Hill,64.86,149.69,97.52,161.03,408.23,Single-ply,SBD,M,
Boys,67.13,4,Kyle Ritter,Ore City,64.5,149.69,88.45,167.83,405.97,Single-ply,SBD,M,
Boys,67.13,5,Leo Fajardo,Marshall,66.22,140.61,92.99,151.95,385.55,Single-ply,SBD,M,
Boys,67.13,6,Braydon Beck,Paris,60.6,142.88,83.91,151.95,378.75,Single-ply,SBD,M,
Boys,67.13,7,Nick Collins,Tyler,65.05,170.1,63.5,136.08,369.68,Single-ply,SBD,M,
Boys,67.13,8,Kearon Padron,Daingerfield,64.68,111.13,83.91,145.15,340.19,Single-ply,SBD,M,
Boys,67.13,9,Keenan Hudson,Pattonville Prairiland,60.87,115.67,68.04,133.81,317.51,Single-ply,SBD,M,
Boys,67.13,DQ,Colt Silman,Sulphur Springs,63.05,179.17,,,,Single-ply,SBD,M,
Boys,67.13,DQ,Micheal Pollen,Texarkana Liberty-Eylau,66.68,136.08,,,,Single-ply,SBD,M,
Boys,74.84,1,Cruz Hernandez,De Kalb,73.48,204.12,131.54,188.24,523.9,Single-ply,SBD,M,
Boys,74.84,2,Chase Mays,Mount Pleasant Chapel Hill,72.39,154.22,111.13,190.51,455.86,Single-ply,SBD,M,
Boys,74.84,3,Jaden Johnson,Greenville,68.49,165.56,111.13,165.56,442.25,Single-ply,SBD,M,
Boys,74.84,4,Cj Betts,De Kalb,73.94,174.63,102.06,158.76,435.45,Single-ply,SBD,M,
Boys,74.84,5,Eduardo Fajardo,Marshall,70.03,140.61,92.99,170.1,403.7,Single-ply,SBD,M,
Boys,74.84,6,Cody Waldroup,Greenville,71.21,158.76,83.91,156.49,399.16,Single-ply,SBD,M,
Boys,74.84,7,Jacori Turner,Mount Pleasant,73.48,154.22,108.86,124.74,387.82,Single-ply,SBD,M,
Boys,74.84,8,Jayden Freeman,Ore City,71.76,124.74,79.38,147.42,351.53,Single-ply,SBD,M,
Boys,74.84,9,Caleb Sears,Daingerfield,68.58,115.67,70.31,158.76,344.73,Single-ply,SBD,M,
Boys,74.84,10,Zachary Clark,Sulphur Springs,73.03,122.47,65.77,151.95,340.19,Single-ply,SBD,M,
Boys,74.84,11,Levi Barnes,Sulphur Springs,68.86,79.38,70.31,158.76,308.44,Single-ply,SBD,M,
Boys,74.84,DQ,Wyatt Clepper,Texarkana Liberty-Eylau,72.76,156.49,,,,Single-ply,SBD,M,
Boys,74.84,DQ,Andrew Huddleston,Mount Vernon,74.21,97.52,,,,Single-ply,SBD,M,
Boys,74.84,DQ,Kaden Orr,Mount Vernon,73.57,83.91,,,,Single-ply,SBD,M,
Boys,82.1,1,Isaiah Lowe,Greenville,82.1,226.8,129.27,244.94,601.01,Single-ply,SBD,M,
Boys,82.1,2,Makenzie McGill,Mount Vernon,80.1,201.85,113.4,229.06,544.31,Single-ply,SBD,M,
Boys,82.1,3,Kadyn McDonald,Paris,75.02,195.04,111.13,215.46,521.63,Single-ply,SBD,M,
Boys,82.1,4,Mario Farfan,Paris,78.29,158.76,108.86,174.63,442.25,Single-ply,SBD,M,
Boys,82.1,5,Andrew Cox,Mount Vernon,82.1,142.88,102.06,165.56,410.5,Single-ply,SBD,M,
Boys,82.1,6,Esteban Trejo,Mount Pleasant,80.38,156.49,74.84,165.56,396.89,Single-ply,SBD,M,
Boys,82.1,7,Barrett Thesing,Sulphur Springs,80.29,129.27,90.72,142.88,362.87,Single-ply,SBD,M,
Boys,82.1,8,Landon Huggins,Pittsburg,75.84,138.35,74.84,142.88,356.07,Single-ply,SBD,M,
Boys,82.1,9,Sawyer Deal,Mount Vernon,79.56,151.95,65.77,138.35,356.07,Single-ply,SBD,M,
Boys,82.1,10,Charles Harris #3,Pittsburg,77.47,129.27,65.77,151.95,347,Single-ply,SBD,M,
Boys,82.1,11,Trace Goforth,Omaha Pewitt,80.56,120.2,72.57,151.95,344.73,Single-ply,SBD,M,
Boys,82.1,12,Jonah Walker,Daingerfield,81.65,97.52,90.72,154.22,342.46,Single-ply,SBD,M,
Boys,82.1,13,Kenneth Vega,Mount Vernon,76.38,129.27,65.77,142.88,337.93,Single-ply,SBD,M,
Boys,82.1,14,Carson Blalock,Pattonville Prairiland,81.92,124.74,74.84,131.54,331.12,Single-ply,SBD,M,
Boys,82.1,15,Clayton Presley,Pattonville Prairiland,80.47,99.79,70.31,138.35,308.44,Single-ply,SBD,M,
Boys,82.1,DQ,Fernando Cortes,Pattonville Prairiland,75.02,,,,,Single-ply,SBD,M,
Boys,82.1,DQ,Xavier Hawkins,De Kalb,75.02,156.49,88.45,,,Single-ply,SBD,M,
Boys,89.81,1,Matthew Mitchell,Sulphur Springs,83.46,226.8,140.61,208.65,576.06,Single-ply,SBD,M,
Boys,89.81,2,Juan Ramos,Mount Vernon,85.55,192.78,129.27,192.78,514.83,Single-ply,SBD,M,
Boys,89.81,3,Kris Miranda,Pattonville Prairiland,89.45,185.97,129.27,183.7,498.95,Single-ply,SBD,M,
Boys,89.81,4,Daniel García,Mount Pleasant,87.36,204.12,97.52,181.44,483.08,Single-ply,SBD,M,
Boys,89.81,5,Nathan Andrews,Sulphur Springs,83.01,172.37,86.18,176.9,435.45,Single-ply,SBD,M,
Boys,89.81,6,Matthew Roland,Paris,89.63,138.35,113.4,147.42,399.16,Single-ply,SBD,M,
Boys,89.81,7,Isaias Civil,Tyler,86.36,102.06,106.59,158.76,367.41,Single-ply,SBD,M,
Boys,89.81,8,Weston Collard,Daingerfield,82.83,104.33,61.23,147.42,312.98,Single-ply,SBD,M,
Boys,89.81,9,Dustin Nevels,Omaha Pewitt,88.36,92.99,70.31,124.74,288.03,Single-ply,SBD,M,
Boys,89.81,DQ,John Murphree,Omaha Pewitt,87.63,,,,,Single-ply,SBD,M,
Boys,89.81,DQ,Amar Love,De Kalb,86.36,,,,,Single-ply,SBD,M,
Boys,89.81,DQ,Dunaireon Cantley,Tyler,88,,,,,Single-ply,SBD,M,
Boys,89.81,DQ,Jariah Moore,Paris,86.55,,,,,Single-ply,SBD,M,
Boys,89.81,DQ,Cole Gilbert,Pattonville Prairiland,85,,,,,Single-ply,SBD,M,
Boys,99.79,1,Hayden Thomas,Pattonville Prairiland,99.34,247.21,167.83,256.28,671.32,Single-ply,SBD,M,
Boys,99.79,2,Emiliano Portillo,Greenville,97.52,267.62,149.69,215.46,632.76,Single-ply,SBD,M,
Boys,99.79,3,Ben Hatcher,Sulphur Springs,92.53,229.06,138.35,226.8,594.21,Single-ply,SBD,M,
Boys,99.79,4,Taydrick Dawson,Paris,94.26,219.99,136.08,210.92,566.99,Single-ply,SBD,M,
Boys,99.79,5,Ty Price,Pittsburg,97.79,215.46,127.01,197.31,539.77,Single-ply,SBD,M,
Boys,99.79,6,Courtlyn Crabtree,Texarkana Liberty-Eylau,93.08,204.12,127.01,206.38,537.51,Single-ply,SBD,M,
Boys,99.79,7,Landon Bailey,Pattonville Prairiland,98.88,197.31,127.01,197.31,521.63,Single-ply,SBD,M,
Boys,99.79,8,Jaylon McFarland,Marshall,95.8,188.24,120.2,188.24,496.68,Single-ply,SBD,M,
Boys,99.79,9,Jose Gonzalez,Mount Pleasant,91.9,210.92,88.45,183.7,483.08,Single-ply,SBD,M,
Boys,99.79,10,Kollin Posey,Pittsburg,98.34,149.69,70.31,158.76,378.75,Single-ply,SBD,M,
Boys,99.79,11,Zeke Crane,Daingerfield,92.08,117.93,81.65,127.01,326.59,Single-ply,SBD,M,
Boys,99.79,DQ,Khdeel Parker,Greenville,91.08,,,,,Single-ply,SBD,M,
Boys,99.79,DQ,Rashad Ganter,Texarkana Liberty-Eylau,95.25,167.83,,,,Single-ply,SBD,M,
Boys,99.79,DQ,Payton Yandle,De Kalb,95.25,206.38,,,,Single-ply,SBD,M,
Boys,109.77,1,Chad Maynard,Sulphur Springs,100.88,274.42,145.15,215.46,635.03,Single-ply,SBD,M,
Boys,109.77,2,Trent Tennon,Paris,103.06,226.8,124.74,254.01,605.55,Single-ply,SBD,M,
Boys,109.77,3,Carson Combs,Marshall,105.41,238.14,147.42,219.99,605.55,Single-ply,SBD,M,
Boys,109.77,4,Carsen Cox,Pattonville Prairiland,108.23,219.99,127.01,219.99,566.99,Single-ply,SBD,M,
Boys,109.77,5,Corbin Brantley,Mount Vernon,105.6,201.85,147.42,192.78,542.04,Single-ply,SBD,M,
Boys,109.77,6,Connor Hagerty,Marshall,103.69,208.65,127.01,204.12,539.77,Single-ply,SBD,M,
Boys,109.77,7,Caiden Moore,Mount Vernon,102.78,206.38,138.35,192.78,537.51,Single-ply,SBD,M,
Boys,109.77,8,Ben Risner,Mount Vernon,106.14,192.78,129.27,192.78,514.83,Single-ply,SBD,M,
Boys,109.77,9,Rogers Clark,Texarkana Liberty-Eylau,100.79,195.04,127.01,188.24,510.29,Single-ply,SBD,M,
Boys,109.77,10,Gavin Pilarowski,Marshall,103.6,181.44,127.01,201.85,510.29,Single-ply,SBD,M,
Boys,109.77,11,Kanye Federick,Texarkana Liberty-Eylau,103.24,170.1,111.13,215.46,496.68,Single-ply,SBD,M,
Boys,109.77,12,John Taylor,Tyler,102.51,183.7,106.59,179.17,469.47,Single-ply,SBD,M,
Boys,109.77,13,Ameer Johnson,Tyler,107.95,192.78,124.74,142.88,460.4,Single-ply,SBD,M,
Boys,109.77,14,Otis Brown,Paris,99.88,167.83,83.91,158.76,410.5,Single-ply,SBD,M,
Boys,109.77,15,Connor Roche,Omaha Pewitt,105.96,165.56,68.04,158.76,392.36,Single-ply,SBD,M,
Boys,109.77,16,Gage Williams,Sulphur Springs,101.33,133.81,92.99,161.03,387.82,Single-ply,SBD,M,
Boys,109.77,17,Seth Robertson,Mount Pleasant,104.14,117.93,81.65,170.1,369.68,Single-ply,SBD,M,
Boys,109.77,18,VerKerious Smith,Tyler,100.7,115.67,72.57,142.88,331.12,Single-ply,SBD,M,
Boys,109.77,19,Jesse Gonzales,Mount Pleasant Chapel Hill,101.88,83.91,47.63,111.13,242.67,Single-ply,SBD,M,
Boys,124.74,1,Luis Venerjas,Greenville,119.75,263.08,165.56,238.14,666.78,Single-ply,SBD,M,
Boys,124.74,2,Micah Shepherd,Mount Pleasant,111.67,229.06,147.42,204.12,580.6,Single-ply,SBD,M,
Boys,124.74,3,Marlon Hayes,Daingerfield,111.04,201.85,156.49,215.46,573.79,Single-ply,SBD,M,
Boys,124.74,4,Corey Ingram,De Kalb,110.77,233.6,131.54,204.12,569.26,Single-ply,SBD,M,
Boys,124.74,5,Ariel Briceno,Pittsburg,115.94,249.48,106.59,199.58,555.65,Single-ply,SBD,M,
Boys,124.74,6,Malik Tatum,Daingerfield,115.67,199.58,108.86,235.87,544.31,Single-ply,SBD,M,
Boys,124.74,7,Xander Gonzalez,Greenville,124.47,226.8,111.13,183.7,521.63,Single-ply,SBD,M,
Boys,124.74,8,Colton Wilson,Omaha Pewitt,110.22,183.7,81.65,158.76,424.11,Single-ply,SBD,M,
Boys,124.74,9,Chris Rodriguez,Paris,115.76,136.08,92.99,163.29,392.36,Single-ply,SBD,M,
Boys,124.74,10,Michael Cooper,Tyler,112.67,142.88,92.99,149.69,385.55,Single-ply,SBD,M,
Boys,124.74,11,Nick Wallace,Daingerfield,116.57,142.88,90.72,149.69,383.29,Single-ply,SBD,M,
Boys,124.74,DQ,Jakaylon Williams,Marshall,120.47,183.7,131.54,,,Single-ply,SBD,M,
Boys,139.71,1,Nicholas Cruz,Tyler,128.82,229.06,149.69,222.26,601.01,Single-ply,SBD,M,
Boys,139.71,2,Sean Dial,Sulphur Springs,125.83,242.67,133.81,222.26,598.74,Single-ply,SBD,M,
Boys,139.71,3,Jy'Keelin Frazier,Daingerfield,132.54,226.8,136.08,204.12,566.99,Single-ply,SBD,M,
Boys,139.71,4,Hagen Jordan,Pattonville Prairiland,127.46,165.56,113.4,158.76,437.72,Single-ply,SBD,M,
Boys,139.71,5,Morgan Thrapp,Mount Pleasant Chapel Hill,124.83,161.03,97.52,158.76,417.3,Single-ply,SBD,M,
Boys,139.71,DQ,Taron Satchell,Marshall,136.08,272.16,174.63,,,Single-ply,SBD,M,
Boys,139.71+,1,Satchel Swain,Paris,139.8,299.37,174.63,254.01,728.02,Single-ply,SBD,M,
Boys,139.71+,2,Jason Murphy,Texarkana Liberty-Eylau,160.57,276.69,147.42,254.01,678.12,Single-ply,SBD,M,
Boys,139.71+,3,Jacob Seaton,Tyler,146.51,170.1,115.67,129.27,415.04,Single-ply,SBD,M,
Boys,139.71+,4,Payton Campbell,Tyler,142.25,133.81,77.11,145.15,356.07,Single-ply,SBD,M,
Boys,139.71+,DQ,Devon Weary,Texarkana Liberty-Eylau,140.89,131.54,,,,Single-ply,SBD,M,
